{
  "thisScenario": "A0",
  "nextScenario": "A1",
  "scenarioType": 4,
  "waitTime": 0.0,
  "secondaryWaitTime": [],
  "cameraFollow": false,
  "unitySceneToLoad": "",
  "startHappy": 0.0,
  "curHappy": 0.0,
  "reqHappy": 0.0,
  "addHappy": 0.0,
  "charactersInScene": [],
  "isEnd": false,
  "audioClip": 0,
  "layerCounter": [ 0, 0 ],
  "fadeIn": true,
  "backgroundCounter": 3,
  "characterName": "",
  "dialogue": "",
  "isTeller": false,
  "selectionQuestion": "",
  "nextBranch1": "",
  "nextBranch2": "",
  "nextBranch3": "",
  "selectionOption1": "",
  "selectionOption2": "",
  "selectionOption3": "",
  "moveThis": [],
  "lookingRight": [ false, true ],
  "moveTo": [],
  "moveSpeed": 0.0,
  "turnCharacter": false,
  "savePosition": [],
  "animationId": [],
  "loopAnimation": [],
  "isAnimated": [],
  "characterToSpawn": [ "Elli", "Äiti" ],
  "startPositions": [
    {
      "x": 1.5,
      "y": 0.0
    },
    {
      "x": -5.0,
      "y": 0.0
    }
  ],
  "clotheid": 0,
  "subid": 0,
  "selectedCutscene": 0,
  "zoomAmount": 0.0,
  "zoomPosition": {
    "x": 0.0,
    "y": 0.0
  },
  "zoomSpeed": 0.0,
  "reset": false,
  "dramaCounter": 0
}