{
	"thisScenario": "A19",
	"nextScenario": "",
	"scenarioType": 2,
	"waitTime": 0.0,
	"secondaryWaitTime": [],
	"cameraFollow": false,
	"unitySceneToLoad": "",
	"startHappy": 0.0,
	"curHappy": 0.0,
	"reqHappy": 0.0,
	"addHappy": 0.0,
	"charactersInScene": [],
	"isEnd": false,
	"audioClip": 0,
	"layerCounter": [],
	"fadeIn": false,
	"backgroundCounter": 0,
	"characterName": "",
	"dialogue": "",
	"isTeller": true,
	"selectionQuestion": "Mitä mun pitäs tehä?",
	"nextBranch1": "B1",
	"nextBranch2": "C1",
	"nextBranch3": "D1",
	"selectionOption1": "Anna asian olla",
	"selectionOption2": "Puolusta ystävääsi",
	"selectionOption3": "Kerro nuorisotilan henkilökunnalle",
	"moveThis": [],
	"lookingRight": [],
	"moveTo": [],
	"moveSpeed": 0.0,
	"turnCharacter": false,
	"savePosition": [],
	"animationId": [],
	"loopAnimation": [],
	"isAnimated": [],
	"characterToSpawn": [],
	"startPositions": [],
	"clotheid": 0,
	"subid": 0,
	"selectedCutscene": 0,
	"zoomAmount": 0.0,
	"zoomPosition": {
		"x": 0.0,
		"y": 0.0
	},
	"zoomSpeed": 0.0,
	"reset": false,
	"dramaCounter": 0
}