%YAML 1.1
%TAG !u! tag:unity3d.com,2011:
--- !u!74 &7400000
AnimationClip:
  m_ObjectHideFlags: 0
  m_PrefabParentObject: {fileID: 0}
  m_PrefabInternal: {fileID: 0}
  m_Name: EditAnimation2
  serializedVersion: 6
  m_Legacy: 1
  m_Compressed: 0
  m_UseHighQualityCurve: 1
  m_RotationCurves:
  - curve:
      serializedVersion: 2
      m_Curve:
      - serializedVersion: 2
        time: 0
        value: {x: 0, y: 0, z: 0, w: 1}
        inSlope: {x: 0, y: 0, z: -0.17762168, w: -0.00026464462}
        outSlope: {x: 0, y: 0, z: -0.17762168, w: -0.00026464462}
        tangentMode: 0
      - serializedVersion: 2
        time: 0.016666668
        value: {x: 0, y: 0, z: -0.0029603615, w: 0.9999956}
        inSlope: {x: 0, y: 0, z: -0.18580133, w: -0.00057578087}
        outSlope: {x: 0, y: 0, z: -0.18580133, w: -0.00057578087}
        tangentMode: 0
      - serializedVersion: 2
        time: 0.033333335
        value: {x: 0, y: 0, z: -0.006193378, w: 0.9999808}
        inSlope: {x: 0, y: 0, z: -0.20187715, w: -0.0012767314}
        outSlope: {x: 0, y: 0, z: -0.20187715, w: -0.0012767314}
        tangentMode: 0
      - serializedVersion: 2
        time: 0.050000004
        value: {x: 0, y: 0, z: -0.0096896, w: 0.99995303}
        inSlope: {x: 0, y: 0, z: -0.21738555, w: -0.0021332502}
        outSlope: {x: 0, y: 0, z: -0.21738555, w: -0.0021332502}
        tangentMode: 0
      - serializedVersion: 2
        time: 0.06666667
        value: {x: 0, y: 0, z: -0.013439563, w: 0.9999097}
        inSlope: {x: 0, y: 0, z: -0.23232529, w: -0.0031507018}
        outSlope: {x: 0, y: 0, z: -0.23232529, w: -0.0031507018}
        tangentMode: 0
      - serializedVersion: 2
        time: 0.083333336
        value: {x: 0, y: 0, z: -0.017433776, w: 0.999848}
        inSlope: {x: 0, y: 0, z: -0.24669492, w: -0.004330874}
        outSlope: {x: 0, y: 0, z: -0.24669492, w: -0.004330874}
        tangentMode: 0
      - serializedVersion: 2
        time: 0.1
        value: {x: 0, y: 0, z: -0.021662727, w: 0.99976534}
        inSlope: {x: 0, y: 0, z: -0.26049346, w: -0.0056737666}
        outSlope: {x: 0, y: 0, z: -0.26049346, w: -0.0056737666}
        tangentMode: 0
      - serializedVersion: 2
        time: 0.11666667
        value: {x: 0, y: 0, z: -0.02611689, w: 0.9996589}
        inSlope: {x: 0, y: 0, z: -0.27371922, w: -0.0071811667}
        outSlope: {x: 0, y: 0, z: -0.27371922, w: -0.0071811667}
        tangentMode: 0
      - serializedVersion: 2
        time: 0.13333334
        value: {x: 0, y: 0, z: -0.030786702, w: 0.99952596}
        inSlope: {x: 0, y: 0, z: -0.2863704, w: -0.008849501}
        outSlope: {x: 0, y: 0, z: -0.2863704, w: -0.008849501}
        tangentMode: 0
      - serializedVersion: 2
        time: 0.15
        value: {x: 0, y: 0, z: -0.035662573, w: 0.9993639}
        inSlope: {x: 0, y: 0, z: -0.29844576, w: -0.010678769}
        outSlope: {x: 0, y: 0, z: -0.29844576, w: -0.010678769}
        tangentMode: 0
      - serializedVersion: 2
        time: 0.16666667
        value: {x: 0, y: 0, z: -0.040734895, w: 0.99917}
        inSlope: {x: 0, y: 0, z: -0.30994368, w: -0.012665392}
        outSlope: {x: 0, y: 0, z: -0.30994368, w: -0.012665392}
        tangentMode: 0
      - serializedVersion: 2
        time: 0.18333334
        value: {x: 0, y: 0, z: -0.04599403, w: 0.9989417}
        inSlope: {x: 0, y: 0, z: -0.3208624, w: -0.014802219}
        outSlope: {x: 0, y: 0, z: -0.3208624, w: -0.014802219}
        tangentMode: 0
      - serializedVersion: 2
        time: 0.2
        value: {x: 0, y: 0, z: -0.051430307, w: 0.9986766}
        inSlope: {x: 0, y: 0, z: -0.33120042, w: -0.017083885}
        outSlope: {x: 0, y: 0, z: -0.33120042, w: -0.017083885}
        tangentMode: 0
      - serializedVersion: 2
        time: 0.21666667
        value: {x: 0, y: 0, z: -0.05703404, w: 0.99837226}
        inSlope: {x: 0, y: 0, z: -0.34095615, w: -0.019505026}
        outSlope: {x: 0, y: 0, z: -0.34095615, w: -0.019505026}
        tangentMode: 0
      - serializedVersion: 2
        time: 0.23333333
        value: {x: 0, y: 0, z: -0.06279551, w: 0.99802643}
        inSlope: {x: 0, y: 0, z: -0.35012853, w: -0.0220567}
        outSlope: {x: 0, y: 0, z: -0.35012853, w: -0.0220567}
        tangentMode: 0
      - serializedVersion: 2
        time: 0.25
        value: {x: 0, y: 0, z: -0.06870499, w: 0.99763703}
        inSlope: {x: 0, y: 0, z: -0.35871583, w: -0.024729956}
        outSlope: {x: 0, y: 0, z: -0.35871583, w: -0.024729956}
        tangentMode: 0
      - serializedVersion: 2
        time: 0.26666668
        value: {x: 0, y: 0, z: -0.07475271, w: 0.9972021}
        inSlope: {x: 0, y: 0, z: -0.36671668, w: -0.027514078}
        outSlope: {x: 0, y: 0, z: -0.36671668, w: -0.027514078}
        tangentMode: 0
      - serializedVersion: 2
        time: 0.28333336
        value: {x: 0, y: 0, z: -0.08092889, w: 0.9967199}
        inSlope: {x: 0, y: 0, z: -0.37413073, w: -0.03040013}
        outSlope: {x: 0, y: 0, z: -0.37413073, w: -0.03040013}
        tangentMode: 0
      - serializedVersion: 2
        time: 0.30000004
        value: {x: 0, y: 0, z: -0.087223746, w: 0.99618876}
        inSlope: {x: 0, y: 0, z: -0.3809563, w: -0.03337738}
        outSlope: {x: 0, y: 0, z: -0.3809563, w: -0.03337738}
        tangentMode: 0
      - serializedVersion: 2
        time: 0.31666672
        value: {x: 0, y: 0, z: -0.093627445, w: 0.9956073}
        inSlope: {x: 0, y: 0, z: -0.38719353, w: -0.03643331}
        outSlope: {x: 0, y: 0, z: -0.38719353, w: -0.03643331}
        tangentMode: 0
      - serializedVersion: 2
        time: 0.3333334
        value: {x: 0, y: 0, z: -0.10013021, w: 0.9949743}
        inSlope: {x: 0, y: 0, z: -0.39284182, w: -0.03955361}
        outSlope: {x: 0, y: 0, z: -0.39284182, w: -0.03955361}
        tangentMode: 0
      - serializedVersion: 2
        time: 0.35000008
        value: {x: 0, y: 0, z: -0.10672218, w: 0.99428886}
        inSlope: {x: 0, y: 0, z: -0.39789957, w: -0.042723976}
        outSlope: {x: 0, y: 0, z: -0.39789957, w: -0.042723976}
        tangentMode: 0
      - serializedVersion: 2
        time: 0.36666676
        value: {x: 0, y: 0, z: -0.11339354, w: 0.9935502}
        inSlope: {x: 0, y: 0, z: -0.40236837, w: -0.045937262}
        outSlope: {x: 0, y: 0, z: -0.40236837, w: -0.045937262}
        tangentMode: 0
      - serializedVersion: 2
        time: 0.38333344
        value: {x: 0, y: 0, z: -0.12013447, w: 0.9927576}
        inSlope: {x: 0, y: 0, z: -0.40624863, w: -0.04917558}
        outSlope: {x: 0, y: 0, z: -0.40624863, w: -0.04917558}
        tangentMode: 0
      - serializedVersion: 2
        time: 0.40000013
        value: {x: 0, y: 0, z: -0.12693517, w: 0.991911}
        inSlope: {x: 0, y: 0, z: -0.40953988, w: -0.05242105}
        outSlope: {x: 0, y: 0, z: -0.40953988, w: -0.05242105}
        tangentMode: 0
      - serializedVersion: 2
        time: 0.4166668
        value: {x: 0, y: 0, z: -0.13378581, w: 0.99101025}
        inSlope: {x: 0, y: 0, z: -0.4122431, w: -0.055661157}
        outSlope: {x: 0, y: 0, z: -0.4122431, w: -0.055661157}
        tangentMode: 0
      - serializedVersion: 2
        time: 0.4333335
        value: {x: 0, y: 0, z: -0.14067662, w: 0.9900556}
        inSlope: {x: 0, y: 0, z: -0.4143589, w: -0.058883376}
        outSlope: {x: 0, y: 0, z: -0.4143589, w: -0.058883376}
        tangentMode: 0
      - serializedVersion: 2
        time: 0.45000017
        value: {x: 0, y: 0, z: -0.14759779, w: 0.98904747}
        inSlope: {x: 0, y: 0, z: -0.41589, w: -0.06207163}
        outSlope: {x: 0, y: 0, z: -0.41589, w: -0.06207163}
        tangentMode: 0
      - serializedVersion: 2
        time: 0.46666685
        value: {x: 0, y: 0, z: -0.15453963, w: 0.98798656}
        inSlope: {x: 0, y: 0, z: -0.41683772, w: -0.06520445}
        outSlope: {x: 0, y: 0, z: -0.41683772, w: -0.06520445}
        tangentMode: 0
      - serializedVersion: 2
        time: 0.48333353
        value: {x: 0, y: 0, z: -0.16149239, w: 0.986874}
        inSlope: {x: 0, y: 0, z: -0.41720468, w: -0.068272956}
        outSlope: {x: 0, y: 0, z: -0.41720468, w: -0.068272956}
        tangentMode: 0
      - serializedVersion: 2
        time: 0.5000002
        value: {x: 0, y: 0, z: -0.16844645, w: 0.9857108}
        inSlope: {x: 0, y: 0, z: -0.4169918, w: -0.07125921}
        outSlope: {x: 0, y: 0, z: -0.4169918, w: -0.07125921}
        tangentMode: 0
      - serializedVersion: 2
        time: 0.5166668
        value: {x: 0, y: 0, z: -0.1753921, w: 0.9844987}
        inSlope: {x: 0, y: 0, z: -0.41620055, w: -0.07414527}
        outSlope: {x: 0, y: 0, z: -0.41620055, w: -0.07414527}
        tangentMode: 0
      - serializedVersion: 2
        time: 0.5333335
        value: {x: 0, y: 0, z: -0.18231979, w: 0.9832393}
        inSlope: {x: 0, y: 0, z: -0.41483665, w: -0.07691868}
        outSlope: {x: 0, y: 0, z: -0.41483665, w: -0.07691868}
        tangentMode: 0
      - serializedVersion: 2
        time: 0.55000013
        value: {x: 0, y: 0, z: -0.18921998, w: 0.9819347}
        inSlope: {x: 0, y: 0, z: -0.41290188, w: -0.07956155}
        outSlope: {x: 0, y: 0, z: -0.41290188, w: -0.07956155}
        tangentMode: 0
      - serializedVersion: 2
        time: 0.5666668
        value: {x: 0, y: 0, z: -0.19608317, w: 0.98058724}
        inSlope: {x: 0, y: 0, z: -0.41039938, w: -0.08205779}
        outSlope: {x: 0, y: 0, z: -0.41039938, w: -0.08205779}
        tangentMode: 0
      - serializedVersion: 2
        time: 0.58333343
        value: {x: 0, y: 0, z: -0.20289995, w: 0.97919947}
        inSlope: {x: 0, y: 0, z: -0.40733182, w: -0.08439311}
        outSlope: {x: 0, y: 0, z: -0.40733182, w: -0.08439311}
        tangentMode: 0
      - serializedVersion: 2
        time: 0.6000001
        value: {x: 0, y: 0, z: -0.20966089, w: 0.97777414}
        inSlope: {x: 0, y: 0, z: -0.40370637, w: -0.08655318}
        outSlope: {x: 0, y: 0, z: -0.40370637, w: -0.08655318}
        tangentMode: 0
      - serializedVersion: 2
        time: 0.61666673
        value: {x: 0, y: 0, z: -0.21635681, w: 0.97631437}
        inSlope: {x: 0, y: 0, z: -0.39952525, w: -0.08852192}
        outSlope: {x: 0, y: 0, z: -0.39952525, w: -0.08852192}
        tangentMode: 0
      - serializedVersion: 2
        time: 0.6333334
        value: {x: 0, y: 0, z: -0.22297838, w: 0.9748234}
        inSlope: {x: 0, y: 0, z: -0.39479026, w: -0.09028861}
        outSlope: {x: 0, y: 0, z: -0.39479026, w: -0.09028861}
        tangentMode: 0
      - serializedVersion: 2
        time: 0.65000004
        value: {x: 0, y: 0, z: -0.22951648, w: 0.97330475}
        inSlope: {x: 0, y: 0, z: -0.38950765, w: -0.09183356}
        outSlope: {x: 0, y: 0, z: -0.38950765, w: -0.09183356}
        tangentMode: 0
      - serializedVersion: 2
        time: 0.6666667
        value: {x: 0, y: 0, z: -0.23596196, w: 0.9717623}
        inSlope: {x: 0, y: 0, z: -0.38368276, w: -0.093146056}
        outSlope: {x: 0, y: 0, z: -0.38368276, w: -0.093146056}
        tangentMode: 0
      - serializedVersion: 2
        time: 0.68333334
        value: {x: 0, y: 0, z: -0.24230589, w: 0.9701999}
        inSlope: {x: 0, y: 0, z: -0.37731966, w: -0.09421536}
        outSlope: {x: 0, y: 0, z: -0.37731966, w: -0.09421536}
        tangentMode: 0
      - serializedVersion: 2
        time: 0.7
        value: {x: 0, y: 0, z: -0.24853927, w: 0.9686218}
        inSlope: {x: 0, y: 0, z: -0.37042102, w: -0.0950236}
        outSlope: {x: 0, y: 0, z: -0.37042102, w: -0.0950236}
        tangentMode: 0
      - serializedVersion: 2
        time: 0.71666664
        value: {x: 0, y: 0, z: -0.25465325, w: 0.96703243}
        inSlope: {x: 0, y: 0, z: -0.36299443, w: -0.09556362}
        outSlope: {x: 0, y: 0, z: -0.36299443, w: -0.09556362}
        tangentMode: 0
      - serializedVersion: 2
        time: 0.7333333
        value: {x: 0, y: 0, z: -0.26063907, w: 0.96543634}
        inSlope: {x: 0, y: 0, z: -0.35504434, w: -0.09582648}
        outSlope: {x: 0, y: 0, z: -0.35504434, w: -0.09582648}
        tangentMode: 0
      - serializedVersion: 2
        time: 0.74999994
        value: {x: 0, y: 0, z: -0.26648805, w: 0.9638382}
        inSlope: {x: 0, y: 0, z: -0.34657124, w: -0.09579608}
        outSlope: {x: 0, y: 0, z: -0.34657124, w: -0.09579608}
        tangentMode: 0
      - serializedVersion: 2
        time: 0.7666666
        value: {x: 0, y: 0, z: -0.27219144, w: 0.96224314}
        inSlope: {x: 0, y: 0, z: -0.33758226, w: -0.09546527}
        outSlope: {x: 0, y: 0, z: -0.33758226, w: -0.09546527}
        tangentMode: 0
      - serializedVersion: 2
        time: 0.78333324
        value: {x: 0, y: 0, z: -0.27774078, w: 0.96065605}
        inSlope: {x: 0, y: 0, z: -0.32808542, w: -0.09482691}
        outSlope: {x: 0, y: 0, z: -0.32808542, w: -0.09482691}
        tangentMode: 0
      - serializedVersion: 2
        time: 0.7999999
        value: {x: 0, y: 0, z: -0.2831276, w: 0.95908225}
        inSlope: {x: 0, y: 0, z: -0.3180799, w: -0.09387025}
        outSlope: {x: 0, y: 0, z: -0.3180799, w: -0.09387025}
        tangentMode: 0
      - serializedVersion: 2
        time: 0.81666654
        value: {x: 0, y: 0, z: -0.28834343, w: 0.95752704}
        inSlope: {x: 0, y: 0, z: -0.3075692, w: -0.092589945}
        outSlope: {x: 0, y: 0, z: -0.3075692, w: -0.092589945}
        tangentMode: 0
      - serializedVersion: 2
        time: 0.8333332
        value: {x: 0, y: 0, z: -0.2933799, w: 0.9559959}
        inSlope: {x: 0, y: 0, z: -0.29656053, w: -0.09097883}
        outSlope: {x: 0, y: 0, z: -0.29656053, w: -0.09097883}
        tangentMode: 0
      - serializedVersion: 2
        time: 0.84999985
        value: {x: 0, y: 0, z: -0.29822877, w: 0.9544944}
        inSlope: {x: 0, y: 0, z: -0.2850547, w: -0.089033335}
        outSlope: {x: 0, y: 0, z: -0.2850547, w: -0.089033335}
        tangentMode: 0
      - serializedVersion: 2
        time: 0.8666665
        value: {x: 0, y: 0, z: -0.30288172, w: 0.95302814}
        inSlope: {x: 0, y: 0, z: -0.27305898, w: -0.086749874}
        outSlope: {x: 0, y: 0, z: -0.27305898, w: -0.086749874}
        tangentMode: 0
      - serializedVersion: 2
        time: 0.88333315
        value: {x: 0, y: 0, z: -0.30733073, w: 0.95160276}
        inSlope: {x: 0, y: 0, z: -0.26057327, w: -0.0841231}
        outSlope: {x: 0, y: 0, z: -0.26057327, w: -0.0841231}
        tangentMode: 0
      - serializedVersion: 2
        time: 0.8999998
        value: {x: 0, y: 0, z: -0.3115675, w: 0.95022404}
        inSlope: {x: 0, y: 0, z: -0.24759406, w: -0.0811512}
        outSlope: {x: 0, y: 0, z: -0.24759406, w: -0.0811512}
        tangentMode: 0
      - serializedVersion: 2
        time: 0.91666645
        value: {x: 0, y: 0, z: -0.31558385, w: 0.9488977}
        inSlope: {x: 0, y: 0, z: -0.23413293, w: -0.07783778}
        outSlope: {x: 0, y: 0, z: -0.23413293, w: -0.07783778}
        tangentMode: 0
      - serializedVersion: 2
        time: 0.9333331
        value: {x: 0, y: 0, z: -0.3193719, w: 0.94762945}
        inSlope: {x: 0, y: 0, z: -0.22018811, w: -0.07417925}
        outSlope: {x: 0, y: 0, z: -0.22018811, w: -0.07417925}
        tangentMode: 0
      - serializedVersion: 2
        time: 0.94999975
        value: {x: 0, y: 0, z: -0.32292345, w: 0.9464251}
        inSlope: {x: 0, y: 0, z: -0.20575693, w: -0.070175596}
        outSlope: {x: 0, y: 0, z: -0.20575693, w: -0.070175596}
        tangentMode: 0
      - serializedVersion: 2
        time: 0.9666664
        value: {x: 0, y: 0, z: -0.32623047, w: 0.94529027}
        inSlope: {x: 0, y: 0, z: -0.1908465, w: -0.065833986}
        outSlope: {x: 0, y: 0, z: -0.1908465, w: -0.065833986}
        tangentMode: 0
      - serializedVersion: 2
        time: 0.98333305
        value: {x: 0, y: 0, z: -0.329285, w: 0.9442306}
        inSlope: {x: 0, y: 0, z: -0.17544973, w: -0.061158}
        outSlope: {x: 0, y: 0, z: -0.17544973, w: -0.061158}
        tangentMode: 0
      - serializedVersion: 2
        time: 0.9999997
        value: {x: 0, y: 0, z: -0.33207878, w: 0.94325167}
        inSlope: {x: 0, y: 0, z: -0.14844498, w: -0.052206486}
        outSlope: {x: 0, y: 0, z: -0.14844498, w: -0.052206486}
        tangentMode: 0
      - serializedVersion: 2
        time: 1.0166664
        value: {x: 0, y: 0, z: -0.33423316, w: 0.9424904}
        inSlope: {x: 0, y: 0, z: -0.10211067, w: -0.036156133}
        outSlope: {x: 0, y: 0, z: -0.10211067, w: -0.036156133}
        tangentMode: 0
      - serializedVersion: 2
        time: 1.0333331
        value: {x: 0, y: 0, z: -0.33548248, w: 0.94204646}
        inSlope: {x: 0, y: 0, z: -0.052625887, w: -0.018716473}
        outSlope: {x: 0, y: 0, z: -0.052625887, w: -0.018716473}
        tangentMode: 0
      - serializedVersion: 2
        time: 1.0499997
        value: {x: 0, y: 0, z: -0.33598736, w: 0.9418665}
        inSlope: {x: 0, y: 0, z: -0.012754811, w: -0.0045454544}
        outSlope: {x: 0, y: 0, z: -0.012754811, w: -0.0045454544}
        tangentMode: 0
      - serializedVersion: 2
        time: 1.0666664
        value: {x: 0, y: 0, z: -0.33590764, w: 0.94189495}
        inSlope: {x: 0, y: 0, z: 0.017538087, w: 0.006249553}
        outSlope: {x: 0, y: 0, z: 0.017538087, w: 0.006249553}
        tangentMode: 0
      - serializedVersion: 2
        time: 1.083333
        value: {x: 0, y: 0, z: -0.33540276, w: 0.94207484}
        inSlope: {x: 0, y: 0, z: 0.0382689, w: 0.013618482}
        outSlope: {x: 0, y: 0, z: 0.0382689, w: 0.013618482}
        tangentMode: 0
      - serializedVersion: 2
        time: 1.0999997
        value: {x: 0, y: 0, z: -0.334632, w: 0.9423489}
        inSlope: {x: 0, y: 0, z: 0.049443886, w: 0.01755418}
        outSlope: {x: 0, y: 0, z: 0.049443886, w: 0.01755418}
        tangentMode: 0
      - serializedVersion: 2
        time: 1.1166663
        value: {x: 0, y: 0, z: -0.33375463, w: 0.94266}
        inSlope: {x: 0, y: 0, z: 0.051055003, w: 0.018078107}
        outSlope: {x: 0, y: 0, z: 0.051055003, w: 0.018078107}
        tangentMode: 0
      - serializedVersion: 2
        time: 1.133333
        value: {x: 0, y: 0, z: -0.33293018, w: 0.9429515}
        inSlope: {x: 0, y: 0, z: 0.04308973, w: 0.015218869}
        outSlope: {x: 0, y: 0, z: 0.04308973, w: 0.015218869}
        tangentMode: 0
      - serializedVersion: 2
        time: 1.1499996
        value: {x: 0, y: 0, z: -0.3323183, w: 0.94316727}
        inSlope: {x: 0, y: 0, z: 0.025540758, w: 0.009005024}
        outSlope: {x: 0, y: 0, z: 0.025540758, w: 0.009005024}
        tangentMode: 0
      - serializedVersion: 2
        time: 1.1666666
        value: {x: 0, y: 0, z: -0.3320788, w: 0.94325167}
        inSlope: {x: 0, y: 0, z: 0.014369193, w: 0.005063907}
        outSlope: {x: 0, y: 0, z: 0.014369193, w: 0.005063907}
        tangentMode: 0
      m_PreInfinity: 2
      m_PostInfinity: 2
      m_RotationOrder: 4
    path: Image
  m_CompressedRotationCurves: []
  m_EulerCurves: []
  m_PositionCurves: []
  m_ScaleCurves:
  - curve:
      serializedVersion: 2
      m_Curve:
      - serializedVersion: 2
        time: 0
        value: {x: 1.4, y: 1.4, z: 1}
        inSlope: {x: -0.325, y: -0.325, z: 0}
        outSlope: {x: -0.325, y: -0.325, z: 0}
        tangentMode: 0
      - serializedVersion: 2
        time: 1
        value: {x: 0.75, y: 0.75, z: 1}
        inSlope: {x: -0.325, y: -0.325, z: 0}
        outSlope: {x: -0.325, y: -0.325, z: 0}
        tangentMode: 0
      - serializedVersion: 2
        time: 1.1666666
        value: {x: 0.75, y: 0.75, z: 1}
        inSlope: {x: 0, y: 0, z: 0}
        outSlope: {x: 0, y: 0, z: 0}
        tangentMode: 0
      m_PreInfinity: 2
      m_PostInfinity: 2
      m_RotationOrder: 4
    path: Image
  m_FloatCurves:
  - curve:
      serializedVersion: 2
      m_Curve:
      - serializedVersion: 2
        time: 0
        value: 1
        inSlope: -11.25
        outSlope: -11.25
        tangentMode: 0
      - serializedVersion: 2
        time: 0.083333336
        value: 0
        inSlope: -5.4545455
        outSlope: -5.4545455
        tangentMode: 0
      - serializedVersion: 2
        time: 1.0833334
        value: 0
        inSlope: Infinity
        outSlope: Infinity
        tangentMode: 103
      - serializedVersion: 2
        time: 1.1666666
        value: 1
        inSlope: Infinity
        outSlope: Infinity
        tangentMode: 103
      m_PreInfinity: 2
      m_PostInfinity: 2
      m_RotationOrder: 4
    attribute: m_Interactable
    path: 
    classID: 225
    script: {fileID: 0}
  - curve:
      serializedVersion: 2
      m_Curve:
      - serializedVersion: 2
        time: 0
        value: 0
        inSlope: 0
        outSlope: 0
        tangentMode: 0
      m_PreInfinity: 2
      m_PostInfinity: 2
      m_RotationOrder: 4
    attribute: m_AnchoredPosition.x
    path: Image (1)
    classID: 224
    script: {fileID: 0}
  - curve:
      serializedVersion: 2
      m_Curve:
      - serializedVersion: 2
        time: 0
        value: -923
        inSlope: -2.25
        outSlope: -2.25
        tangentMode: 0
      - serializedVersion: 2
        time: 0.33333334
        value: -924
        inSlope: -1747.5
        outSlope: -1747.5
        tangentMode: 0
      - serializedVersion: 2
        time: 0.6666667
        value: -2088
        inSlope: -2619
        outSlope: -2619
        tangentMode: 0
      m_PreInfinity: 2
      m_PostInfinity: 2
      m_RotationOrder: 4
    attribute: m_AnchoredPosition.y
    path: Image (1)
    classID: 224
    script: {fileID: 0}
  - curve:
      serializedVersion: 2
      m_Curve:
      - serializedVersion: 2
        time: 0
        value: 0
        inSlope: 0
        outSlope: 0
        tangentMode: 0
      m_PreInfinity: 2
      m_PostInfinity: 2
      m_RotationOrder: 4
    attribute: m_IsActive
    path: Image (1)/Elements
    classID: 1
    script: {fileID: 0}
  - curve:
      serializedVersion: 2
      m_Curve:
      - serializedVersion: 2
        time: 0
        value: 0
        inSlope: 0
        outSlope: 0
        tangentMode: 0
      m_PreInfinity: 2
      m_PostInfinity: 2
      m_RotationOrder: 4
    attribute: m_IsActive
    path: Image (1)/Image (3)
    classID: 1
    script: {fileID: 0}
  - curve:
      serializedVersion: 2
      m_Curve:
      - serializedVersion: 2
        time: 0
        value: 0
        inSlope: 0
        outSlope: 0
        tangentMode: 0
      m_PreInfinity: 2
      m_PostInfinity: 2
      m_RotationOrder: 4
    attribute: m_AnchoredPosition.x
    path: Image (2)
    classID: 224
    script: {fileID: 0}
  - curve:
      serializedVersion: 2
      m_Curve:
      - serializedVersion: 2
        time: 0
        value: -818
        inSlope: 778.5
        outSlope: 778.5
        tangentMode: 0
      - serializedVersion: 2
        time: 1
        value: 220
        inSlope: 519
        outSlope: 519
        tangentMode: 0
      - serializedVersion: 2
        time: 1.1666666
        value: 220
        inSlope: 259.5
        outSlope: 259.5
        tangentMode: 0
      m_PreInfinity: 2
      m_PostInfinity: 2
      m_RotationOrder: 4
    attribute: m_AnchoredPosition.y
    path: Image (2)
    classID: 224
    script: {fileID: 0}
  - curve:
      serializedVersion: 2
      m_Curve:
      - serializedVersion: 2
        time: 0
        value: 0
        inSlope: 2.25
        outSlope: 2.25
        tangentMode: 0
      - serializedVersion: 2
        time: 0.33333334
        value: 1
        inSlope: 2.25
        outSlope: 2.25
        tangentMode: 0
      m_PreInfinity: 2
      m_PostInfinity: 2
      m_RotationOrder: 4
    attribute: m_IsActive
    path: Image (2)/Elements
    classID: 1
    script: {fileID: 0}
  - curve:
      serializedVersion: 2
      m_Curve:
      - serializedVersion: 2
        time: 0
        value: 1
        inSlope: 0
        outSlope: 0
        tangentMode: 0
      m_PreInfinity: 2
      m_PostInfinity: 2
      m_RotationOrder: 4
    attribute: m_IsActive
    path: Image (2)/Image (3)
    classID: 1
    script: {fileID: 0}
  - curve:
      serializedVersion: 2
      m_Curve:
      - serializedVersion: 2
        time: 0
        value: 0
        inSlope: 3471
        outSlope: 3471
        tangentMode: 0
      m_PreInfinity: 2
      m_PostInfinity: 2
      m_RotationOrder: 4
    attribute: m_AnchoredPosition.x
    path: Image (5)
    classID: 224
    script: {fileID: 0}
  - curve:
      serializedVersion: 2
      m_Curve:
      - serializedVersion: 2
        time: 0
        value: -554
        inSlope: -614.25
        outSlope: -614.25
        tangentMode: 0
      - serializedVersion: 2
        time: 0.16666667
        value: -555
        inSlope: -1809.0001
        outSlope: -1809.0001
        tangentMode: 0
      - serializedVersion: 2
        time: 0.5
        value: -1759
        inSlope: -2709.0002
        outSlope: -2709.0002
        tangentMode: 0
      m_PreInfinity: 2
      m_PostInfinity: 2
      m_RotationOrder: 4
    attribute: m_AnchoredPosition.y
    path: Image (5)
    classID: 224
    script: {fileID: 0}
  - curve:
      serializedVersion: 2
      m_Curve:
      - serializedVersion: 2
        time: 0
        value: 0
        inSlope: 0
        outSlope: 0
        tangentMode: 0
      m_PreInfinity: 2
      m_PostInfinity: 2
      m_RotationOrder: 4
    attribute: m_IsActive
    path: Image (5)/Elements
    classID: 1
    script: {fileID: 0}
  - curve:
      serializedVersion: 2
      m_Curve:
      - serializedVersion: 2
        time: 0
        value: 0
        inSlope: 0
        outSlope: 0
        tangentMode: 0
      m_PreInfinity: 2
      m_PostInfinity: 2
      m_RotationOrder: 4
    attribute: m_IsActive
    path: Image (5)/Image (7)
    classID: 1
    script: {fileID: 0}
  - curve:
      serializedVersion: 2
      m_Curve:
      - serializedVersion: 2
        time: 0
        value: 0
        inSlope: 0
        outSlope: 0
        tangentMode: 0
      m_PreInfinity: 2
      m_PostInfinity: 2
      m_RotationOrder: 4
    attribute: m_AnchoredPosition.x
    path: Image (6)
    classID: 224
    script: {fileID: 0}
  - curve:
      serializedVersion: 2
      m_Curve:
      - serializedVersion: 2
        time: 0
        value: -390
        inSlope: -2567.1875
        outSlope: -2567.1875
        tangentMode: 0
      - serializedVersion: 2
        time: 0.33333334
        value: -1601
        inSlope: -2724.75
        outSlope: -2724.75
        tangentMode: 0
      m_PreInfinity: 2
      m_PostInfinity: 2
      m_RotationOrder: 4
    attribute: m_AnchoredPosition.y
    path: Image (6)
    classID: 224
    script: {fileID: 0}
  - curve:
      serializedVersion: 2
      m_Curve:
      - serializedVersion: 2
        time: 0
        value: 0
        inSlope: 3.28125
        outSlope: 3.28125
        tangentMode: 0
      - serializedVersion: 2
        time: 0.33333334
        value: 1
        inSlope: 2.625
        outSlope: 2.625
        tangentMode: 0
      m_PreInfinity: 2
      m_PostInfinity: 2
      m_RotationOrder: 4
    attribute: m_IsActive
    path: Image (6)/Elements
    classID: 1
    script: {fileID: 0}
  - curve:
      serializedVersion: 2
      m_Curve:
      - serializedVersion: 2
        time: 0
        value: -558
        inSlope: -327.13815
        outSlope: -327.13815
        tangentMode: 0
      - serializedVersion: 2
        time: 0.33333334
        value: -685
        inSlope: 120.75003
        outSlope: 120.75003
        tangentMode: 0
      - serializedVersion: 2
        time: 1
        value: -270
        inSlope: 311.25003
        outSlope: 311.25003
        tangentMode: 0
      - serializedVersion: 2
        time: 1.1666666
        value: -270
        inSlope: 81.56251
        outSlope: 81.56251
        tangentMode: 0
      m_PreInfinity: 2
      m_PostInfinity: 2
      m_RotationOrder: 4
    attribute: m_AnchoredPosition.y
    path: Image (6)/Elements
    classID: 224
    script: {fileID: 0}
  - curve:
      serializedVersion: 2
      m_Curve:
      - serializedVersion: 2
        time: 0
        value: 1
        inSlope: 0
        outSlope: 0
        tangentMode: 0
      m_PreInfinity: 2
      m_PostInfinity: 2
      m_RotationOrder: 4
    attribute: m_IsActive
    path: Image (6)/Image (7)
    classID: 1
    script: {fileID: 0}
  - curve:
      serializedVersion: 2
      m_Curve:
      - serializedVersion: 2
        time: 0
        value: -292
        inSlope: -346.5
        outSlope: -346.5
        tangentMode: 0
      - serializedVersion: 2
        time: 0.33333334
        value: -446
        inSlope: -80.999985
        outSlope: -80.999985
        tangentMode: 0
      - serializedVersion: 2
        time: 1
        value: -246
        inSlope: 150.00002
        outSlope: 150.00002
        tangentMode: 0
      - serializedVersion: 2
        time: 1.1666666
        value: -246
        inSlope: 75.00001
        outSlope: 75.00001
        tangentMode: 0
      m_PreInfinity: 2
      m_PostInfinity: 2
      m_RotationOrder: 4
    attribute: m_AnchoredPosition.y
    path: Image (2)/Elements
    classID: 224
    script: {fileID: 0}
  - curve:
      serializedVersion: 2
      m_Curve:
      - serializedVersion: 2
        time: 0
        value: 0
        inSlope: 125.5
        outSlope: 125.5
        tangentMode: 0
      - serializedVersion: 2
        time: 1
        value: 251
        inSlope: 125.5
        outSlope: 125.5
        tangentMode: 0
      - serializedVersion: 2
        time: 1.1666666
        value: 251
        inSlope: 0
        outSlope: 0
        tangentMode: 0
      m_PreInfinity: 2
      m_PostInfinity: 2
      m_RotationOrder: 4
    attribute: m_AnchoredPosition.x
    path: Image
    classID: 224
    script: {fileID: 0}
  - curve:
      serializedVersion: 2
      m_Curve:
      - serializedVersion: 2
        time: 0
        value: 534
        inSlope: 96
        outSlope: 96
        tangentMode: 0
      - serializedVersion: 2
        time: 1
        value: 726
        inSlope: 96
        outSlope: 96
        tangentMode: 0
      - serializedVersion: 2
        time: 1.1666666
        value: 726
        inSlope: 0
        outSlope: 0
        tangentMode: 0
      m_PreInfinity: 2
      m_PostInfinity: 2
      m_RotationOrder: 4
    attribute: m_AnchoredPosition.y
    path: Image
    classID: 224
    script: {fileID: 0}
  m_PPtrCurves: []
  m_SampleRate: 60
  m_WrapMode: 0
  m_Bounds:
    m_Center: {x: 0, y: 0, z: 0}
    m_Extent: {x: 0, y: 0, z: 0}
  m_ClipBindingConstant:
    genericBindings: []
    pptrCurveMapping: []
  m_AnimationClipSettings:
    serializedVersion: 2
    m_AdditiveReferencePoseClip: {fileID: 0}
    m_AdditiveReferencePoseTime: 0
    m_StartTime: 0
    m_StopTime: 1.1666666
    m_OrientationOffsetY: 0
    m_Level: 0
    m_CycleOffset: 0
    m_HasAdditiveReferencePose: 0
    m_LoopTime: 1
    m_LoopBlend: 0
    m_LoopBlendOrientation: 0
    m_LoopBlendPositionY: 0
    m_LoopBlendPositionXZ: 0
    m_KeepOriginalOrientation: 0
    m_KeepOriginalPositionY: 1
    m_KeepOriginalPositionXZ: 0
    m_HeightFromFeet: 0
    m_Mirror: 0
  m_EditorCurves:
  - curve:
      serializedVersion: 2
      m_Curve:
      - serializedVersion: 2
        time: 0
        value: 1
        inSlope: -11.25
        outSlope: -11.25
        tangentMode: 0
      - serializedVersion: 2
        time: 0.083333336
        value: 0
        inSlope: -5.4545455
        outSlope: -5.4545455
        tangentMode: 0
      - serializedVersion: 2
        time: 1.0833334
        value: 0
        inSlope: Infinity
        outSlope: Infinity
        tangentMode: 103
      - serializedVersion: 2
        time: 1.1666666
        value: 1
        inSlope: Infinity
        outSlope: Infinity
        tangentMode: 103
      m_PreInfinity: 2
      m_PostInfinity: 2
      m_RotationOrder: 4
    attribute: m_Interactable
    path: 
    classID: 225
    script: {fileID: 0}
  - curve:
      serializedVersion: 2
      m_Curve:
      - serializedVersion: 2
        time: 0
        value: 0
        inSlope: 0
        outSlope: 0
        tangentMode: 0
      m_PreInfinity: 2
      m_PostInfinity: 2
      m_RotationOrder: 4
    attribute: m_AnchoredPosition.x
    path: Image (1)
    classID: 224
    script: {fileID: 0}
  - curve:
      serializedVersion: 2
      m_Curve:
      - serializedVersion: 2
        time: 0
        value: -923
        inSlope: -2.25
        outSlope: -2.25
        tangentMode: 0
      - serializedVersion: 2
        time: 0.33333334
        value: -924
        inSlope: -1747.5
        outSlope: -1747.5
        tangentMode: 0
      - serializedVersion: 2
        time: 0.6666667
        value: -2088
        inSlope: -2619
        outSlope: -2619
        tangentMode: 0
      m_PreInfinity: 2
      m_PostInfinity: 2
      m_RotationOrder: 4
    attribute: m_AnchoredPosition.y
    path: Image (1)
    classID: 224
    script: {fileID: 0}
  - curve:
      serializedVersion: 2
      m_Curve:
      - serializedVersion: 2
        time: 0
        value: 0
        inSlope: 0
        outSlope: 0
        tangentMode: 0
      m_PreInfinity: 2
      m_PostInfinity: 2
      m_RotationOrder: 4
    attribute: m_IsActive
    path: Image (1)/Elements
    classID: 1
    script: {fileID: 0}
  - curve:
      serializedVersion: 2
      m_Curve:
      - serializedVersion: 2
        time: 0
        value: 0
        inSlope: 0
        outSlope: 0
        tangentMode: 0
      m_PreInfinity: 2
      m_PostInfinity: 2
      m_RotationOrder: 4
    attribute: m_IsActive
    path: Image (1)/Image (3)
    classID: 1
    script: {fileID: 0}
  - curve:
      serializedVersion: 2
      m_Curve:
      - serializedVersion: 2
        time: 0
        value: 0
        inSlope: 0
        outSlope: 0
        tangentMode: 0
      m_PreInfinity: 2
      m_PostInfinity: 2
      m_RotationOrder: 4
    attribute: m_AnchoredPosition.x
    path: Image (2)
    classID: 224
    script: {fileID: 0}
  - curve:
      serializedVersion: 2
      m_Curve:
      - serializedVersion: 2
        time: 0
        value: -818
        inSlope: 778.5
        outSlope: 778.5
        tangentMode: 0
      - serializedVersion: 2
        time: 1
        value: 220
        inSlope: 519
        outSlope: 519
        tangentMode: 0
      - serializedVersion: 2
        time: 1.1666666
        value: 220
        inSlope: 259.5
        outSlope: 259.5
        tangentMode: 0
      m_PreInfinity: 2
      m_PostInfinity: 2
      m_RotationOrder: 4
    attribute: m_AnchoredPosition.y
    path: Image (2)
    classID: 224
    script: {fileID: 0}
  - curve:
      serializedVersion: 2
      m_Curve:
      - serializedVersion: 2
        time: 0
        value: 0
        inSlope: 2.25
        outSlope: 2.25
        tangentMode: 0
      - serializedVersion: 2
        time: 0.33333334
        value: 1
        inSlope: 2.25
        outSlope: 2.25
        tangentMode: 0
      m_PreInfinity: 2
      m_PostInfinity: 2
      m_RotationOrder: 4
    attribute: m_IsActive
    path: Image (2)/Elements
    classID: 1
    script: {fileID: 0}
  - curve:
      serializedVersion: 2
      m_Curve:
      - serializedVersion: 2
        time: 0
        value: 1
        inSlope: 0
        outSlope: 0
        tangentMode: 0
      m_PreInfinity: 2
      m_PostInfinity: 2
      m_RotationOrder: 4
    attribute: m_IsActive
    path: Image (2)/Image (3)
    classID: 1
    script: {fileID: 0}
  - curve:
      serializedVersion: 2
      m_Curve:
      - serializedVersion: 2
        time: 0
        value: 0
        inSlope: 3471
        outSlope: 3471
        tangentMode: 0
      m_PreInfinity: 2
      m_PostInfinity: 2
      m_RotationOrder: 4
    attribute: m_AnchoredPosition.x
    path: Image (5)
    classID: 224
    script: {fileID: 0}
  - curve:
      serializedVersion: 2
      m_Curve:
      - serializedVersion: 2
        time: 0
        value: -554
        inSlope: -614.25
        outSlope: -614.25
        tangentMode: 0
      - serializedVersion: 2
        time: 0.16666667
        value: -555
        inSlope: -1809.0001
        outSlope: -1809.0001
        tangentMode: 0
      - serializedVersion: 2
        time: 0.5
        value: -1759
        inSlope: -2709.0002
        outSlope: -2709.0002
        tangentMode: 0
      m_PreInfinity: 2
      m_PostInfinity: 2
      m_RotationOrder: 4
    attribute: m_AnchoredPosition.y
    path: Image (5)
    classID: 224
    script: {fileID: 0}
  - curve:
      serializedVersion: 2
      m_Curve:
      - serializedVersion: 2
        time: 0
        value: 0
        inSlope: 0
        outSlope: 0
        tangentMode: 0
      m_PreInfinity: 2
      m_PostInfinity: 2
      m_RotationOrder: 4
    attribute: m_IsActive
    path: Image (5)/Elements
    classID: 1
    script: {fileID: 0}
  - curve:
      serializedVersion: 2
      m_Curve:
      - serializedVersion: 2
        time: 0
        value: 0
        inSlope: 0
        outSlope: 0
        tangentMode: 0
      m_PreInfinity: 2
      m_PostInfinity: 2
      m_RotationOrder: 4
    attribute: m_IsActive
    path: Image (5)/Image (7)
    classID: 1
    script: {fileID: 0}
  - curve:
      serializedVersion: 2
      m_Curve:
      - serializedVersion: 2
        time: 0
        value: 0
        inSlope: 0
        outSlope: 0
        tangentMode: 0
      m_PreInfinity: 2
      m_PostInfinity: 2
      m_RotationOrder: 4
    attribute: m_AnchoredPosition.x
    path: Image (6)
    classID: 224
    script: {fileID: 0}
  - curve:
      serializedVersion: 2
      m_Curve:
      - serializedVersion: 2
        time: 0
        value: -390
        inSlope: -2567.1875
        outSlope: -2567.1875
        tangentMode: 0
      - serializedVersion: 2
        time: 0.33333334
        value: -1601
        inSlope: -2724.75
        outSlope: -2724.75
        tangentMode: 0
      m_PreInfinity: 2
      m_PostInfinity: 2
      m_RotationOrder: 4
    attribute: m_AnchoredPosition.y
    path: Image (6)
    classID: 224
    script: {fileID: 0}
  - curve:
      serializedVersion: 2
      m_Curve:
      - serializedVersion: 2
        time: 0
        value: 0
        inSlope: 3.28125
        outSlope: 3.28125
        tangentMode: 0
      - serializedVersion: 2
        time: 0.33333334
        value: 1
        inSlope: 2.625
        outSlope: 2.625
        tangentMode: 0
      m_PreInfinity: 2
      m_PostInfinity: 2
      m_RotationOrder: 4
    attribute: m_IsActive
    path: Image (6)/Elements
    classID: 1
    script: {fileID: 0}
  - curve:
      serializedVersion: 2
      m_Curve:
      - serializedVersion: 2
        time: 0
        value: -558
        inSlope: -327.13815
        outSlope: -327.13815
        tangentMode: 0
      - serializedVersion: 2
        time: 0.33333334
        value: -685
        inSlope: 120.75003
        outSlope: 120.75003
        tangentMode: 0
      - serializedVersion: 2
        time: 1
        value: -270
        inSlope: 311.25003
        outSlope: 311.25003
        tangentMode: 0
      - serializedVersion: 2
        time: 1.1666666
        value: -270
        inSlope: 81.56251
        outSlope: 81.56251
        tangentMode: 0
      m_PreInfinity: 2
      m_PostInfinity: 2
      m_RotationOrder: 4
    attribute: m_AnchoredPosition.y
    path: Image (6)/Elements
    classID: 224
    script: {fileID: 0}
  - curve:
      serializedVersion: 2
      m_Curve:
      - serializedVersion: 2
        time: 0
        value: 1
        inSlope: 0
        outSlope: 0
        tangentMode: 0
      m_PreInfinity: 2
      m_PostInfinity: 2
      m_RotationOrder: 4
    attribute: m_IsActive
    path: Image (6)/Image (7)
    classID: 1
    script: {fileID: 0}
  - curve:
      serializedVersion: 2
      m_Curve:
      - serializedVersion: 2
        time: 0
        value: -292
        inSlope: -346.5
        outSlope: -346.5
        tangentMode: 0
      - serializedVersion: 2
        time: 0.33333334
        value: -446
        inSlope: -80.999985
        outSlope: -80.999985
        tangentMode: 0
      - serializedVersion: 2
        time: 1
        value: -246
        inSlope: 150.00002
        outSlope: 150.00002
        tangentMode: 0
      - serializedVersion: 2
        time: 1.1666666
        value: -246
        inSlope: 75.00001
        outSlope: 75.00001
        tangentMode: 0
      m_PreInfinity: 2
      m_PostInfinity: 2
      m_RotationOrder: 4
    attribute: m_AnchoredPosition.y
    path: Image (2)/Elements
    classID: 224
    script: {fileID: 0}
  - curve:
      serializedVersion: 2
      m_Curve:
      - serializedVersion: 2
        time: 0
        value: 0
        inSlope: 0
        outSlope: 0
        tangentMode: 0
      - serializedVersion: 2
        time: 0.016666668
        value: 0
        inSlope: 0
        outSlope: 0
        tangentMode: 0
      - serializedVersion: 2
        time: 0.033333335
        value: 0
        inSlope: 0
        outSlope: 0
        tangentMode: 0
      - serializedVersion: 2
        time: 0.050000004
        value: 0
        inSlope: 0
        outSlope: 0
        tangentMode: 0
      - serializedVersion: 2
        time: 0.06666667
        value: 0
        inSlope: 0
        outSlope: 0
        tangentMode: 0
      - serializedVersion: 2
        time: 0.083333336
        value: 0
        inSlope: 0
        outSlope: 0
        tangentMode: 0
      - serializedVersion: 2
        time: 0.1
        value: 0
        inSlope: 0
        outSlope: 0
        tangentMode: 0
      - serializedVersion: 2
        time: 0.11666667
        value: 0
        inSlope: 0
        outSlope: 0
        tangentMode: 0
      - serializedVersion: 2
        time: 0.13333334
        value: 0
        inSlope: 0
        outSlope: 0
        tangentMode: 0
      - serializedVersion: 2
        time: 0.15
        value: 0
        inSlope: 0
        outSlope: 0
        tangentMode: 0
      - serializedVersion: 2
        time: 0.16666667
        value: 0
        inSlope: 0
        outSlope: 0
        tangentMode: 0
      - serializedVersion: 2
        time: 0.18333334
        value: 0
        inSlope: 0
        outSlope: 0
        tangentMode: 0
      - serializedVersion: 2
        time: 0.2
        value: 0
        inSlope: 0
        outSlope: 0
        tangentMode: 0
      - serializedVersion: 2
        time: 0.21666667
        value: 0
        inSlope: 0
        outSlope: 0
        tangentMode: 0
      - serializedVersion: 2
        time: 0.23333333
        value: 0
        inSlope: 0
        outSlope: 0
        tangentMode: 0
      - serializedVersion: 2
        time: 0.25
        value: 0
        inSlope: 0
        outSlope: 0
        tangentMode: 0
      - serializedVersion: 2
        time: 0.26666668
        value: 0
        inSlope: 0
        outSlope: 0
        tangentMode: 0
      - serializedVersion: 2
        time: 0.28333336
        value: 0
        inSlope: 0
        outSlope: 0
        tangentMode: 0
      - serializedVersion: 2
        time: 0.30000004
        value: 0
        inSlope: 0
        outSlope: 0
        tangentMode: 0
      - serializedVersion: 2
        time: 0.31666672
        value: 0
        inSlope: 0
        outSlope: 0
        tangentMode: 0
      - serializedVersion: 2
        time: 0.3333334
        value: 0
        inSlope: 0
        outSlope: 0
        tangentMode: 0
      - serializedVersion: 2
        time: 0.35000008
        value: 0
        inSlope: 0
        outSlope: 0
        tangentMode: 0
      - serializedVersion: 2
        time: 0.36666676
        value: 0
        inSlope: 0
        outSlope: 0
        tangentMode: 0
      - serializedVersion: 2
        time: 0.38333344
        value: 0
        inSlope: 0
        outSlope: 0
        tangentMode: 0
      - serializedVersion: 2
        time: 0.40000013
        value: 0
        inSlope: 0
        outSlope: 0
        tangentMode: 0
      - serializedVersion: 2
        time: 0.4166668
        value: 0
        inSlope: 0
        outSlope: 0
        tangentMode: 0
      - serializedVersion: 2
        time: 0.4333335
        value: 0
        inSlope: 0
        outSlope: 0
        tangentMode: 0
      - serializedVersion: 2
        time: 0.45000017
        value: 0
        inSlope: 0
        outSlope: 0
        tangentMode: 0
      - serializedVersion: 2
        time: 0.46666685
        value: 0
        inSlope: 0
        outSlope: 0
        tangentMode: 0
      - serializedVersion: 2
        time: 0.48333353
        value: 0
        inSlope: 0
        outSlope: 0
        tangentMode: 0
      - serializedVersion: 2
        time: 0.5000002
        value: 0
        inSlope: 0
        outSlope: 0
        tangentMode: 0
      - serializedVersion: 2
        time: 0.5166668
        value: 0
        inSlope: 0
        outSlope: 0
        tangentMode: 0
      - serializedVersion: 2
        time: 0.5333335
        value: 0
        inSlope: 0
        outSlope: 0
        tangentMode: 0
      - serializedVersion: 2
        time: 0.55000013
        value: 0
        inSlope: 0
        outSlope: 0
        tangentMode: 0
      - serializedVersion: 2
        time: 0.5666668
        value: 0
        inSlope: 0
        outSlope: 0
        tangentMode: 0
      - serializedVersion: 2
        time: 0.58333343
        value: 0
        inSlope: 0
        outSlope: 0
        tangentMode: 0
      - serializedVersion: 2
        time: 0.6000001
        value: 0
        inSlope: 0
        outSlope: 0
        tangentMode: 0
      - serializedVersion: 2
        time: 0.61666673
        value: 0
        inSlope: 0
        outSlope: 0
        tangentMode: 0
      - serializedVersion: 2
        time: 0.6333334
        value: 0
        inSlope: 0
        outSlope: 0
        tangentMode: 0
      - serializedVersion: 2
        time: 0.65000004
        value: 0
        inSlope: 0
        outSlope: 0
        tangentMode: 0
      - serializedVersion: 2
        time: 0.6666667
        value: 0
        inSlope: 0
        outSlope: 0
        tangentMode: 0
      - serializedVersion: 2
        time: 0.68333334
        value: 0
        inSlope: 0
        outSlope: 0
        tangentMode: 0
      - serializedVersion: 2
        time: 0.7
        value: 0
        inSlope: 0
        outSlope: 0
        tangentMode: 0
      - serializedVersion: 2
        time: 0.71666664
        value: 0
        inSlope: 0
        outSlope: 0
        tangentMode: 0
      - serializedVersion: 2
        time: 0.7333333
        value: 0
        inSlope: 0
        outSlope: 0
        tangentMode: 0
      - serializedVersion: 2
        time: 0.74999994
        value: 0
        inSlope: 0
        outSlope: 0
        tangentMode: 0
      - serializedVersion: 2
        time: 0.7666666
        value: 0
        inSlope: 0
        outSlope: 0
        tangentMode: 0
      - serializedVersion: 2
        time: 0.78333324
        value: 0
        inSlope: 0
        outSlope: 0
        tangentMode: 0
      - serializedVersion: 2
        time: 0.7999999
        value: 0
        inSlope: 0
        outSlope: 0
        tangentMode: 0
      - serializedVersion: 2
        time: 0.81666654
        value: 0
        inSlope: 0
        outSlope: 0
        tangentMode: 0
      - serializedVersion: 2
        time: 0.8333332
        value: 0
        inSlope: 0
        outSlope: 0
        tangentMode: 0
      - serializedVersion: 2
        time: 0.84999985
        value: 0
        inSlope: 0
        outSlope: 0
        tangentMode: 0
      - serializedVersion: 2
        time: 0.8666665
        value: 0
        inSlope: 0
        outSlope: 0
        tangentMode: 0
      - serializedVersion: 2
        time: 0.88333315
        value: 0
        inSlope: 0
        outSlope: 0
        tangentMode: 0
      - serializedVersion: 2
        time: 0.8999998
        value: 0
        inSlope: 0
        outSlope: 0
        tangentMode: 0
      - serializedVersion: 2
        time: 0.91666645
        value: 0
        inSlope: 0
        outSlope: 0
        tangentMode: 0
      - serializedVersion: 2
        time: 0.9333331
        value: 0
        inSlope: 0
        outSlope: 0
        tangentMode: 0
      - serializedVersion: 2
        time: 0.94999975
        value: 0
        inSlope: 0
        outSlope: 0
        tangentMode: 0
      - serializedVersion: 2
        time: 0.9666664
        value: 0
        inSlope: 0
        outSlope: 0
        tangentMode: 0
      - serializedVersion: 2
        time: 0.98333305
        value: 0
        inSlope: 0
        outSlope: 0
        tangentMode: 0
      - serializedVersion: 2
        time: 0.9999997
        value: 0
        inSlope: 0
        outSlope: 0
        tangentMode: 0
      - serializedVersion: 2
        time: 1.0166664
        value: 0
        inSlope: 0
        outSlope: 0
        tangentMode: 0
      - serializedVersion: 2
        time: 1.0333331
        value: 0
        inSlope: 0
        outSlope: 0
        tangentMode: 0
      - serializedVersion: 2
        time: 1.0499997
        value: 0
        inSlope: 0
        outSlope: 0
        tangentMode: 0
      - serializedVersion: 2
        time: 1.0666664
        value: 0
        inSlope: 0
        outSlope: 0
        tangentMode: 0
      - serializedVersion: 2
        time: 1.083333
        value: 0
        inSlope: 0
        outSlope: 0
        tangentMode: 0
      - serializedVersion: 2
        time: 1.0999997
        value: 0
        inSlope: 0
        outSlope: 0
        tangentMode: 0
      - serializedVersion: 2
        time: 1.1166663
        value: 0
        inSlope: 0
        outSlope: 0
        tangentMode: 0
      - serializedVersion: 2
        time: 1.133333
        value: 0
        inSlope: 0
        outSlope: 0
        tangentMode: 0
      - serializedVersion: 2
        time: 1.1499996
        value: 0
        inSlope: 0
        outSlope: 0
        tangentMode: 0
      - serializedVersion: 2
        time: 1.1666666
        value: 0
        inSlope: 0
        outSlope: 0
        tangentMode: 0
      m_PreInfinity: 2
      m_PostInfinity: 2
      m_RotationOrder: 4
    attribute: m_LocalRotation.x
    path: Image
    classID: 224
    script: {fileID: 0}
  - curve:
      serializedVersion: 2
      m_Curve:
      - serializedVersion: 2
        time: 0
        value: 0
        inSlope: 0
        outSlope: 0
        tangentMode: 0
      - serializedVersion: 2
        time: 0.016666668
        value: 0
        inSlope: 0
        outSlope: 0
        tangentMode: 0
      - serializedVersion: 2
        time: 0.033333335
        value: 0
        inSlope: 0
        outSlope: 0
        tangentMode: 0
      - serializedVersion: 2
        time: 0.050000004
        value: 0
        inSlope: 0
        outSlope: 0
        tangentMode: 0
      - serializedVersion: 2
        time: 0.06666667
        value: 0
        inSlope: 0
        outSlope: 0
        tangentMode: 0
      - serializedVersion: 2
        time: 0.083333336
        value: 0
        inSlope: 0
        outSlope: 0
        tangentMode: 0
      - serializedVersion: 2
        time: 0.1
        value: 0
        inSlope: 0
        outSlope: 0
        tangentMode: 0
      - serializedVersion: 2
        time: 0.11666667
        value: 0
        inSlope: 0
        outSlope: 0
        tangentMode: 0
      - serializedVersion: 2
        time: 0.13333334
        value: 0
        inSlope: 0
        outSlope: 0
        tangentMode: 0
      - serializedVersion: 2
        time: 0.15
        value: 0
        inSlope: 0
        outSlope: 0
        tangentMode: 0
      - serializedVersion: 2
        time: 0.16666667
        value: 0
        inSlope: 0
        outSlope: 0
        tangentMode: 0
      - serializedVersion: 2
        time: 0.18333334
        value: 0
        inSlope: 0
        outSlope: 0
        tangentMode: 0
      - serializedVersion: 2
        time: 0.2
        value: 0
        inSlope: 0
        outSlope: 0
        tangentMode: 0
      - serializedVersion: 2
        time: 0.21666667
        value: 0
        inSlope: 0
        outSlope: 0
        tangentMode: 0
      - serializedVersion: 2
        time: 0.23333333
        value: 0
        inSlope: 0
        outSlope: 0
        tangentMode: 0
      - serializedVersion: 2
        time: 0.25
        value: 0
        inSlope: 0
        outSlope: 0
        tangentMode: 0
      - serializedVersion: 2
        time: 0.26666668
        value: 0
        inSlope: 0
        outSlope: 0
        tangentMode: 0
      - serializedVersion: 2
        time: 0.28333336
        value: 0
        inSlope: 0
        outSlope: 0
        tangentMode: 0
      - serializedVersion: 2
        time: 0.30000004
        value: 0
        inSlope: 0
        outSlope: 0
        tangentMode: 0
      - serializedVersion: 2
        time: 0.31666672
        value: 0
        inSlope: 0
        outSlope: 0
        tangentMode: 0
      - serializedVersion: 2
        time: 0.3333334
        value: 0
        inSlope: 0
        outSlope: 0
        tangentMode: 0
      - serializedVersion: 2
        time: 0.35000008
        value: 0
        inSlope: 0
        outSlope: 0
        tangentMode: 0
      - serializedVersion: 2
        time: 0.36666676
        value: 0
        inSlope: 0
        outSlope: 0
        tangentMode: 0
      - serializedVersion: 2
        time: 0.38333344
        value: 0
        inSlope: 0
        outSlope: 0
        tangentMode: 0
      - serializedVersion: 2
        time: 0.40000013
        value: 0
        inSlope: 0
        outSlope: 0
        tangentMode: 0
      - serializedVersion: 2
        time: 0.4166668
        value: 0
        inSlope: 0
        outSlope: 0
        tangentMode: 0
      - serializedVersion: 2
        time: 0.4333335
        value: 0
        inSlope: 0
        outSlope: 0
        tangentMode: 0
      - serializedVersion: 2
        time: 0.45000017
        value: 0
        inSlope: 0
        outSlope: 0
        tangentMode: 0
      - serializedVersion: 2
        time: 0.46666685
        value: 0
        inSlope: 0
        outSlope: 0
        tangentMode: 0
      - serializedVersion: 2
        time: 0.48333353
        value: 0
        inSlope: 0
        outSlope: 0
        tangentMode: 0
      - serializedVersion: 2
        time: 0.5000002
        value: 0
        inSlope: 0
        outSlope: 0
        tangentMode: 0
      - serializedVersion: 2
        time: 0.5166668
        value: 0
        inSlope: 0
        outSlope: 0
        tangentMode: 0
      - serializedVersion: 2
        time: 0.5333335
        value: 0
        inSlope: 0
        outSlope: 0
        tangentMode: 0
      - serializedVersion: 2
        time: 0.55000013
        value: 0
        inSlope: 0
        outSlope: 0
        tangentMode: 0
      - serializedVersion: 2
        time: 0.5666668
        value: 0
        inSlope: 0
        outSlope: 0
        tangentMode: 0
      - serializedVersion: 2
        time: 0.58333343
        value: 0
        inSlope: 0
        outSlope: 0
        tangentMode: 0
      - serializedVersion: 2
        time: 0.6000001
        value: 0
        inSlope: 0
        outSlope: 0
        tangentMode: 0
      - serializedVersion: 2
        time: 0.61666673
        value: 0
        inSlope: 0
        outSlope: 0
        tangentMode: 0
      - serializedVersion: 2
        time: 0.6333334
        value: 0
        inSlope: 0
        outSlope: 0
        tangentMode: 0
      - serializedVersion: 2
        time: 0.65000004
        value: 0
        inSlope: 0
        outSlope: 0
        tangentMode: 0
      - serializedVersion: 2
        time: 0.6666667
        value: 0
        inSlope: 0
        outSlope: 0
        tangentMode: 0
      - serializedVersion: 2
        time: 0.68333334
        value: 0
        inSlope: 0
        outSlope: 0
        tangentMode: 0
      - serializedVersion: 2
        time: 0.7
        value: 0
        inSlope: 0
        outSlope: 0
        tangentMode: 0
      - serializedVersion: 2
        time: 0.71666664
        value: 0
        inSlope: 0
        outSlope: 0
        tangentMode: 0
      - serializedVersion: 2
        time: 0.7333333
        value: 0
        inSlope: 0
        outSlope: 0
        tangentMode: 0
      - serializedVersion: 2
        time: 0.74999994
        value: 0
        inSlope: 0
        outSlope: 0
        tangentMode: 0
      - serializedVersion: 2
        time: 0.7666666
        value: 0
        inSlope: 0
        outSlope: 0
        tangentMode: 0
      - serializedVersion: 2
        time: 0.78333324
        value: 0
        inSlope: 0
        outSlope: 0
        tangentMode: 0
      - serializedVersion: 2
        time: 0.7999999
        value: 0
        inSlope: 0
        outSlope: 0
        tangentMode: 0
      - serializedVersion: 2
        time: 0.81666654
        value: 0
        inSlope: 0
        outSlope: 0
        tangentMode: 0
      - serializedVersion: 2
        time: 0.8333332
        value: 0
        inSlope: 0
        outSlope: 0
        tangentMode: 0
      - serializedVersion: 2
        time: 0.84999985
        value: 0
        inSlope: 0
        outSlope: 0
        tangentMode: 0
      - serializedVersion: 2
        time: 0.8666665
        value: 0
        inSlope: 0
        outSlope: 0
        tangentMode: 0
      - serializedVersion: 2
        time: 0.88333315
        value: 0
        inSlope: 0
        outSlope: 0
        tangentMode: 0
      - serializedVersion: 2
        time: 0.8999998
        value: 0
        inSlope: 0
        outSlope: 0
        tangentMode: 0
      - serializedVersion: 2
        time: 0.91666645
        value: 0
        inSlope: 0
        outSlope: 0
        tangentMode: 0
      - serializedVersion: 2
        time: 0.9333331
        value: 0
        inSlope: 0
        outSlope: 0
        tangentMode: 0
      - serializedVersion: 2
        time: 0.94999975
        value: 0
        inSlope: 0
        outSlope: 0
        tangentMode: 0
      - serializedVersion: 2
        time: 0.9666664
        value: 0
        inSlope: 0
        outSlope: 0
        tangentMode: 0
      - serializedVersion: 2
        time: 0.98333305
        value: 0
        inSlope: 0
        outSlope: 0
        tangentMode: 0
      - serializedVersion: 2
        time: 0.9999997
        value: 0
        inSlope: 0
        outSlope: 0
        tangentMode: 0
      - serializedVersion: 2
        time: 1.0166664
        value: 0
        inSlope: 0
        outSlope: 0
        tangentMode: 0
      - serializedVersion: 2
        time: 1.0333331
        value: 0
        inSlope: 0
        outSlope: 0
        tangentMode: 0
      - serializedVersion: 2
        time: 1.0499997
        value: 0
        inSlope: 0
        outSlope: 0
        tangentMode: 0
      - serializedVersion: 2
        time: 1.0666664
        value: 0
        inSlope: 0
        outSlope: 0
        tangentMode: 0
      - serializedVersion: 2
        time: 1.083333
        value: 0
        inSlope: 0
        outSlope: 0
        tangentMode: 0
      - serializedVersion: 2
        time: 1.0999997
        value: 0
        inSlope: 0
        outSlope: 0
        tangentMode: 0
      - serializedVersion: 2
        time: 1.1166663
        value: 0
        inSlope: 0
        outSlope: 0
        tangentMode: 0
      - serializedVersion: 2
        time: 1.133333
        value: 0
        inSlope: 0
        outSlope: 0
        tangentMode: 0
      - serializedVersion: 2
        time: 1.1499996
        value: 0
        inSlope: 0
        outSlope: 0
        tangentMode: 0
      - serializedVersion: 2
        time: 1.1666666
        value: 0
        inSlope: 0
        outSlope: 0
        tangentMode: 0
      m_PreInfinity: 2
      m_PostInfinity: 2
      m_RotationOrder: 4
    attribute: m_LocalRotation.y
    path: Image
    classID: 224
    script: {fileID: 0}
  - curve:
      serializedVersion: 2
      m_Curve:
      - serializedVersion: 2
        time: 0
        value: 0
        inSlope: -0.17762168
        outSlope: -0.17762168
        tangentMode: 0
      - serializedVersion: 2
        time: 0.016666668
        value: -0.0029603615
        inSlope: -0.18580133
        outSlope: -0.18580133
        tangentMode: 0
      - serializedVersion: 2
        time: 0.033333335
        value: -0.006193378
        inSlope: -0.20187715
        outSlope: -0.20187715
        tangentMode: 0
      - serializedVersion: 2
        time: 0.050000004
        value: -0.0096896
        inSlope: -0.21738555
        outSlope: -0.21738555
        tangentMode: 0
      - serializedVersion: 2
        time: 0.06666667
        value: -0.013439563
        inSlope: -0.23232529
        outSlope: -0.23232529
        tangentMode: 0
      - serializedVersion: 2
        time: 0.083333336
        value: -0.017433776
        inSlope: -0.24669492
        outSlope: -0.24669492
        tangentMode: 0
      - serializedVersion: 2
        time: 0.1
        value: -0.021662727
        inSlope: -0.26049346
        outSlope: -0.26049346
        tangentMode: 0
      - serializedVersion: 2
        time: 0.11666667
        value: -0.02611689
        inSlope: -0.27371922
        outSlope: -0.27371922
        tangentMode: 0
      - serializedVersion: 2
        time: 0.13333334
        value: -0.030786702
        inSlope: -0.2863704
        outSlope: -0.2863704
        tangentMode: 0
      - serializedVersion: 2
        time: 0.15
        value: -0.035662573
        inSlope: -0.29844576
        outSlope: -0.29844576
        tangentMode: 0
      - serializedVersion: 2
        time: 0.16666667
        value: -0.040734895
        inSlope: -0.30994368
        outSlope: -0.30994368
        tangentMode: 0
      - serializedVersion: 2
        time: 0.18333334
        value: -0.04599403
        inSlope: -0.3208624
        outSlope: -0.3208624
        tangentMode: 0
      - serializedVersion: 2
        time: 0.2
        value: -0.051430307
        inSlope: -0.33120042
        outSlope: -0.33120042
        tangentMode: 0
      - serializedVersion: 2
        time: 0.21666667
        value: -0.05703404
        inSlope: -0.34095615
        outSlope: -0.34095615
        tangentMode: 0
      - serializedVersion: 2
        time: 0.23333333
        value: -0.06279551
        inSlope: -0.35012853
        outSlope: -0.35012853
        tangentMode: 0
      - serializedVersion: 2
        time: 0.25
        value: -0.06870499
        inSlope: -0.35871583
        outSlope: -0.35871583
        tangentMode: 0
      - serializedVersion: 2
        time: 0.26666668
        value: -0.07475271
        inSlope: -0.36671668
        outSlope: -0.36671668
        tangentMode: 0
      - serializedVersion: 2
        time: 0.28333336
        value: -0.08092889
        inSlope: -0.37413073
        outSlope: -0.37413073
        tangentMode: 0
      - serializedVersion: 2
        time: 0.30000004
        value: -0.087223746
        inSlope: -0.3809563
        outSlope: -0.3809563
        tangentMode: 0
      - serializedVersion: 2
        time: 0.31666672
        value: -0.093627445
        inSlope: -0.38719353
        outSlope: -0.38719353
        tangentMode: 0
      - serializedVersion: 2
        time: 0.3333334
        value: -0.10013021
        inSlope: -0.39284182
        outSlope: -0.39284182
        tangentMode: 0
      - serializedVersion: 2
        time: 0.35000008
        value: -0.10672218
        inSlope: -0.39789957
        outSlope: -0.39789957
        tangentMode: 0
      - serializedVersion: 2
        time: 0.36666676
        value: -0.11339354
        inSlope: -0.40236837
        outSlope: -0.40236837
        tangentMode: 0
      - serializedVersion: 2
        time: 0.38333344
        value: -0.12013447
        inSlope: -0.40624863
        outSlope: -0.40624863
        tangentMode: 0
      - serializedVersion: 2
        time: 0.40000013
        value: -0.12693517
        inSlope: -0.40953988
        outSlope: -0.40953988
        tangentMode: 0
      - serializedVersion: 2
        time: 0.4166668
        value: -0.13378581
        inSlope: -0.4122431
        outSlope: -0.4122431
        tangentMode: 0
      - serializedVersion: 2
        time: 0.4333335
        value: -0.14067662
        inSlope: -0.4143589
        outSlope: -0.4143589
        tangentMode: 0
      - serializedVersion: 2
        time: 0.45000017
        value: -0.14759779
        inSlope: -0.41589
        outSlope: -0.41589
        tangentMode: 0
      - serializedVersion: 2
        time: 0.46666685
        value: -0.15453963
        inSlope: -0.41683772
        outSlope: -0.41683772
        tangentMode: 0
      - serializedVersion: 2
        time: 0.48333353
        value: -0.16149239
        inSlope: -0.41720468
        outSlope: -0.41720468
        tangentMode: 0
      - serializedVersion: 2
        time: 0.5000002
        value: -0.16844645
        inSlope: -0.4169918
        outSlope: -0.4169918
        tangentMode: 0
      - serializedVersion: 2
        time: 0.5166668
        value: -0.1753921
        inSlope: -0.41620055
        outSlope: -0.41620055
        tangentMode: 0
      - serializedVersion: 2
        time: 0.5333335
        value: -0.18231979
        inSlope: -0.41483665
        outSlope: -0.41483665
        tangentMode: 0
      - serializedVersion: 2
        time: 0.55000013
        value: -0.18921998
        inSlope: -0.41290188
        outSlope: -0.41290188
        tangentMode: 0
      - serializedVersion: 2
        time: 0.5666668
        value: -0.19608317
        inSlope: -0.41039938
        outSlope: -0.41039938
        tangentMode: 0
      - serializedVersion: 2
        time: 0.58333343
        value: -0.20289995
        inSlope: -0.40733182
        outSlope: -0.40733182
        tangentMode: 0
      - serializedVersion: 2
        time: 0.6000001
        value: -0.20966089
        inSlope: -0.40370637
        outSlope: -0.40370637
        tangentMode: 0
      - serializedVersion: 2
        time: 0.61666673
        value: -0.21635681
        inSlope: -0.39952525
        outSlope: -0.39952525
        tangentMode: 0
      - serializedVersion: 2
        time: 0.6333334
        value: -0.22297838
        inSlope: -0.39479026
        outSlope: -0.39479026
        tangentMode: 0
      - serializedVersion: 2
        time: 0.65000004
        value: -0.22951648
        inSlope: -0.38950765
        outSlope: -0.38950765
        tangentMode: 0
      - serializedVersion: 2
        time: 0.6666667
        value: -0.23596196
        inSlope: -0.38368276
        outSlope: -0.38368276
        tangentMode: 0
      - serializedVersion: 2
        time: 0.68333334
        value: -0.24230589
        inSlope: -0.37731966
        outSlope: -0.37731966
        tangentMode: 0
      - serializedVersion: 2
        time: 0.7
        value: -0.24853927
        inSlope: -0.37042102
        outSlope: -0.37042102
        tangentMode: 0
      - serializedVersion: 2
        time: 0.71666664
        value: -0.25465325
        inSlope: -0.36299443
        outSlope: -0.36299443
        tangentMode: 0
      - serializedVersion: 2
        time: 0.7333333
        value: -0.26063907
        inSlope: -0.35504434
        outSlope: -0.35504434
        tangentMode: 0
      - serializedVersion: 2
        time: 0.74999994
        value: -0.26648805
        inSlope: -0.34657124
        outSlope: -0.34657124
        tangentMode: 0
      - serializedVersion: 2
        time: 0.7666666
        value: -0.27219144
        inSlope: -0.33758226
        outSlope: -0.33758226
        tangentMode: 0
      - serializedVersion: 2
        time: 0.78333324
        value: -0.27774078
        inSlope: -0.32808542
        outSlope: -0.32808542
        tangentMode: 0
      - serializedVersion: 2
        time: 0.7999999
        value: -0.2831276
        inSlope: -0.3180799
        outSlope: -0.3180799
        tangentMode: 0
      - serializedVersion: 2
        time: 0.81666654
        value: -0.28834343
        inSlope: -0.3075692
        outSlope: -0.3075692
        tangentMode: 0
      - serializedVersion: 2
        time: 0.8333332
        value: -0.2933799
        inSlope: -0.29656053
        outSlope: -0.29656053
        tangentMode: 0
      - serializedVersion: 2
        time: 0.84999985
        value: -0.29822877
        inSlope: -0.2850547
        outSlope: -0.2850547
        tangentMode: 0
      - serializedVersion: 2
        time: 0.8666665
        value: -0.30288172
        inSlope: -0.27305898
        outSlope: -0.27305898
        tangentMode: 0
      - serializedVersion: 2
        time: 0.88333315
        value: -0.30733073
        inSlope: -0.26057327
        outSlope: -0.26057327
        tangentMode: 0
      - serializedVersion: 2
        time: 0.8999998
        value: -0.3115675
        inSlope: -0.24759406
        outSlope: -0.24759406
        tangentMode: 0
      - serializedVersion: 2
        time: 0.91666645
        value: -0.31558385
        inSlope: -0.23413293
        outSlope: -0.23413293
        tangentMode: 0
      - serializedVersion: 2
        time: 0.9333331
        value: -0.3193719
        inSlope: -0.22018811
        outSlope: -0.22018811
        tangentMode: 0
      - serializedVersion: 2
        time: 0.94999975
        value: -0.32292345
        inSlope: -0.20575693
        outSlope: -0.20575693
        tangentMode: 0
      - serializedVersion: 2
        time: 0.9666664
        value: -0.32623047
        inSlope: -0.1908465
        outSlope: -0.1908465
        tangentMode: 0
      - serializedVersion: 2
        time: 0.98333305
        value: -0.329285
        inSlope: -0.17544973
        outSlope: -0.17544973
        tangentMode: 0
      - serializedVersion: 2
        time: 0.9999997
        value: -0.33207878
        inSlope: -0.14844498
        outSlope: -0.14844498
        tangentMode: 0
      - serializedVersion: 2
        time: 1.0166664
        value: -0.33423316
        inSlope: -0.10211067
        outSlope: -0.10211067
        tangentMode: 0
      - serializedVersion: 2
        time: 1.0333331
        value: -0.33548248
        inSlope: -0.052625887
        outSlope: -0.052625887
        tangentMode: 0
      - serializedVersion: 2
        time: 1.0499997
        value: -0.33598736
        inSlope: -0.012754811
        outSlope: -0.012754811
        tangentMode: 0
      - serializedVersion: 2
        time: 1.0666664
        value: -0.33590764
        inSlope: 0.017538087
        outSlope: 0.017538087
        tangentMode: 0
      - serializedVersion: 2
        time: 1.083333
        value: -0.33540276
        inSlope: 0.0382689
        outSlope: 0.0382689
        tangentMode: 0
      - serializedVersion: 2
        time: 1.0999997
        value: -0.334632
        inSlope: 0.049443886
        outSlope: 0.049443886
        tangentMode: 0
      - serializedVersion: 2
        time: 1.1166663
        value: -0.33375463
        inSlope: 0.051055003
        outSlope: 0.051055003
        tangentMode: 0
      - serializedVersion: 2
        time: 1.133333
        value: -0.33293018
        inSlope: 0.04308973
        outSlope: 0.04308973
        tangentMode: 0
      - serializedVersion: 2
        time: 1.1499996
        value: -0.3323183
        inSlope: 0.025540758
        outSlope: 0.025540758
        tangentMode: 0
      - serializedVersion: 2
        time: 1.1666666
        value: -0.3320788
        inSlope: 0.014369193
        outSlope: 0.014369193
        tangentMode: 0
      m_PreInfinity: 2
      m_PostInfinity: 2
      m_RotationOrder: 4
    attribute: m_LocalRotation.z
    path: Image
    classID: 224
    script: {fileID: 0}
  - curve:
      serializedVersion: 2
      m_Curve:
      - serializedVersion: 2
        time: 0
        value: 1
        inSlope: -0.00026464462
        outSlope: -0.00026464462
        tangentMode: 0
      - serializedVersion: 2
        time: 0.016666668
        value: 0.9999956
        inSlope: -0.00057578087
        outSlope: -0.00057578087
        tangentMode: 0
      - serializedVersion: 2
        time: 0.033333335
        value: 0.9999808
        inSlope: -0.0012767314
        outSlope: -0.0012767314
        tangentMode: 0
      - serializedVersion: 2
        time: 0.050000004
        value: 0.99995303
        inSlope: -0.0021332502
        outSlope: -0.0021332502
        tangentMode: 0
      - serializedVersion: 2
        time: 0.06666667
        value: 0.9999097
        inSlope: -0.0031507018
        outSlope: -0.0031507018
        tangentMode: 0
      - serializedVersion: 2
        time: 0.083333336
        value: 0.999848
        inSlope: -0.004330874
        outSlope: -0.004330874
        tangentMode: 0
      - serializedVersion: 2
        time: 0.1
        value: 0.99976534
        inSlope: -0.0056737666
        outSlope: -0.0056737666
        tangentMode: 0
      - serializedVersion: 2
        time: 0.11666667
        value: 0.9996589
        inSlope: -0.0071811667
        outSlope: -0.0071811667
        tangentMode: 0
      - serializedVersion: 2
        time: 0.13333334
        value: 0.99952596
        inSlope: -0.008849501
        outSlope: -0.008849501
        tangentMode: 0
      - serializedVersion: 2
        time: 0.15
        value: 0.9993639
        inSlope: -0.010678769
        outSlope: -0.010678769
        tangentMode: 0
      - serializedVersion: 2
        time: 0.16666667
        value: 0.99917
        inSlope: -0.012665392
        outSlope: -0.012665392
        tangentMode: 0
      - serializedVersion: 2
        time: 0.18333334
        value: 0.9989417
        inSlope: -0.014802219
        outSlope: -0.014802219
        tangentMode: 0
      - serializedVersion: 2
        time: 0.2
        value: 0.9986766
        inSlope: -0.017083885
        outSlope: -0.017083885
        tangentMode: 0
      - serializedVersion: 2
        time: 0.21666667
        value: 0.99837226
        inSlope: -0.019505026
        outSlope: -0.019505026
        tangentMode: 0
      - serializedVersion: 2
        time: 0.23333333
        value: 0.99802643
        inSlope: -0.0220567
        outSlope: -0.0220567
        tangentMode: 0
      - serializedVersion: 2
        time: 0.25
        value: 0.99763703
        inSlope: -0.024729956
        outSlope: -0.024729956
        tangentMode: 0
      - serializedVersion: 2
        time: 0.26666668
        value: 0.9972021
        inSlope: -0.027514078
        outSlope: -0.027514078
        tangentMode: 0
      - serializedVersion: 2
        time: 0.28333336
        value: 0.9967199
        inSlope: -0.03040013
        outSlope: -0.03040013
        tangentMode: 0
      - serializedVersion: 2
        time: 0.30000004
        value: 0.99618876
        inSlope: -0.03337738
        outSlope: -0.03337738
        tangentMode: 0
      - serializedVersion: 2
        time: 0.31666672
        value: 0.9956073
        inSlope: -0.03643331
        outSlope: -0.03643331
        tangentMode: 0
      - serializedVersion: 2
        time: 0.3333334
        value: 0.9949743
        inSlope: -0.03955361
        outSlope: -0.03955361
        tangentMode: 0
      - serializedVersion: 2
        time: 0.35000008
        value: 0.99428886
        inSlope: -0.042723976
        outSlope: -0.042723976
        tangentMode: 0
      - serializedVersion: 2
        time: 0.36666676
        value: 0.9935502
        inSlope: -0.045937262
        outSlope: -0.045937262
        tangentMode: 0
      - serializedVersion: 2
        time: 0.38333344
        value: 0.9927576
        inSlope: -0.04917558
        outSlope: -0.04917558
        tangentMode: 0
      - serializedVersion: 2
        time: 0.40000013
        value: 0.991911
        inSlope: -0.05242105
        outSlope: -0.05242105
        tangentMode: 0
      - serializedVersion: 2
        time: 0.4166668
        value: 0.99101025
        inSlope: -0.055661157
        outSlope: -0.055661157
        tangentMode: 0
      - serializedVersion: 2
        time: 0.4333335
        value: 0.9900556
        inSlope: -0.058883376
        outSlope: -0.058883376
        tangentMode: 0
      - serializedVersion: 2
        time: 0.45000017
        value: 0.98904747
        inSlope: -0.06207163
        outSlope: -0.06207163
        tangentMode: 0
      - serializedVersion: 2
        time: 0.46666685
        value: 0.98798656
        inSlope: -0.06520445
        outSlope: -0.06520445
        tangentMode: 0
      - serializedVersion: 2
        time: 0.48333353
        value: 0.986874
        inSlope: -0.068272956
        outSlope: -0.068272956
        tangentMode: 0
      - serializedVersion: 2
        time: 0.5000002
        value: 0.9857108
        inSlope: -0.07125921
        outSlope: -0.07125921
        tangentMode: 0
      - serializedVersion: 2
        time: 0.5166668
        value: 0.9844987
        inSlope: -0.07414527
        outSlope: -0.07414527
        tangentMode: 0
      - serializedVersion: 2
        time: 0.5333335
        value: 0.9832393
        inSlope: -0.07691868
        outSlope: -0.07691868
        tangentMode: 0
      - serializedVersion: 2
        time: 0.55000013
        value: 0.9819347
        inSlope: -0.07956155
        outSlope: -0.07956155
        tangentMode: 0
      - serializedVersion: 2
        time: 0.5666668
        value: 0.98058724
        inSlope: -0.08205779
        outSlope: -0.08205779
        tangentMode: 0
      - serializedVersion: 2
        time: 0.58333343
        value: 0.97919947
        inSlope: -0.08439311
        outSlope: -0.08439311
        tangentMode: 0
      - serializedVersion: 2
        time: 0.6000001
        value: 0.97777414
        inSlope: -0.08655318
        outSlope: -0.08655318
        tangentMode: 0
      - serializedVersion: 2
        time: 0.61666673
        value: 0.97631437
        inSlope: -0.08852192
        outSlope: -0.08852192
        tangentMode: 0
      - serializedVersion: 2
        time: 0.6333334
        value: 0.9748234
        inSlope: -0.09028861
        outSlope: -0.09028861
        tangentMode: 0
      - serializedVersion: 2
        time: 0.65000004
        value: 0.97330475
        inSlope: -0.09183356
        outSlope: -0.09183356
        tangentMode: 0
      - serializedVersion: 2
        time: 0.6666667
        value: 0.9717623
        inSlope: -0.093146056
        outSlope: -0.093146056
        tangentMode: 0
      - serializedVersion: 2
        time: 0.68333334
        value: 0.9701999
        inSlope: -0.09421536
        outSlope: -0.09421536
        tangentMode: 0
      - serializedVersion: 2
        time: 0.7
        value: 0.9686218
        inSlope: -0.0950236
        outSlope: -0.0950236
        tangentMode: 0
      - serializedVersion: 2
        time: 0.71666664
        value: 0.96703243
        inSlope: -0.09556362
        outSlope: -0.09556362
        tangentMode: 0
      - serializedVersion: 2
        time: 0.7333333
        value: 0.96543634
        inSlope: -0.09582648
        outSlope: -0.09582648
        tangentMode: 0
      - serializedVersion: 2
        time: 0.74999994
        value: 0.9638382
        inSlope: -0.09579608
        outSlope: -0.09579608
        tangentMode: 0
      - serializedVersion: 2
        time: 0.7666666
        value: 0.96224314
        inSlope: -0.09546527
        outSlope: -0.09546527
        tangentMode: 0
      - serializedVersion: 2
        time: 0.78333324
        value: 0.96065605
        inSlope: -0.09482691
        outSlope: -0.09482691
        tangentMode: 0
      - serializedVersion: 2
        time: 0.7999999
        value: 0.95908225
        inSlope: -0.09387025
        outSlope: -0.09387025
        tangentMode: 0
      - serializedVersion: 2
        time: 0.81666654
        value: 0.95752704
        inSlope: -0.092589945
        outSlope: -0.092589945
        tangentMode: 0
      - serializedVersion: 2
        time: 0.8333332
        value: 0.9559959
        inSlope: -0.09097883
        outSlope: -0.09097883
        tangentMode: 0
      - serializedVersion: 2
        time: 0.84999985
        value: 0.9544944
        inSlope: -0.089033335
        outSlope: -0.089033335
        tangentMode: 0
      - serializedVersion: 2
        time: 0.8666665
        value: 0.95302814
        inSlope: -0.086749874
        outSlope: -0.086749874
        tangentMode: 0
      - serializedVersion: 2
        time: 0.88333315
        value: 0.95160276
        inSlope: -0.0841231
        outSlope: -0.0841231
        tangentMode: 0
      - serializedVersion: 2
        time: 0.8999998
        value: 0.95022404
        inSlope: -0.0811512
        outSlope: -0.0811512
        tangentMode: 0
      - serializedVersion: 2
        time: 0.91666645
        value: 0.9488977
        inSlope: -0.07783778
        outSlope: -0.07783778
        tangentMode: 0
      - serializedVersion: 2
        time: 0.9333331
        value: 0.94762945
        inSlope: -0.07417925
        outSlope: -0.07417925
        tangentMode: 0
      - serializedVersion: 2
        time: 0.94999975
        value: 0.9464251
        inSlope: -0.070175596
        outSlope: -0.070175596
        tangentMode: 0
      - serializedVersion: 2
        time: 0.9666664
        value: 0.94529027
        inSlope: -0.065833986
        outSlope: -0.065833986
        tangentMode: 0
      - serializedVersion: 2
        time: 0.98333305
        value: 0.9442306
        inSlope: -0.061158
        outSlope: -0.061158
        tangentMode: 0
      - serializedVersion: 2
        time: 0.9999997
        value: 0.94325167
        inSlope: -0.052206486
        outSlope: -0.052206486
        tangentMode: 0
      - serializedVersion: 2
        time: 1.0166664
        value: 0.9424904
        inSlope: -0.036156133
        outSlope: -0.036156133
        tangentMode: 0
      - serializedVersion: 2
        time: 1.0333331
        value: 0.94204646
        inSlope: -0.018716473
        outSlope: -0.018716473
        tangentMode: 0
      - serializedVersion: 2
        time: 1.0499997
        value: 0.9418665
        inSlope: -0.0045454544
        outSlope: -0.0045454544
        tangentMode: 0
      - serializedVersion: 2
        time: 1.0666664
        value: 0.94189495
        inSlope: 0.006249553
        outSlope: 0.006249553
        tangentMode: 0
      - serializedVersion: 2
        time: 1.083333
        value: 0.94207484
        inSlope: 0.013618482
        outSlope: 0.013618482
        tangentMode: 0
      - serializedVersion: 2
        time: 1.0999997
        value: 0.9423489
        inSlope: 0.01755418
        outSlope: 0.01755418
        tangentMode: 0
      - serializedVersion: 2
        time: 1.1166663
        value: 0.94266
        inSlope: 0.018078107
        outSlope: 0.018078107
        tangentMode: 0
      - serializedVersion: 2
        time: 1.133333
        value: 0.9429515
        inSlope: 0.015218869
        outSlope: 0.015218869
        tangentMode: 0
      - serializedVersion: 2
        time: 1.1499996
        value: 0.94316727
        inSlope: 0.009005024
        outSlope: 0.009005024
        tangentMode: 0
      - serializedVersion: 2
        time: 1.1666666
        value: 0.94325167
        inSlope: 0.005063907
        outSlope: 0.005063907
        tangentMode: 0
      m_PreInfinity: 2
      m_PostInfinity: 2
      m_RotationOrder: 4
    attribute: m_LocalRotation.w
    path: Image
    classID: 224
    script: {fileID: 0}
  - curve:
      serializedVersion: 2
      m_Curve:
      - serializedVersion: 2
        time: 0
        value: 0
        inSlope: 125.5
        outSlope: 125.5
        tangentMode: 0
      - serializedVersion: 2
        time: 1
        value: 251
        inSlope: 125.5
        outSlope: 125.5
        tangentMode: 0
      - serializedVersion: 2
        time: 1.1666666
        value: 251
        inSlope: 0
        outSlope: 0
        tangentMode: 0
      m_PreInfinity: 2
      m_PostInfinity: 2
      m_RotationOrder: 4
    attribute: m_AnchoredPosition.x
    path: Image
    classID: 224
    script: {fileID: 0}
  - curve:
      serializedVersion: 2
      m_Curve:
      - serializedVersion: 2
        time: 0
        value: 534
        inSlope: 96
        outSlope: 96
        tangentMode: 0
      - serializedVersion: 2
        time: 1
        value: 726
        inSlope: 96
        outSlope: 96
        tangentMode: 0
      - serializedVersion: 2
        time: 1.1666666
        value: 726
        inSlope: 0
        outSlope: 0
        tangentMode: 0
      m_PreInfinity: 2
      m_PostInfinity: 2
      m_RotationOrder: 4
    attribute: m_AnchoredPosition.y
    path: Image
    classID: 224
    script: {fileID: 0}
  - curve:
      serializedVersion: 2
      m_Curve:
      - serializedVersion: 2
        time: 0
        value: 1.4
        inSlope: -0.325
        outSlope: -0.325
        tangentMode: 0
      - serializedVersion: 2
        time: 1
        value: 0.75
        inSlope: -0.325
        outSlope: -0.325
        tangentMode: 0
      - serializedVersion: 2
        time: 1.1666666
        value: 0.75
        inSlope: 0
        outSlope: 0
        tangentMode: 0
      m_PreInfinity: 2
      m_PostInfinity: 2
      m_RotationOrder: 4
    attribute: m_LocalScale.x
    path: Image
    classID: 224
    script: {fileID: 0}
  - curve:
      serializedVersion: 2
      m_Curve:
      - serializedVersion: 2
        time: 0
        value: 1.4
        inSlope: -0.325
        outSlope: -0.325
        tangentMode: 0
      - serializedVersion: 2
        time: 1
        value: 0.75
        inSlope: -0.325
        outSlope: -0.325
        tangentMode: 0
      - serializedVersion: 2
        time: 1.1666666
        value: 0.75
        inSlope: 0
        outSlope: 0
        tangentMode: 0
      m_PreInfinity: 2
      m_PostInfinity: 2
      m_RotationOrder: 4
    attribute: m_LocalScale.y
    path: Image
    classID: 224
    script: {fileID: 0}
  - curve:
      serializedVersion: 2
      m_Curve:
      - serializedVersion: 2
        time: 0
        value: 1
        inSlope: 0
        outSlope: 0
        tangentMode: 0
      - serializedVersion: 2
        time: 1
        value: 1
        inSlope: 0
        outSlope: 0
        tangentMode: 0
      - serializedVersion: 2
        time: 1.1666666
        value: 1
        inSlope: 0
        outSlope: 0
        tangentMode: 0
      m_PreInfinity: 2
      m_PostInfinity: 2
      m_RotationOrder: 4
    attribute: m_LocalScale.z
    path: Image
    classID: 224
    script: {fileID: 0}
  m_EulerEditorCurves:
  - curve:
      serializedVersion: 2
      m_Curve:
      - serializedVersion: 2
        time: 0
        value: 0
        inSlope: 0
        outSlope: 0
        tangentMode: 0
      - serializedVersion: 2
        time: 1
        value: 0
        inSlope: 0
        outSlope: 0
        tangentMode: 0
      - serializedVersion: 2
        time: 1.1666666
        value: 0
        inSlope: 0
        outSlope: 0
        tangentMode: 0
      m_PreInfinity: 2
      m_PostInfinity: 2
      m_RotationOrder: 4
    attribute: localEulerAnglesBaked.x
    path: Image
    classID: 224
    script: {fileID: 0}
  - curve:
      serializedVersion: 2
      m_Curve:
      - serializedVersion: 2
        time: 0
        value: 0
        inSlope: 0
        outSlope: 0
        tangentMode: 0
      - serializedVersion: 2
        time: 1
        value: 0
        inSlope: 0
        outSlope: 0
        tangentMode: 0
      - serializedVersion: 2
        time: 1.1666666
        value: 0
        inSlope: 0
        outSlope: 0
        tangentMode: 0
      m_PreInfinity: 2
      m_PostInfinity: 2
      m_RotationOrder: 4
    attribute: localEulerAnglesBaked.y
    path: Image
    classID: 224
    script: {fileID: 0}
  - curve:
      serializedVersion: 2
      m_Curve:
      - serializedVersion: 2
        time: 0
        value: 0
        inSlope: -19.395
        outSlope: -19.395
        tangentMode: 0
      - serializedVersion: 2
        time: 1
        value: -38.79
        inSlope: -19.395
        outSlope: -19.395
        tangentMode: 0
      - serializedVersion: 2
        time: 1.1666666
        value: -38.79
        inSlope: 0
        outSlope: 0
        tangentMode: 0
      m_PreInfinity: 2
      m_PostInfinity: 2
      m_RotationOrder: 4
    attribute: localEulerAnglesBaked.z
    path: Image
    classID: 224
    script: {fileID: 0}
  m_HasGenericRootTransform: 0
  m_HasMotionFloatCurves: 0
  m_GenerateMotionCurves: 0
  m_Events: []
