%YAML 1.1
%TAG !u! tag:unity3d.com,2011:
--- !u!74 &7400000
AnimationClip:
  m_ObjectHideFlags: 0
  m_PrefabParentObject: {fileID: 0}
  m_PrefabInternal: {fileID: 0}
  m_Name: LoadAnimation2
  serializedVersion: 6
  m_Legacy: 1
  m_Compressed: 0
  m_UseHighQualityCurve: 1
  m_RotationCurves:
  - curve:
      serializedVersion: 2
      m_Curve:
      - serializedVersion: 2
        time: 0
        value: {x: 0, y: 0, z: 0, w: 1}
        inSlope: {x: 0, y: 0, z: 0.09579263, w: -0.000075101845}
        outSlope: {x: 0, y: 0, z: 0.09579263, w: -0.000075101845}
        tangentMode: 0
      - serializedVersion: 2
        time: 0.016666668
        value: {x: 0, y: 0, z: 0.0015965439, w: 0.99999875}
        inSlope: {x: 0, y: 0, z: 0.1067234, w: -0.00018954276}
        outSlope: {x: 0, y: 0, z: 0.1067234, w: -0.00018954276}
        tangentMode: 0
      - serializedVersion: 2
        time: 0.033333335
        value: {x: 0, y: 0, z: 0.0035574466, w: 0.9999937}
        inSlope: {x: 0, y: 0, z: 0.12823191, w: -0.0004792213}
        outSlope: {x: 0, y: 0, z: 0.12823191, w: -0.0004792213}
        tangentMode: 0
      - serializedVersion: 2
        time: 0.050000004
        value: {x: 0, y: 0, z: 0.0058709416, w: 0.9999828}
        inSlope: {x: 0, y: 0, z: 0.14903408, w: -0.0009012222}
        outSlope: {x: 0, y: 0, z: 0.14903408, w: -0.0009012222}
        tangentMode: 0
      - serializedVersion: 2
        time: 0.06666667
        value: {x: 0, y: 0, z: 0.00852525, w: 0.99996364}
        inSlope: {x: 0, y: 0, z: 0.16912913, w: -0.0014698507}
        outSlope: {x: 0, y: 0, z: 0.16912913, w: -0.0014698507}
        tangentMode: 0
      - serializedVersion: 2
        time: 0.083333336
        value: {x: 0, y: 0, z: 0.011508579, w: 0.9999338}
        inSlope: {x: 0, y: 0, z: 0.18851627, w: -0.0021994116}
        outSlope: {x: 0, y: 0, z: 0.18851627, w: -0.0021994116}
        tangentMode: 0
      - serializedVersion: 2
        time: 0.1
        value: {x: 0, y: 0, z: 0.014809125, w: 0.9998903}
        inSlope: {x: 0, y: 0, z: 0.20719415, w: -0.0031006339}
        outSlope: {x: 0, y: 0, z: 0.20719415, w: -0.0031006339}
        tangentMode: 0
      - serializedVersion: 2
        time: 0.11666667
        value: {x: 0, y: 0, z: 0.01841505, w: 0.9998304}
        inSlope: {x: 0, y: 0, z: 0.22516161, w: -0.004180669}
        outSlope: {x: 0, y: 0, z: 0.22516161, w: -0.004180669}
        tangentMode: 0
      - serializedVersion: 2
        time: 0.13333334
        value: {x: 0, y: 0, z: 0.022314513, w: 0.999751}
        inSlope: {x: 0, y: 0, z: 0.24241713, w: -0.0054448834}
        outSlope: {x: 0, y: 0, z: 0.24241713, w: -0.0054448834}
        tangentMode: 0
      - serializedVersion: 2
        time: 0.15
        value: {x: 0, y: 0, z: 0.026495622, w: 0.9996489}
        inSlope: {x: 0, y: 0, z: 0.25895882, w: -0.006898642}
        outSlope: {x: 0, y: 0, z: 0.25895882, w: -0.006898642}
        tangentMode: 0
      - serializedVersion: 2
        time: 0.16666667
        value: {x: 0, y: 0, z: 0.030946473, w: 0.999521}
        inSlope: {x: 0, y: 0, z: 0.27478534, w: -0.008543731}
        outSlope: {x: 0, y: 0, z: 0.27478534, w: -0.008543731}
        tangentMode: 0
      - serializedVersion: 2
        time: 0.18333334
        value: {x: 0, y: 0, z: 0.035655133, w: 0.99936414}
        inSlope: {x: 0, y: 0, z: 0.28989458, w: -0.010378362}
        outSlope: {x: 0, y: 0, z: 0.28989458, w: -0.010378362}
        tangentMode: 0
      - serializedVersion: 2
        time: 0.2
        value: {x: 0, y: 0, z: 0.040609624, w: 0.9991751}
        inSlope: {x: 0, y: 0, z: 0.30428445, w: -0.012402535}
        outSlope: {x: 0, y: 0, z: 0.30428445, w: -0.012402535}
        tangentMode: 0
      - serializedVersion: 2
        time: 0.21666667
        value: {x: 0, y: 0, z: 0.045797948, w: 0.9989507}
        inSlope: {x: 0, y: 0, z: 0.3179531, w: -0.014612677}
        outSlope: {x: 0, y: 0, z: 0.3179531, w: -0.014612677}
        tangentMode: 0
      - serializedVersion: 2
        time: 0.23333333
        value: {x: 0, y: 0, z: 0.05120806, w: 0.998688}
        inSlope: {x: 0, y: 0, z: 0.33089867, w: -0.01700163}
        outSlope: {x: 0, y: 0, z: 0.33089867, w: -0.01700163}
        tangentMode: 0
      - serializedVersion: 2
        time: 0.25
        value: {x: 0, y: 0, z: 0.056827903, w: 0.998384}
        inSlope: {x: 0, y: 0, z: 0.34311932, w: -0.019564025}
        outSlope: {x: 0, y: 0, z: 0.34311932, w: -0.019564025}
        tangentMode: 0
      - serializedVersion: 2
        time: 0.26666668
        value: {x: 0, y: 0, z: 0.062645376, w: 0.99803585}
        inSlope: {x: 0, y: 0, z: 0.35461232, w: -0.022292715}
        outSlope: {x: 0, y: 0, z: 0.35461232, w: -0.022292715}
        tangentMode: 0
      - serializedVersion: 2
        time: 0.28333336
        value: {x: 0, y: 0, z: 0.06864832, w: 0.9976409}
        inSlope: {x: 0, y: 0, z: 0.3653767, w: -0.025173403}
        outSlope: {x: 0, y: 0, z: 0.3653767, w: -0.025173403}
        tangentMode: 0
      - serializedVersion: 2
        time: 0.30000004
        value: {x: 0, y: 0, z: 0.07482461, w: 0.99719673}
        inSlope: {x: 0, y: 0, z: 0.37541103, w: -0.028198935}
        outSlope: {x: 0, y: 0, z: 0.37541103, w: -0.028198935}
        tangentMode: 0
      - serializedVersion: 2
        time: 0.31666672
        value: {x: 0, y: 0, z: 0.081162035, w: 0.99670094}
        inSlope: {x: 0, y: 0, z: 0.38471293, w: -0.031358574}
        outSlope: {x: 0, y: 0, z: 0.38471293, w: -0.031358574}
        tangentMode: 0
      - serializedVersion: 2
        time: 0.3333334
        value: {x: 0, y: 0, z: 0.087648384, w: 0.99615145}
        inSlope: {x: 0, y: 0, z: 0.39328215, w: -0.034632653}
        outSlope: {x: 0, y: 0, z: 0.39328215, w: -0.034632653}
        tangentMode: 0
      - serializedVersion: 2
        time: 0.35000008
        value: {x: 0, y: 0, z: 0.09427145, w: 0.9955465}
        inSlope: {x: 0, y: 0, z: 0.4011171, w: -0.03800866}
        outSlope: {x: 0, y: 0, z: 0.4011171, w: -0.03800866}
        tangentMode: 0
      - serializedVersion: 2
        time: 0.36666676
        value: {x: 0, y: 0, z: 0.101018965, w: 0.9948845}
        inSlope: {x: 0, y: 0, z: 0.4082169, w: -0.041474067}
        outSlope: {x: 0, y: 0, z: 0.4082169, w: -0.041474067}
        tangentMode: 0
      - serializedVersion: 2
        time: 0.38333344
        value: {x: 0, y: 0, z: 0.10787869, w: 0.99416405}
        inSlope: {x: 0, y: 0, z: 0.41458198, w: -0.04500922}
        outSlope: {x: 0, y: 0, z: 0.41458198, w: -0.04500922}
        tangentMode: 0
      - serializedVersion: 2
        time: 0.40000013
        value: {x: 0, y: 0, z: 0.11483838, w: 0.9933842}
        inSlope: {x: 0, y: 0, z: 0.42021173, w: -0.048598014}
        outSlope: {x: 0, y: 0, z: 0.42021173, w: -0.048598014}
        tangentMode: 0
      - serializedVersion: 2
        time: 0.4166668
        value: {x: 0, y: 0, z: 0.12188576, w: 0.9925441}
        inSlope: {x: 0, y: 0, z: 0.42510608, w: -0.052220777}
        outSlope: {x: 0, y: 0, z: 0.42510608, w: -0.052220777}
        tangentMode: 0
      - serializedVersion: 2
        time: 0.4333335
        value: {x: 0, y: 0, z: 0.12900859, w: 0.9916435}
        inSlope: {x: 0, y: 0, z: 0.42926574, w: -0.05585964}
        outSlope: {x: 0, y: 0, z: 0.42926574, w: -0.05585964}
        tangentMode: 0
      - serializedVersion: 2
        time: 0.45000017
        value: {x: 0, y: 0, z: 0.13619463, w: 0.9906821}
        inSlope: {x: 0, y: 0, z: 0.43269226, w: -0.059498496}
        outSlope: {x: 0, y: 0, z: 0.43269226, w: -0.059498496}
        tangentMode: 0
      - serializedVersion: 2
        time: 0.46666685
        value: {x: 0, y: 0, z: 0.14343168, w: 0.9896602}
        inSlope: {x: 0, y: 0, z: 0.435387, w: -0.063112326}
        outSlope: {x: 0, y: 0, z: 0.435387, w: -0.063112326}
        tangentMode: 0
      - serializedVersion: 2
        time: 0.48333353
        value: {x: 0, y: 0, z: 0.15070754, w: 0.9885784}
        inSlope: {x: 0, y: 0, z: 0.43735075, w: -0.06668151}
        outSlope: {x: 0, y: 0, z: 0.43735075, w: -0.06668151}
        tangentMode: 0
      - serializedVersion: 2
        time: 0.5000002
        value: {x: 0, y: 0, z: 0.15801004, w: 0.9874375}
        inSlope: {x: 0, y: 0, z: 0.4385872, w: -0.07018811}
        outSlope: {x: 0, y: 0, z: 0.4385872, w: -0.07018811}
        tangentMode: 0
      - serializedVersion: 2
        time: 0.5166668
        value: {x: 0, y: 0, z: 0.1653271, w: 0.9862388}
        inSlope: {x: 0, y: 0, z: 0.4390986, w: -0.07361062}
        outSlope: {x: 0, y: 0, z: 0.4390986, w: -0.07361062}
        tangentMode: 0
      - serializedVersion: 2
        time: 0.5333335
        value: {x: 0, y: 0, z: 0.17264664, w: 0.9849838}
        inSlope: {x: 0, y: 0, z: 0.43888804, w: -0.07692762}
        outSlope: {x: 0, y: 0, z: 0.43888804, w: -0.07692762}
        tangentMode: 0
      - serializedVersion: 2
        time: 0.55000013
        value: {x: 0, y: 0, z: 0.17995669, w: 0.9836745}
        inSlope: {x: 0, y: 0, z: 0.43795866, w: -0.08011766}
        outSlope: {x: 0, y: 0, z: 0.43795866, w: -0.08011766}
        tangentMode: 0
      - serializedVersion: 2
        time: 0.5666668
        value: {x: 0, y: 0, z: 0.18724525, w: 0.9823132}
        inSlope: {x: 0, y: 0, z: 0.43631357, w: -0.08316286}
        outSlope: {x: 0, y: 0, z: 0.43631357, w: -0.08316286}
        tangentMode: 0
      - serializedVersion: 2
        time: 0.58333343
        value: {x: 0, y: 0, z: 0.19450046, w: 0.98090243}
        inSlope: {x: 0, y: 0, z: 0.4339577, w: -0.08604177}
        outSlope: {x: 0, y: 0, z: 0.4339577, w: -0.08604177}
        tangentMode: 0
      - serializedVersion: 2
        time: 0.6000001
        value: {x: 0, y: 0, z: 0.20171049, w: 0.97944516}
        inSlope: {x: 0, y: 0, z: 0.4308964, w: -0.08872935}
        outSlope: {x: 0, y: 0, z: 0.4308964, w: -0.08872935}
        tangentMode: 0
      - serializedVersion: 2
        time: 0.61666673
        value: {x: 0, y: 0, z: 0.20886366, w: 0.9779448}
        inSlope: {x: 0, y: 0, z: 0.42713326, w: -0.09121129}
        outSlope: {x: 0, y: 0, z: 0.42713326, w: -0.09121129}
        tangentMode: 0
      - serializedVersion: 2
        time: 0.6333334
        value: {x: 0, y: 0, z: 0.21594825, w: 0.9764048}
        inSlope: {x: 0, y: 0, z: 0.42267454, w: -0.09346613}
        outSlope: {x: 0, y: 0, z: 0.42267454, w: -0.09346613}
        tangentMode: 0
      - serializedVersion: 2
        time: 0.65000004
        value: {x: 0, y: 0, z: 0.2229528, w: 0.97482926}
        inSlope: {x: 0, y: 0, z: 0.41752467, w: -0.095472425}
        outSlope: {x: 0, y: 0, z: 0.41752467, w: -0.095472425}
        tangentMode: 0
      - serializedVersion: 2
        time: 0.6666667
        value: {x: 0, y: 0, z: 0.22986573, w: 0.9732224}
        inSlope: {x: 0, y: 0, z: 0.41168863, w: -0.09721765}
        outSlope: {x: 0, y: 0, z: 0.41168863, w: -0.09721765}
        tangentMode: 0
      - serializedVersion: 2
        time: 0.68333334
        value: {x: 0, y: 0, z: 0.23667574, w: 0.9715887}
        inSlope: {x: 0, y: 0, z: 0.40517622, w: -0.09867678}
        outSlope: {x: 0, y: 0, z: 0.40517622, w: -0.09867678}
        tangentMode: 0
      - serializedVersion: 2
        time: 0.7
        value: {x: 0, y: 0, z: 0.24337159, w: 0.96993315}
        inSlope: {x: 0, y: 0, z: 0.3979879, w: -0.09983549}
        outSlope: {x: 0, y: 0, z: 0.3979879, w: -0.09983549}
        tangentMode: 0
      - serializedVersion: 2
        time: 0.71666664
        value: {x: 0, y: 0, z: 0.24994199, w: 0.9682608}
        inSlope: {x: 0, y: 0, z: 0.39013082, w: -0.10068128}
        outSlope: {x: 0, y: 0, z: 0.39013082, w: -0.10068128}
        tangentMode: 0
      - serializedVersion: 2
        time: 0.7333333
        value: {x: 0, y: 0, z: 0.25637594, w: 0.9665771}
        inSlope: {x: 0, y: 0, z: 0.38161567, w: -0.1011909}
        outSlope: {x: 0, y: 0, z: 0.38161567, w: -0.1011909}
        tangentMode: 0
      - serializedVersion: 2
        time: 0.74999994
        value: {x: 0, y: 0, z: 0.2626625, w: 0.9648878}
        inSlope: {x: 0, y: 0, z: 0.37244385, w: -0.10135541}
        outSlope: {x: 0, y: 0, z: 0.37244385, w: -0.10135541}
        tangentMode: 0
      - serializedVersion: 2
        time: 0.7666666
        value: {x: 0, y: 0, z: 0.26879072, w: 0.9631986}
        inSlope: {x: 0, y: 0, z: 0.3626225, w: -0.10116229}
        outSlope: {x: 0, y: 0, z: 0.3626225, w: -0.10116229}
        tangentMode: 0
      - serializedVersion: 2
        time: 0.78333324
        value: {x: 0, y: 0, z: 0.2747499, w: 0.9615157}
        inSlope: {x: 0, y: 0, z: 0.35215738, w: -0.100593664}
        outSlope: {x: 0, y: 0, z: 0.35215738, w: -0.100593664}
        tangentMode: 0
      - serializedVersion: 2
        time: 0.7999999
        value: {x: 0, y: 0, z: 0.2805293, w: 0.9598455}
        inSlope: {x: 0, y: 0, z: 0.34105393, w: -0.09964416}
        outSlope: {x: 0, y: 0, z: 0.34105393, w: -0.09964416}
        tangentMode: 0
      - serializedVersion: 2
        time: 0.81666654
        value: {x: 0, y: 0, z: 0.28611836, w: 0.95819426}
        inSlope: {x: 0, y: 0, z: 0.32931834, w: -0.09829947}
        outSlope: {x: 0, y: 0, z: 0.32931834, w: -0.09829947}
        tangentMode: 0
      - serializedVersion: 2
        time: 0.8333332
        value: {x: 0, y: 0, z: 0.29150656, w: 0.95656884}
        inSlope: {x: 0, y: 0, z: 0.31695515, w: -0.09655246}
        outSlope: {x: 0, y: 0, z: 0.31695515, w: -0.09655246}
        tangentMode: 0
      - serializedVersion: 2
        time: 0.84999985
        value: {x: 0, y: 0, z: 0.29668352, w: 0.95497584}
        inSlope: {x: 0, y: 0, z: 0.3039688, w: -0.09439775}
        outSlope: {x: 0, y: 0, z: 0.3039688, w: -0.09439775}
        tangentMode: 0
      - serializedVersion: 2
        time: 0.8666665
        value: {x: 0, y: 0, z: 0.30163884, w: 0.95342225}
        inSlope: {x: 0, y: 0, z: 0.29036373, w: -0.09182641}
        outSlope: {x: 0, y: 0, z: 0.29036373, w: -0.09182641}
        tangentMode: 0
      - serializedVersion: 2
        time: 0.88333315
        value: {x: 0, y: 0, z: 0.3063623, w: 0.95191497}
        inSlope: {x: 0, y: 0, z: 0.27614352, w: -0.08883485}
        outSlope: {x: 0, y: 0, z: 0.27614352, w: -0.08883485}
        tangentMode: 0
      - serializedVersion: 2
        time: 0.8999998
        value: {x: 0, y: 0, z: 0.31084362, w: 0.9504611}
        inSlope: {x: 0, y: 0, z: 0.26130998, w: -0.085423075}
        outSlope: {x: 0, y: 0, z: 0.26130998, w: -0.085423075}
        tangentMode: 0
      - serializedVersion: 2
        time: 0.91666645
        value: {x: 0, y: 0, z: 0.31507263, w: 0.94906753}
        inSlope: {x: 0, y: 0, z: 0.24586761, w: -0.08158751}
        outSlope: {x: 0, y: 0, z: 0.24586761, w: -0.08158751}
        tangentMode: 0
      - serializedVersion: 2
        time: 0.9333331
        value: {x: 0, y: 0, z: 0.3190392, w: 0.9477415}
        inSlope: {x: 0, y: 0, z: 0.22981814, w: -0.07732637}
        outSlope: {x: 0, y: 0, z: 0.22981814, w: -0.07732637}
        tangentMode: 0
      - serializedVersion: 2
        time: 0.94999975
        value: {x: 0, y: 0, z: 0.32273322, w: 0.94649}
        inSlope: {x: 0, y: 0, z: 0.21316162, w: -0.0726486}
        outSlope: {x: 0, y: 0, z: 0.21316162, w: -0.0726486}
        tangentMode: 0
      - serializedVersion: 2
        time: 0.9666664
        value: {x: 0, y: 0, z: 0.32614458, w: 0.9453199}
        inSlope: {x: 0, y: 0, z: 0.1958971, w: -0.067554176}
        outSlope: {x: 0, y: 0, z: 0.1958971, w: -0.067554176}
        tangentMode: 0
      - serializedVersion: 2
        time: 0.98333305
        value: {x: 0, y: 0, z: 0.32926312, w: 0.9442382}
        inSlope: {x: 0, y: 0, z: 0.17802554, w: -0.062046707}
        outSlope: {x: 0, y: 0, z: 0.17802554, w: -0.062046707}
        tangentMode: 0
      - serializedVersion: 2
        time: 0.9999997
        value: {x: 0, y: 0, z: 0.33207875, w: 0.94325167}
        inSlope: {x: 0, y: 0, z: 0.15269092, w: -0.053706728}
        outSlope: {x: 0, y: 0, z: 0.15269092, w: -0.053706728}
        tangentMode: 0
      - serializedVersion: 2
        time: 1.0166664
        value: {x: 0, y: 0, z: 0.33435282, w: 0.94244796}
        inSlope: {x: 0, y: 0, z: 0.11486547, w: -0.04070158}
        outSlope: {x: 0, y: 0, z: 0.11486547, w: -0.04070158}
        tangentMode: 0
      - serializedVersion: 2
        time: 1.0333331
        value: {x: 0, y: 0, z: 0.3359076, w: 0.94189495}
        inSlope: {x: 0, y: 0, z: 0.074139014, w: -0.026410842}
        outSlope: {x: 0, y: 0, z: 0.074139014, w: -0.026410842}
        tangentMode: 0
      - serializedVersion: 2
        time: 1.0499997
        value: {x: 0, y: 0, z: 0.33682412, w: 0.9415676}
        inSlope: {x: 0, y: 0, z: 0.038251914, w: -0.013670338}
        outSlope: {x: 0, y: 0, z: 0.038251914, w: -0.013670338}
        tangentMode: 0
      - serializedVersion: 2
        time: 1.0666664
        value: {x: 0, y: 0, z: 0.33718267, w: 0.9414393}
        inSlope: {x: 0, y: 0, z: 0.0071713394, w: -0.0025677704}
        outSlope: {x: 0, y: 0, z: 0.0071713394, w: -0.0025677704}
        tangentMode: 0
      - serializedVersion: 2
        time: 1.083333
        value: {x: 0, y: 0, z: 0.33706316, w: 0.941482}
        inSlope: {x: 0, y: 0, z: -0.019123275, w: 0.0068414276}
        outSlope: {x: 0, y: 0, z: -0.019123275, w: 0.0068414276}
        tangentMode: 0
      - serializedVersion: 2
        time: 1.0999997
        value: {x: 0, y: 0, z: 0.33654523, w: 0.9416673}
        inSlope: {x: 0, y: 0, z: -0.04064355, w: 0.014517916}
        outSlope: {x: 0, y: 0, z: -0.04064355, w: 0.014517916}
        tangentMode: 0
      - serializedVersion: 2
        time: 1.1166663
        value: {x: 0, y: 0, z: 0.33570838, w: 0.94196594}
        inSlope: {x: 0, y: 0, z: -0.057396643, w: 0.020447392}
        outSlope: {x: 0, y: 0, z: -0.057396643, w: 0.020447392}
        tangentMode: 0
      - serializedVersion: 2
        time: 1.133333
        value: {x: 0, y: 0, z: 0.334632, w: 0.9423489}
        inSlope: {x: 0, y: 0, z: -0.06938344, w: 0.024631642}
        outSlope: {x: 0, y: 0, z: -0.06938344, w: 0.024631642}
        tangentMode: 0
      - serializedVersion: 2
        time: 1.1499996
        value: {x: 0, y: 0, z: 0.3333956, w: 0.942787}
        inSlope: {x: 0, y: 0, z: -0.07659507, w: 0.027082885}
        outSlope: {x: 0, y: 0, z: -0.07659507, w: 0.027082885}
        tangentMode: 0
      - serializedVersion: 2
        time: 1.1666666
        value: {x: 0, y: 0, z: 0.3320788, w: 0.94325167}
        inSlope: {x: 0, y: 0, z: -0.07900553, w: 0.027880097}
        outSlope: {x: 0, y: 0, z: -0.07900553, w: 0.027880097}
        tangentMode: 0
      m_PreInfinity: 2
      m_PostInfinity: 2
      m_RotationOrder: 4
    path: Image
  m_CompressedRotationCurves: []
  m_EulerCurves: []
  m_PositionCurves: []
  m_ScaleCurves:
  - curve:
      serializedVersion: 2
      m_Curve:
      - serializedVersion: 2
        time: 0
        value: {x: 1.4, y: 1.4, z: 1}
        inSlope: {x: -0.48749998, y: -0.48749998, z: 0}
        outSlope: {x: -0.48749998, y: -0.48749998, z: 0}
        tangentMode: 0
      - serializedVersion: 2
        time: 1
        value: {x: 0.75, y: 0.75, z: 1}
        inSlope: {x: -0.325, y: -0.325, z: 0}
        outSlope: {x: -0.325, y: -0.325, z: 0}
        tangentMode: 0
      - serializedVersion: 2
        time: 1.1666666
        value: {x: 0.75, y: 0.75, z: 1}
        inSlope: {x: -0.1625, y: -0.1625, z: 0}
        outSlope: {x: -0.1625, y: -0.1625, z: 0}
        tangentMode: 0
      m_PreInfinity: 2
      m_PostInfinity: 2
      m_RotationOrder: 4
    path: Image
  - curve:
      serializedVersion: 2
      m_Curve:
      - serializedVersion: 2
        time: 0
        value: {x: 0.5, y: 0.5, z: 1}
        inSlope: {x: 0, y: 0, z: 0}
        outSlope: {x: 0, y: 0, z: 0}
        tangentMode: 0
      - serializedVersion: 2
        time: 1.1666666
        value: {x: 0.3, y: 0.3, z: 1}
        inSlope: {x: 0, y: 0, z: 0}
        outSlope: {x: 0, y: 0, z: 0}
        tangentMode: 0
      m_PreInfinity: 2
      m_PostInfinity: 2
      m_RotationOrder: 4
    path: Image (5)/Button/Image
  m_FloatCurves:
  - curve:
      serializedVersion: 2
      m_Curve:
      - serializedVersion: 2
        time: 0
        value: 1
        inSlope: -11.8125
        outSlope: -11.8125
        tangentMode: 0
      - serializedVersion: 2
        time: 0.083333336
        value: 0
        inSlope: -5.5384617
        outSlope: -5.5384617
        tangentMode: 0
      - serializedVersion: 2
        time: 1
        value: 0
        inSlope: Infinity
        outSlope: Infinity
        tangentMode: 103
      - serializedVersion: 2
        time: 1.1666666
        value: 1
        inSlope: 0.4615385
        outSlope: 0.4615385
        tangentMode: 0
      m_PreInfinity: 2
      m_PostInfinity: 2
      m_RotationOrder: 4
    attribute: m_Interactable
    path: 
    classID: 225
    script: {fileID: 0}
  - curve:
      serializedVersion: 2
      m_Curve:
      - serializedVersion: 2
        time: 0
        value: 0
        inSlope: 0
        outSlope: 0
        tangentMode: 0
      - serializedVersion: 2
        time: 0.33333334
        value: 0
        inSlope: 0
        outSlope: 0
        tangentMode: 0
      m_PreInfinity: 2
      m_PostInfinity: 2
      m_RotationOrder: 4
    attribute: m_AnchoredPosition.x
    path: Image (1)
    classID: 224
    script: {fileID: 0}
  - curve:
      serializedVersion: 2
      m_Curve:
      - serializedVersion: 2
        time: 0
        value: -923
        inSlope: -0.5625
        outSlope: -0.5625
        tangentMode: 0
      - serializedVersion: 2
        time: 0.33333334
        value: -923
        inSlope: -1806
        outSlope: -1806
        tangentMode: 0
      - serializedVersion: 2
        time: 0.6666667
        value: -2127
        inSlope: -2709
        outSlope: -2709
        tangentMode: 0
      m_PreInfinity: 2
      m_PostInfinity: 2
      m_RotationOrder: 4
    attribute: m_AnchoredPosition.y
    path: Image (1)
    classID: 224
    script: {fileID: 0}
  - curve:
      serializedVersion: 2
      m_Curve:
      - serializedVersion: 2
        time: 0
        value: 0
        inSlope: 0
        outSlope: 0
        tangentMode: 0
      m_PreInfinity: 2
      m_PostInfinity: 2
      m_RotationOrder: 4
    attribute: m_IsActive
    path: Image (1)/Elements
    classID: 1
    script: {fileID: 0}
  - curve:
      serializedVersion: 2
      m_Curve:
      - serializedVersion: 2
        time: 0
        value: 0
        inSlope: 0
        outSlope: 0
        tangentMode: 0
      m_PreInfinity: 2
      m_PostInfinity: 2
      m_RotationOrder: 4
    attribute: m_IsActive
    path: Image (1)/Image (3)
    classID: 1
    script: {fileID: 0}
  - curve:
      serializedVersion: 2
      m_Curve:
      - serializedVersion: 2
        time: 0
        value: 0
        inSlope: 0
        outSlope: 0
        tangentMode: 0
      - serializedVersion: 2
        time: 0.16666667
        value: 0
        inSlope: 0
        outSlope: 0
        tangentMode: 0
      m_PreInfinity: 2
      m_PostInfinity: 2
      m_RotationOrder: 4
    attribute: m_AnchoredPosition.x
    path: Image (2)
    classID: 224
    script: {fileID: 0}
  - curve:
      serializedVersion: 2
      m_Curve:
      - serializedVersion: 2
        time: 0
        value: -818
        inSlope: 194.625
        outSlope: 194.625
        tangentMode: 0
      - serializedVersion: 2
        time: 0.16666667
        value: -818
        inSlope: -1645.5001
        outSlope: -1645.5001
        tangentMode: 0
      - serializedVersion: 2
        time: 0.5
        value: -1915
        inSlope: -2468.2502
        outSlope: -2468.2502
        tangentMode: 0
      m_PreInfinity: 2
      m_PostInfinity: 2
      m_RotationOrder: 4
    attribute: m_AnchoredPosition.y
    path: Image (2)
    classID: 224
    script: {fileID: 0}
  - curve:
      serializedVersion: 2
      m_Curve:
      - serializedVersion: 2
        time: 0
        value: 0
        inSlope: 2.25
        outSlope: 2.25
        tangentMode: 0
      m_PreInfinity: 2
      m_PostInfinity: 2
      m_RotationOrder: 4
    attribute: m_IsActive
    path: Image (2)/Elements
    classID: 1
    script: {fileID: 0}
  - curve:
      serializedVersion: 2
      m_Curve:
      - serializedVersion: 2
        time: 0
        value: -292
        inSlope: -346.5
        outSlope: -346.5
        tangentMode: 0
      m_PreInfinity: 2
      m_PostInfinity: 2
      m_RotationOrder: 4
    attribute: m_AnchoredPosition.y
    path: Image (2)/Elements
    classID: 224
    script: {fileID: 0}
  - curve:
      serializedVersion: 2
      m_Curve:
      - serializedVersion: 2
        time: 0
        value: 0
        inSlope: 0
        outSlope: 0
        tangentMode: 0
      m_PreInfinity: 2
      m_PostInfinity: 2
      m_RotationOrder: 4
    attribute: m_IsActive
    path: Image (2)/Image (3)
    classID: 1
    script: {fileID: 0}
  - curve:
      serializedVersion: 2
      m_Curve:
      - serializedVersion: 2
        time: 0
        value: 0
        inSlope: 3471
        outSlope: 3471
        tangentMode: 0
      m_PreInfinity: 2
      m_PostInfinity: 2
      m_RotationOrder: 4
    attribute: m_AnchoredPosition.x
    path: Image (5)
    classID: 224
    script: {fileID: 0}
  - curve:
      serializedVersion: 2
      m_Curve:
      - serializedVersion: 2
        time: 0
        value: -554
        inSlope: 426.9375
        outSlope: 426.9375
        tangentMode: 0
      - serializedVersion: 2
        time: 1
        value: 220
        inSlope: 387
        outSlope: 387
        tangentMode: 0
      - serializedVersion: 2
        time: 1.1666666
        value: 220
        inSlope: 0
        outSlope: 0
        tangentMode: 0
      m_PreInfinity: 2
      m_PostInfinity: 2
      m_RotationOrder: 4
    attribute: m_AnchoredPosition.y
    path: Image (5)
    classID: 224
    script: {fileID: 0}
  - curve:
      serializedVersion: 2
      m_Curve:
      - serializedVersion: 2
        time: 0
        value: 0
        inSlope: 2.25
        outSlope: 2.25
        tangentMode: 0
      - serializedVersion: 2
        time: 0.33333334
        value: 1
        inSlope: Infinity
        outSlope: Infinity
        tangentMode: 103
      m_PreInfinity: 2
      m_PostInfinity: 2
      m_RotationOrder: 4
    attribute: m_IsActive
    path: Image (5)/Elements
    classID: 1
    script: {fileID: 0}
  - curve:
      serializedVersion: 2
      m_Curve:
      - serializedVersion: 2
        time: 0
        value: 1
        inSlope: 0
        outSlope: 0
        tangentMode: 0
      m_PreInfinity: 2
      m_PostInfinity: 2
      m_RotationOrder: 4
    attribute: m_IsActive
    path: Image (5)/Image (7)
    classID: 1
    script: {fileID: 0}
  - curve:
      serializedVersion: 2
      m_Curve:
      - serializedVersion: 2
        time: 0
        value: 0
        inSlope: 62.75
        outSlope: 62.75
        tangentMode: 0
      - serializedVersion: 2
        time: 0.33333334
        value: 0
        inSlope: 0
        outSlope: 0
        tangentMode: 0
      - serializedVersion: 2
        time: 1
        value: 0
        inSlope: 0
        outSlope: 0
        tangentMode: 0
      - serializedVersion: 2
        time: 1.1666666
        value: 0
        inSlope: 0
        outSlope: 0
        tangentMode: 0
      m_PreInfinity: 2
      m_PostInfinity: 2
      m_RotationOrder: 4
    attribute: m_AnchoredPosition.x
    path: Image (6)
    classID: 224
    script: {fileID: 0}
  - curve:
      serializedVersion: 2
      m_Curve:
      - serializedVersion: 2
        time: 0
        value: -390
        inSlope: -1981.5691
        outSlope: -1981.5691
        tangentMode: 0
      - serializedVersion: 2
        time: 0.33333334
        value: -1602
        inSlope: -1818
        outSlope: -1818
        tangentMode: 0
      - serializedVersion: 2
        time: 1
        value: -1602
        inSlope: 0
        outSlope: 0
        tangentMode: 0
      - serializedVersion: 2
        time: 1.1666666
        value: -1602
        inSlope: 60.375015
        outSlope: 60.375015
        tangentMode: 0
      m_PreInfinity: 2
      m_PostInfinity: 2
      m_RotationOrder: 4
    attribute: m_AnchoredPosition.y
    path: Image (6)
    classID: 224
    script: {fileID: 0}
  - curve:
      serializedVersion: 2
      m_Curve:
      - serializedVersion: 2
        time: 0
        value: 0
        inSlope: 3.140625
        outSlope: 3.140625
        tangentMode: 0
      m_PreInfinity: 2
      m_PostInfinity: 2
      m_RotationOrder: 4
    attribute: m_IsActive
    path: Image (6)/Elements
    classID: 1
    script: {fileID: 0}
  - curve:
      serializedVersion: 2
      m_Curve:
      - serializedVersion: 2
        time: 0
        value: -558
        inSlope: -273.2763
        outSlope: -273.2763
        tangentMode: 0
      m_PreInfinity: 2
      m_PostInfinity: 2
      m_RotationOrder: 4
    attribute: m_AnchoredPosition.y
    path: Image (6)/Elements
    classID: 224
    script: {fileID: 0}
  - curve:
      serializedVersion: 2
      m_Curve:
      - serializedVersion: 2
        time: 0
        value: 1
        inSlope: 0
        outSlope: 0
        tangentMode: 0
      m_PreInfinity: 2
      m_PostInfinity: 2
      m_RotationOrder: 4
    attribute: m_IsActive
    path: Image (6)/Image (7)
    classID: 1
    script: {fileID: 0}
  - curve:
      serializedVersion: 2
      m_Curve:
      - serializedVersion: 2
        time: 0
        value: -298
        inSlope: -533.25
        outSlope: -533.25
        tangentMode: 0
      - serializedVersion: 2
        time: 0.33333334
        value: -631
        inSlope: -164.99998
        outSlope: -164.99998
        tangentMode: 0
      - serializedVersion: 2
        time: 1
        value: -281
        inSlope: 190.50002
        outSlope: 190.50002
        tangentMode: 0
      - serializedVersion: 2
        time: 1.1666666
        value: -281
        inSlope: 95.25001
        outSlope: 95.25001
        tangentMode: 0
      m_PreInfinity: 2
      m_PostInfinity: 2
      m_RotationOrder: 4
    attribute: m_AnchoredPosition.y
    path: Image (5)/Elements
    classID: 224
    script: {fileID: 0}
  - curve:
      serializedVersion: 2
      m_Curve:
      - serializedVersion: 2
        time: 0
        value: 0
        inSlope: -62.75
        outSlope: -62.75
        tangentMode: 0
      - serializedVersion: 2
        time: 1
        value: -251
        inSlope: -125.5
        outSlope: -125.5
        tangentMode: 0
      - serializedVersion: 2
        time: 1.1666666
        value: -251
        inSlope: 62.75
        outSlope: 62.75
        tangentMode: 0
      m_PreInfinity: 2
      m_PostInfinity: 2
      m_RotationOrder: 4
    attribute: m_AnchoredPosition.x
    path: Image
    classID: 224
    script: {fileID: 0}
  - curve:
      serializedVersion: 2
      m_Curve:
      - serializedVersion: 2
        time: 0
        value: 534
        inSlope: 144
        outSlope: 144
        tangentMode: 0
      - serializedVersion: 2
        time: 1
        value: 726
        inSlope: 96
        outSlope: 96
        tangentMode: 0
      - serializedVersion: 2
        time: 1.1666666
        value: 726
        inSlope: 48
        outSlope: 48
        tangentMode: 0
      m_PreInfinity: 2
      m_PostInfinity: 2
      m_RotationOrder: 4
    attribute: m_AnchoredPosition.y
    path: Image
    classID: 224
    script: {fileID: 0}
  - curve:
      serializedVersion: 2
      m_Curve:
      - serializedVersion: 2
        time: 0
        value: 2.6
        inSlope: 0
        outSlope: 0
        tangentMode: 136
      - serializedVersion: 2
        time: 1.1666666
        value: -105
        inSlope: 0
        outSlope: 0
        tangentMode: 136
      m_PreInfinity: 2
      m_PostInfinity: 2
      m_RotationOrder: 4
    attribute: m_AnchoredPosition.x
    path: Image (5)/Button/Text
    classID: 224
    script: {fileID: 0}
  - curve:
      serializedVersion: 2
      m_Curve:
      - serializedVersion: 2
        time: 0
        value: 12.7
        inSlope: 0
        outSlope: 0
        tangentMode: 136
      - serializedVersion: 2
        time: 1.1666666
        value: -42
        inSlope: 0
        outSlope: 0
        tangentMode: 136
      m_PreInfinity: 2
      m_PostInfinity: 2
      m_RotationOrder: 4
    attribute: m_AnchoredPosition.y
    path: Image (5)/Button/Text
    classID: 224
    script: {fileID: 0}
  - curve:
      serializedVersion: 2
      m_Curve:
      - serializedVersion: 2
        time: 0
        value: 10.5
        inSlope: 0
        outSlope: 0
        tangentMode: 136
      - serializedVersion: 2
        time: 1.1666666
        value: 54
        inSlope: 0
        outSlope: 0
        tangentMode: 136
      m_PreInfinity: 2
      m_PostInfinity: 2
      m_RotationOrder: 4
    attribute: m_AnchoredPosition.x
    path: Image (5)/Button/Image
    classID: 224
    script: {fileID: 0}
  - curve:
      serializedVersion: 2
      m_Curve:
      - serializedVersion: 2
        time: 0
        value: 17.3
        inSlope: 0
        outSlope: 0
        tangentMode: 136
      - serializedVersion: 2
        time: 1.1666666
        value: -36
        inSlope: 0
        outSlope: 0
        tangentMode: 136
      m_PreInfinity: 2
      m_PostInfinity: 2
      m_RotationOrder: 4
    attribute: m_AnchoredPosition.y
    path: Image (5)/Button/Image
    classID: 224
    script: {fileID: 0}
  m_PPtrCurves: []
  m_SampleRate: 60
  m_WrapMode: 0
  m_Bounds:
    m_Center: {x: 0, y: 0, z: 0}
    m_Extent: {x: 0, y: 0, z: 0}
  m_ClipBindingConstant:
    genericBindings: []
    pptrCurveMapping: []
  m_AnimationClipSettings:
    serializedVersion: 2
    m_AdditiveReferencePoseClip: {fileID: 0}
    m_AdditiveReferencePoseTime: 0
    m_StartTime: 0
    m_StopTime: 1.1666666
    m_OrientationOffsetY: 0
    m_Level: 0
    m_CycleOffset: 0
    m_HasAdditiveReferencePose: 0
    m_LoopTime: 1
    m_LoopBlend: 0
    m_LoopBlendOrientation: 0
    m_LoopBlendPositionY: 0
    m_LoopBlendPositionXZ: 0
    m_KeepOriginalOrientation: 0
    m_KeepOriginalPositionY: 1
    m_KeepOriginalPositionXZ: 0
    m_HeightFromFeet: 0
    m_Mirror: 0
  m_EditorCurves:
  - curve:
      serializedVersion: 2
      m_Curve:
      - serializedVersion: 2
        time: 0
        value: 1
        inSlope: -11.8125
        outSlope: -11.8125
        tangentMode: 0
      - serializedVersion: 2
        time: 0.083333336
        value: 0
        inSlope: -5.5384617
        outSlope: -5.5384617
        tangentMode: 0
      - serializedVersion: 2
        time: 1
        value: 0
        inSlope: Infinity
        outSlope: Infinity
        tangentMode: 103
      - serializedVersion: 2
        time: 1.1666666
        value: 1
        inSlope: 0.4615385
        outSlope: 0.4615385
        tangentMode: 0
      m_PreInfinity: 2
      m_PostInfinity: 2
      m_RotationOrder: 4
    attribute: m_Interactable
    path: 
    classID: 225
    script: {fileID: 0}
  - curve:
      serializedVersion: 2
      m_Curve:
      - serializedVersion: 2
        time: 0
        value: 0
        inSlope: 0
        outSlope: 0
        tangentMode: 0
      - serializedVersion: 2
        time: 0.33333334
        value: 0
        inSlope: 0
        outSlope: 0
        tangentMode: 0
      m_PreInfinity: 2
      m_PostInfinity: 2
      m_RotationOrder: 4
    attribute: m_AnchoredPosition.x
    path: Image (1)
    classID: 224
    script: {fileID: 0}
  - curve:
      serializedVersion: 2
      m_Curve:
      - serializedVersion: 2
        time: 0
        value: -923
        inSlope: -0.5625
        outSlope: -0.5625
        tangentMode: 0
      - serializedVersion: 2
        time: 0.33333334
        value: -923
        inSlope: -1806
        outSlope: -1806
        tangentMode: 0
      - serializedVersion: 2
        time: 0.6666667
        value: -2127
        inSlope: -2709
        outSlope: -2709
        tangentMode: 0
      m_PreInfinity: 2
      m_PostInfinity: 2
      m_RotationOrder: 4
    attribute: m_AnchoredPosition.y
    path: Image (1)
    classID: 224
    script: {fileID: 0}
  - curve:
      serializedVersion: 2
      m_Curve:
      - serializedVersion: 2
        time: 0
        value: 0
        inSlope: 0
        outSlope: 0
        tangentMode: 0
      m_PreInfinity: 2
      m_PostInfinity: 2
      m_RotationOrder: 4
    attribute: m_IsActive
    path: Image (1)/Elements
    classID: 1
    script: {fileID: 0}
  - curve:
      serializedVersion: 2
      m_Curve:
      - serializedVersion: 2
        time: 0
        value: 0
        inSlope: 0
        outSlope: 0
        tangentMode: 0
      m_PreInfinity: 2
      m_PostInfinity: 2
      m_RotationOrder: 4
    attribute: m_IsActive
    path: Image (1)/Image (3)
    classID: 1
    script: {fileID: 0}
  - curve:
      serializedVersion: 2
      m_Curve:
      - serializedVersion: 2
        time: 0
        value: 0
        inSlope: 0
        outSlope: 0
        tangentMode: 0
      - serializedVersion: 2
        time: 0.16666667
        value: 0
        inSlope: 0
        outSlope: 0
        tangentMode: 0
      m_PreInfinity: 2
      m_PostInfinity: 2
      m_RotationOrder: 4
    attribute: m_AnchoredPosition.x
    path: Image (2)
    classID: 224
    script: {fileID: 0}
  - curve:
      serializedVersion: 2
      m_Curve:
      - serializedVersion: 2
        time: 0
        value: -818
        inSlope: 194.625
        outSlope: 194.625
        tangentMode: 0
      - serializedVersion: 2
        time: 0.16666667
        value: -818
        inSlope: -1645.5001
        outSlope: -1645.5001
        tangentMode: 0
      - serializedVersion: 2
        time: 0.5
        value: -1915
        inSlope: -2468.2502
        outSlope: -2468.2502
        tangentMode: 0
      m_PreInfinity: 2
      m_PostInfinity: 2
      m_RotationOrder: 4
    attribute: m_AnchoredPosition.y
    path: Image (2)
    classID: 224
    script: {fileID: 0}
  - curve:
      serializedVersion: 2
      m_Curve:
      - serializedVersion: 2
        time: 0
        value: 0
        inSlope: 2.25
        outSlope: 2.25
        tangentMode: 0
      m_PreInfinity: 2
      m_PostInfinity: 2
      m_RotationOrder: 4
    attribute: m_IsActive
    path: Image (2)/Elements
    classID: 1
    script: {fileID: 0}
  - curve:
      serializedVersion: 2
      m_Curve:
      - serializedVersion: 2
        time: 0
        value: -292
        inSlope: -346.5
        outSlope: -346.5
        tangentMode: 0
      m_PreInfinity: 2
      m_PostInfinity: 2
      m_RotationOrder: 4
    attribute: m_AnchoredPosition.y
    path: Image (2)/Elements
    classID: 224
    script: {fileID: 0}
  - curve:
      serializedVersion: 2
      m_Curve:
      - serializedVersion: 2
        time: 0
        value: 0
        inSlope: 0
        outSlope: 0
        tangentMode: 0
      m_PreInfinity: 2
      m_PostInfinity: 2
      m_RotationOrder: 4
    attribute: m_IsActive
    path: Image (2)/Image (3)
    classID: 1
    script: {fileID: 0}
  - curve:
      serializedVersion: 2
      m_Curve:
      - serializedVersion: 2
        time: 0
        value: 0
        inSlope: 3471
        outSlope: 3471
        tangentMode: 0
      m_PreInfinity: 2
      m_PostInfinity: 2
      m_RotationOrder: 4
    attribute: m_AnchoredPosition.x
    path: Image (5)
    classID: 224
    script: {fileID: 0}
  - curve:
      serializedVersion: 2
      m_Curve:
      - serializedVersion: 2
        time: 0
        value: -554
        inSlope: 426.9375
        outSlope: 426.9375
        tangentMode: 0
      - serializedVersion: 2
        time: 1
        value: 220
        inSlope: 387
        outSlope: 387
        tangentMode: 0
      - serializedVersion: 2
        time: 1.1666666
        value: 220
        inSlope: 0
        outSlope: 0
        tangentMode: 0
      m_PreInfinity: 2
      m_PostInfinity: 2
      m_RotationOrder: 4
    attribute: m_AnchoredPosition.y
    path: Image (5)
    classID: 224
    script: {fileID: 0}
  - curve:
      serializedVersion: 2
      m_Curve:
      - serializedVersion: 2
        time: 0
        value: 0
        inSlope: 2.25
        outSlope: 2.25
        tangentMode: 0
      - serializedVersion: 2
        time: 0.33333334
        value: 1
        inSlope: Infinity
        outSlope: Infinity
        tangentMode: 103
      m_PreInfinity: 2
      m_PostInfinity: 2
      m_RotationOrder: 4
    attribute: m_IsActive
    path: Image (5)/Elements
    classID: 1
    script: {fileID: 0}
  - curve:
      serializedVersion: 2
      m_Curve:
      - serializedVersion: 2
        time: 0
        value: 1
        inSlope: 0
        outSlope: 0
        tangentMode: 0
      m_PreInfinity: 2
      m_PostInfinity: 2
      m_RotationOrder: 4
    attribute: m_IsActive
    path: Image (5)/Image (7)
    classID: 1
    script: {fileID: 0}
  - curve:
      serializedVersion: 2
      m_Curve:
      - serializedVersion: 2
        time: 0
        value: 0
        inSlope: 62.75
        outSlope: 62.75
        tangentMode: 0
      - serializedVersion: 2
        time: 0.33333334
        value: 0
        inSlope: 0
        outSlope: 0
        tangentMode: 0
      - serializedVersion: 2
        time: 1
        value: 0
        inSlope: 0
        outSlope: 0
        tangentMode: 0
      - serializedVersion: 2
        time: 1.1666666
        value: 0
        inSlope: 0
        outSlope: 0
        tangentMode: 0
      m_PreInfinity: 2
      m_PostInfinity: 2
      m_RotationOrder: 4
    attribute: m_AnchoredPosition.x
    path: Image (6)
    classID: 224
    script: {fileID: 0}
  - curve:
      serializedVersion: 2
      m_Curve:
      - serializedVersion: 2
        time: 0
        value: -390
        inSlope: -1981.5691
        outSlope: -1981.5691
        tangentMode: 0
      - serializedVersion: 2
        time: 0.33333334
        value: -1602
        inSlope: -1818
        outSlope: -1818
        tangentMode: 0
      - serializedVersion: 2
        time: 1
        value: -1602
        inSlope: 0
        outSlope: 0
        tangentMode: 0
      - serializedVersion: 2
        time: 1.1666666
        value: -1602
        inSlope: 60.375015
        outSlope: 60.375015
        tangentMode: 0
      m_PreInfinity: 2
      m_PostInfinity: 2
      m_RotationOrder: 4
    attribute: m_AnchoredPosition.y
    path: Image (6)
    classID: 224
    script: {fileID: 0}
  - curve:
      serializedVersion: 2
      m_Curve:
      - serializedVersion: 2
        time: 0
        value: 0
        inSlope: 3.140625
        outSlope: 3.140625
        tangentMode: 0
      m_PreInfinity: 2
      m_PostInfinity: 2
      m_RotationOrder: 4
    attribute: m_IsActive
    path: Image (6)/Elements
    classID: 1
    script: {fileID: 0}
  - curve:
      serializedVersion: 2
      m_Curve:
      - serializedVersion: 2
        time: 0
        value: -558
        inSlope: -273.2763
        outSlope: -273.2763
        tangentMode: 0
      m_PreInfinity: 2
      m_PostInfinity: 2
      m_RotationOrder: 4
    attribute: m_AnchoredPosition.y
    path: Image (6)/Elements
    classID: 224
    script: {fileID: 0}
  - curve:
      serializedVersion: 2
      m_Curve:
      - serializedVersion: 2
        time: 0
        value: 1
        inSlope: 0
        outSlope: 0
        tangentMode: 0
      m_PreInfinity: 2
      m_PostInfinity: 2
      m_RotationOrder: 4
    attribute: m_IsActive
    path: Image (6)/Image (7)
    classID: 1
    script: {fileID: 0}
  - curve:
      serializedVersion: 2
      m_Curve:
      - serializedVersion: 2
        time: 0
        value: -298
        inSlope: -533.25
        outSlope: -533.25
        tangentMode: 0
      - serializedVersion: 2
        time: 0.33333334
        value: -631
        inSlope: -164.99998
        outSlope: -164.99998
        tangentMode: 0
      - serializedVersion: 2
        time: 1
        value: -281
        inSlope: 190.50002
        outSlope: 190.50002
        tangentMode: 0
      - serializedVersion: 2
        time: 1.1666666
        value: -281
        inSlope: 95.25001
        outSlope: 95.25001
        tangentMode: 0
      m_PreInfinity: 2
      m_PostInfinity: 2
      m_RotationOrder: 4
    attribute: m_AnchoredPosition.y
    path: Image (5)/Elements
    classID: 224
    script: {fileID: 0}
  - curve:
      serializedVersion: 2
      m_Curve:
      - serializedVersion: 2
        time: 0
        value: 1.4
        inSlope: -0.48749998
        outSlope: -0.48749998
        tangentMode: 0
      - serializedVersion: 2
        time: 1
        value: 0.75
        inSlope: -0.325
        outSlope: -0.325
        tangentMode: 0
      - serializedVersion: 2
        time: 1.1666666
        value: 0.75
        inSlope: -0.1625
        outSlope: -0.1625
        tangentMode: 0
      m_PreInfinity: 2
      m_PostInfinity: 2
      m_RotationOrder: 4
    attribute: m_LocalScale.x
    path: Image
    classID: 224
    script: {fileID: 0}
  - curve:
      serializedVersion: 2
      m_Curve:
      - serializedVersion: 2
        time: 0
        value: 1.4
        inSlope: -0.48749998
        outSlope: -0.48749998
        tangentMode: 0
      - serializedVersion: 2
        time: 1
        value: 0.75
        inSlope: -0.325
        outSlope: -0.325
        tangentMode: 0
      - serializedVersion: 2
        time: 1.1666666
        value: 0.75
        inSlope: -0.1625
        outSlope: -0.1625
        tangentMode: 0
      m_PreInfinity: 2
      m_PostInfinity: 2
      m_RotationOrder: 4
    attribute: m_LocalScale.y
    path: Image
    classID: 224
    script: {fileID: 0}
  - curve:
      serializedVersion: 2
      m_Curve:
      - serializedVersion: 2
        time: 0
        value: 1
        inSlope: 0
        outSlope: 0
        tangentMode: 0
      - serializedVersion: 2
        time: 1
        value: 1
        inSlope: 0
        outSlope: 0
        tangentMode: 0
      - serializedVersion: 2
        time: 1.1666666
        value: 1
        inSlope: 0
        outSlope: 0
        tangentMode: 0
      m_PreInfinity: 2
      m_PostInfinity: 2
      m_RotationOrder: 4
    attribute: m_LocalScale.z
    path: Image
    classID: 224
    script: {fileID: 0}
  - curve:
      serializedVersion: 2
      m_Curve:
      - serializedVersion: 2
        time: 0
        value: 0
        inSlope: -62.75
        outSlope: -62.75
        tangentMode: 0
      - serializedVersion: 2
        time: 1
        value: -251
        inSlope: -125.5
        outSlope: -125.5
        tangentMode: 0
      - serializedVersion: 2
        time: 1.1666666
        value: -251
        inSlope: 62.75
        outSlope: 62.75
        tangentMode: 0
      m_PreInfinity: 2
      m_PostInfinity: 2
      m_RotationOrder: 4
    attribute: m_AnchoredPosition.x
    path: Image
    classID: 224
    script: {fileID: 0}
  - curve:
      serializedVersion: 2
      m_Curve:
      - serializedVersion: 2
        time: 0
        value: 534
        inSlope: 144
        outSlope: 144
        tangentMode: 0
      - serializedVersion: 2
        time: 1
        value: 726
        inSlope: 96
        outSlope: 96
        tangentMode: 0
      - serializedVersion: 2
        time: 1.1666666
        value: 726
        inSlope: 48
        outSlope: 48
        tangentMode: 0
      m_PreInfinity: 2
      m_PostInfinity: 2
      m_RotationOrder: 4
    attribute: m_AnchoredPosition.y
    path: Image
    classID: 224
    script: {fileID: 0}
  - curve:
      serializedVersion: 2
      m_Curve:
      - serializedVersion: 2
        time: 0
        value: 0
        inSlope: 0
        outSlope: 0
        tangentMode: 0
      - serializedVersion: 2
        time: 0.016666668
        value: 0
        inSlope: 0
        outSlope: 0
        tangentMode: 0
      - serializedVersion: 2
        time: 0.033333335
        value: 0
        inSlope: 0
        outSlope: 0
        tangentMode: 0
      - serializedVersion: 2
        time: 0.050000004
        value: 0
        inSlope: 0
        outSlope: 0
        tangentMode: 0
      - serializedVersion: 2
        time: 0.06666667
        value: 0
        inSlope: 0
        outSlope: 0
        tangentMode: 0
      - serializedVersion: 2
        time: 0.083333336
        value: 0
        inSlope: 0
        outSlope: 0
        tangentMode: 0
      - serializedVersion: 2
        time: 0.1
        value: 0
        inSlope: 0
        outSlope: 0
        tangentMode: 0
      - serializedVersion: 2
        time: 0.11666667
        value: 0
        inSlope: 0
        outSlope: 0
        tangentMode: 0
      - serializedVersion: 2
        time: 0.13333334
        value: 0
        inSlope: 0
        outSlope: 0
        tangentMode: 0
      - serializedVersion: 2
        time: 0.15
        value: 0
        inSlope: 0
        outSlope: 0
        tangentMode: 0
      - serializedVersion: 2
        time: 0.16666667
        value: 0
        inSlope: 0
        outSlope: 0
        tangentMode: 0
      - serializedVersion: 2
        time: 0.18333334
        value: 0
        inSlope: 0
        outSlope: 0
        tangentMode: 0
      - serializedVersion: 2
        time: 0.2
        value: 0
        inSlope: 0
        outSlope: 0
        tangentMode: 0
      - serializedVersion: 2
        time: 0.21666667
        value: 0
        inSlope: 0
        outSlope: 0
        tangentMode: 0
      - serializedVersion: 2
        time: 0.23333333
        value: 0
        inSlope: 0
        outSlope: 0
        tangentMode: 0
      - serializedVersion: 2
        time: 0.25
        value: 0
        inSlope: 0
        outSlope: 0
        tangentMode: 0
      - serializedVersion: 2
        time: 0.26666668
        value: 0
        inSlope: 0
        outSlope: 0
        tangentMode: 0
      - serializedVersion: 2
        time: 0.28333336
        value: 0
        inSlope: 0
        outSlope: 0
        tangentMode: 0
      - serializedVersion: 2
        time: 0.30000004
        value: 0
        inSlope: 0
        outSlope: 0
        tangentMode: 0
      - serializedVersion: 2
        time: 0.31666672
        value: 0
        inSlope: 0
        outSlope: 0
        tangentMode: 0
      - serializedVersion: 2
        time: 0.3333334
        value: 0
        inSlope: 0
        outSlope: 0
        tangentMode: 0
      - serializedVersion: 2
        time: 0.35000008
        value: 0
        inSlope: 0
        outSlope: 0
        tangentMode: 0
      - serializedVersion: 2
        time: 0.36666676
        value: 0
        inSlope: 0
        outSlope: 0
        tangentMode: 0
      - serializedVersion: 2
        time: 0.38333344
        value: 0
        inSlope: 0
        outSlope: 0
        tangentMode: 0
      - serializedVersion: 2
        time: 0.40000013
        value: 0
        inSlope: 0
        outSlope: 0
        tangentMode: 0
      - serializedVersion: 2
        time: 0.4166668
        value: 0
        inSlope: 0
        outSlope: 0
        tangentMode: 0
      - serializedVersion: 2
        time: 0.4333335
        value: 0
        inSlope: 0
        outSlope: 0
        tangentMode: 0
      - serializedVersion: 2
        time: 0.45000017
        value: 0
        inSlope: 0
        outSlope: 0
        tangentMode: 0
      - serializedVersion: 2
        time: 0.46666685
        value: 0
        inSlope: 0
        outSlope: 0
        tangentMode: 0
      - serializedVersion: 2
        time: 0.48333353
        value: 0
        inSlope: 0
        outSlope: 0
        tangentMode: 0
      - serializedVersion: 2
        time: 0.5000002
        value: 0
        inSlope: 0
        outSlope: 0
        tangentMode: 0
      - serializedVersion: 2
        time: 0.5166668
        value: 0
        inSlope: 0
        outSlope: 0
        tangentMode: 0
      - serializedVersion: 2
        time: 0.5333335
        value: 0
        inSlope: 0
        outSlope: 0
        tangentMode: 0
      - serializedVersion: 2
        time: 0.55000013
        value: 0
        inSlope: 0
        outSlope: 0
        tangentMode: 0
      - serializedVersion: 2
        time: 0.5666668
        value: 0
        inSlope: 0
        outSlope: 0
        tangentMode: 0
      - serializedVersion: 2
        time: 0.58333343
        value: 0
        inSlope: 0
        outSlope: 0
        tangentMode: 0
      - serializedVersion: 2
        time: 0.6000001
        value: 0
        inSlope: 0
        outSlope: 0
        tangentMode: 0
      - serializedVersion: 2
        time: 0.61666673
        value: 0
        inSlope: 0
        outSlope: 0
        tangentMode: 0
      - serializedVersion: 2
        time: 0.6333334
        value: 0
        inSlope: 0
        outSlope: 0
        tangentMode: 0
      - serializedVersion: 2
        time: 0.65000004
        value: 0
        inSlope: 0
        outSlope: 0
        tangentMode: 0
      - serializedVersion: 2
        time: 0.6666667
        value: 0
        inSlope: 0
        outSlope: 0
        tangentMode: 0
      - serializedVersion: 2
        time: 0.68333334
        value: 0
        inSlope: 0
        outSlope: 0
        tangentMode: 0
      - serializedVersion: 2
        time: 0.7
        value: 0
        inSlope: 0
        outSlope: 0
        tangentMode: 0
      - serializedVersion: 2
        time: 0.71666664
        value: 0
        inSlope: 0
        outSlope: 0
        tangentMode: 0
      - serializedVersion: 2
        time: 0.7333333
        value: 0
        inSlope: 0
        outSlope: 0
        tangentMode: 0
      - serializedVersion: 2
        time: 0.74999994
        value: 0
        inSlope: 0
        outSlope: 0
        tangentMode: 0
      - serializedVersion: 2
        time: 0.7666666
        value: 0
        inSlope: 0
        outSlope: 0
        tangentMode: 0
      - serializedVersion: 2
        time: 0.78333324
        value: 0
        inSlope: 0
        outSlope: 0
        tangentMode: 0
      - serializedVersion: 2
        time: 0.7999999
        value: 0
        inSlope: 0
        outSlope: 0
        tangentMode: 0
      - serializedVersion: 2
        time: 0.81666654
        value: 0
        inSlope: 0
        outSlope: 0
        tangentMode: 0
      - serializedVersion: 2
        time: 0.8333332
        value: 0
        inSlope: 0
        outSlope: 0
        tangentMode: 0
      - serializedVersion: 2
        time: 0.84999985
        value: 0
        inSlope: 0
        outSlope: 0
        tangentMode: 0
      - serializedVersion: 2
        time: 0.8666665
        value: 0
        inSlope: 0
        outSlope: 0
        tangentMode: 0
      - serializedVersion: 2
        time: 0.88333315
        value: 0
        inSlope: 0
        outSlope: 0
        tangentMode: 0
      - serializedVersion: 2
        time: 0.8999998
        value: 0
        inSlope: 0
        outSlope: 0
        tangentMode: 0
      - serializedVersion: 2
        time: 0.91666645
        value: 0
        inSlope: 0
        outSlope: 0
        tangentMode: 0
      - serializedVersion: 2
        time: 0.9333331
        value: 0
        inSlope: 0
        outSlope: 0
        tangentMode: 0
      - serializedVersion: 2
        time: 0.94999975
        value: 0
        inSlope: 0
        outSlope: 0
        tangentMode: 0
      - serializedVersion: 2
        time: 0.9666664
        value: 0
        inSlope: 0
        outSlope: 0
        tangentMode: 0
      - serializedVersion: 2
        time: 0.98333305
        value: 0
        inSlope: 0
        outSlope: 0
        tangentMode: 0
      - serializedVersion: 2
        time: 0.9999997
        value: 0
        inSlope: 0
        outSlope: 0
        tangentMode: 0
      - serializedVersion: 2
        time: 1.0166664
        value: 0
        inSlope: 0
        outSlope: 0
        tangentMode: 0
      - serializedVersion: 2
        time: 1.0333331
        value: 0
        inSlope: 0
        outSlope: 0
        tangentMode: 0
      - serializedVersion: 2
        time: 1.0499997
        value: 0
        inSlope: 0
        outSlope: 0
        tangentMode: 0
      - serializedVersion: 2
        time: 1.0666664
        value: 0
        inSlope: 0
        outSlope: 0
        tangentMode: 0
      - serializedVersion: 2
        time: 1.083333
        value: 0
        inSlope: 0
        outSlope: 0
        tangentMode: 0
      - serializedVersion: 2
        time: 1.0999997
        value: 0
        inSlope: 0
        outSlope: 0
        tangentMode: 0
      - serializedVersion: 2
        time: 1.1166663
        value: 0
        inSlope: 0
        outSlope: 0
        tangentMode: 0
      - serializedVersion: 2
        time: 1.133333
        value: 0
        inSlope: 0
        outSlope: 0
        tangentMode: 0
      - serializedVersion: 2
        time: 1.1499996
        value: 0
        inSlope: 0
        outSlope: 0
        tangentMode: 0
      - serializedVersion: 2
        time: 1.1666666
        value: 0
        inSlope: 0
        outSlope: 0
        tangentMode: 0
      m_PreInfinity: 2
      m_PostInfinity: 2
      m_RotationOrder: 4
    attribute: m_LocalRotation.x
    path: Image
    classID: 224
    script: {fileID: 0}
  - curve:
      serializedVersion: 2
      m_Curve:
      - serializedVersion: 2
        time: 0
        value: 0
        inSlope: 0
        outSlope: 0
        tangentMode: 0
      - serializedVersion: 2
        time: 0.016666668
        value: 0
        inSlope: 0
        outSlope: 0
        tangentMode: 0
      - serializedVersion: 2
        time: 0.033333335
        value: 0
        inSlope: 0
        outSlope: 0
        tangentMode: 0
      - serializedVersion: 2
        time: 0.050000004
        value: 0
        inSlope: 0
        outSlope: 0
        tangentMode: 0
      - serializedVersion: 2
        time: 0.06666667
        value: 0
        inSlope: 0
        outSlope: 0
        tangentMode: 0
      - serializedVersion: 2
        time: 0.083333336
        value: 0
        inSlope: 0
        outSlope: 0
        tangentMode: 0
      - serializedVersion: 2
        time: 0.1
        value: 0
        inSlope: 0
        outSlope: 0
        tangentMode: 0
      - serializedVersion: 2
        time: 0.11666667
        value: 0
        inSlope: 0
        outSlope: 0
        tangentMode: 0
      - serializedVersion: 2
        time: 0.13333334
        value: 0
        inSlope: 0
        outSlope: 0
        tangentMode: 0
      - serializedVersion: 2
        time: 0.15
        value: 0
        inSlope: 0
        outSlope: 0
        tangentMode: 0
      - serializedVersion: 2
        time: 0.16666667
        value: 0
        inSlope: 0
        outSlope: 0
        tangentMode: 0
      - serializedVersion: 2
        time: 0.18333334
        value: 0
        inSlope: 0
        outSlope: 0
        tangentMode: 0
      - serializedVersion: 2
        time: 0.2
        value: 0
        inSlope: 0
        outSlope: 0
        tangentMode: 0
      - serializedVersion: 2
        time: 0.21666667
        value: 0
        inSlope: 0
        outSlope: 0
        tangentMode: 0
      - serializedVersion: 2
        time: 0.23333333
        value: 0
        inSlope: 0
        outSlope: 0
        tangentMode: 0
      - serializedVersion: 2
        time: 0.25
        value: 0
        inSlope: 0
        outSlope: 0
        tangentMode: 0
      - serializedVersion: 2
        time: 0.26666668
        value: 0
        inSlope: 0
        outSlope: 0
        tangentMode: 0
      - serializedVersion: 2
        time: 0.28333336
        value: 0
        inSlope: 0
        outSlope: 0
        tangentMode: 0
      - serializedVersion: 2
        time: 0.30000004
        value: 0
        inSlope: 0
        outSlope: 0
        tangentMode: 0
      - serializedVersion: 2
        time: 0.31666672
        value: 0
        inSlope: 0
        outSlope: 0
        tangentMode: 0
      - serializedVersion: 2
        time: 0.3333334
        value: 0
        inSlope: 0
        outSlope: 0
        tangentMode: 0
      - serializedVersion: 2
        time: 0.35000008
        value: 0
        inSlope: 0
        outSlope: 0
        tangentMode: 0
      - serializedVersion: 2
        time: 0.36666676
        value: 0
        inSlope: 0
        outSlope: 0
        tangentMode: 0
      - serializedVersion: 2
        time: 0.38333344
        value: 0
        inSlope: 0
        outSlope: 0
        tangentMode: 0
      - serializedVersion: 2
        time: 0.40000013
        value: 0
        inSlope: 0
        outSlope: 0
        tangentMode: 0
      - serializedVersion: 2
        time: 0.4166668
        value: 0
        inSlope: 0
        outSlope: 0
        tangentMode: 0
      - serializedVersion: 2
        time: 0.4333335
        value: 0
        inSlope: 0
        outSlope: 0
        tangentMode: 0
      - serializedVersion: 2
        time: 0.45000017
        value: 0
        inSlope: 0
        outSlope: 0
        tangentMode: 0
      - serializedVersion: 2
        time: 0.46666685
        value: 0
        inSlope: 0
        outSlope: 0
        tangentMode: 0
      - serializedVersion: 2
        time: 0.48333353
        value: 0
        inSlope: 0
        outSlope: 0
        tangentMode: 0
      - serializedVersion: 2
        time: 0.5000002
        value: 0
        inSlope: 0
        outSlope: 0
        tangentMode: 0
      - serializedVersion: 2
        time: 0.5166668
        value: 0
        inSlope: 0
        outSlope: 0
        tangentMode: 0
      - serializedVersion: 2
        time: 0.5333335
        value: 0
        inSlope: 0
        outSlope: 0
        tangentMode: 0
      - serializedVersion: 2
        time: 0.55000013
        value: 0
        inSlope: 0
        outSlope: 0
        tangentMode: 0
      - serializedVersion: 2
        time: 0.5666668
        value: 0
        inSlope: 0
        outSlope: 0
        tangentMode: 0
      - serializedVersion: 2
        time: 0.58333343
        value: 0
        inSlope: 0
        outSlope: 0
        tangentMode: 0
      - serializedVersion: 2
        time: 0.6000001
        value: 0
        inSlope: 0
        outSlope: 0
        tangentMode: 0
      - serializedVersion: 2
        time: 0.61666673
        value: 0
        inSlope: 0
        outSlope: 0
        tangentMode: 0
      - serializedVersion: 2
        time: 0.6333334
        value: 0
        inSlope: 0
        outSlope: 0
        tangentMode: 0
      - serializedVersion: 2
        time: 0.65000004
        value: 0
        inSlope: 0
        outSlope: 0
        tangentMode: 0
      - serializedVersion: 2
        time: 0.6666667
        value: 0
        inSlope: 0
        outSlope: 0
        tangentMode: 0
      - serializedVersion: 2
        time: 0.68333334
        value: 0
        inSlope: 0
        outSlope: 0
        tangentMode: 0
      - serializedVersion: 2
        time: 0.7
        value: 0
        inSlope: 0
        outSlope: 0
        tangentMode: 0
      - serializedVersion: 2
        time: 0.71666664
        value: 0
        inSlope: 0
        outSlope: 0
        tangentMode: 0
      - serializedVersion: 2
        time: 0.7333333
        value: 0
        inSlope: 0
        outSlope: 0
        tangentMode: 0
      - serializedVersion: 2
        time: 0.74999994
        value: 0
        inSlope: 0
        outSlope: 0
        tangentMode: 0
      - serializedVersion: 2
        time: 0.7666666
        value: 0
        inSlope: 0
        outSlope: 0
        tangentMode: 0
      - serializedVersion: 2
        time: 0.78333324
        value: 0
        inSlope: 0
        outSlope: 0
        tangentMode: 0
      - serializedVersion: 2
        time: 0.7999999
        value: 0
        inSlope: 0
        outSlope: 0
        tangentMode: 0
      - serializedVersion: 2
        time: 0.81666654
        value: 0
        inSlope: 0
        outSlope: 0
        tangentMode: 0
      - serializedVersion: 2
        time: 0.8333332
        value: 0
        inSlope: 0
        outSlope: 0
        tangentMode: 0
      - serializedVersion: 2
        time: 0.84999985
        value: 0
        inSlope: 0
        outSlope: 0
        tangentMode: 0
      - serializedVersion: 2
        time: 0.8666665
        value: 0
        inSlope: 0
        outSlope: 0
        tangentMode: 0
      - serializedVersion: 2
        time: 0.88333315
        value: 0
        inSlope: 0
        outSlope: 0
        tangentMode: 0
      - serializedVersion: 2
        time: 0.8999998
        value: 0
        inSlope: 0
        outSlope: 0
        tangentMode: 0
      - serializedVersion: 2
        time: 0.91666645
        value: 0
        inSlope: 0
        outSlope: 0
        tangentMode: 0
      - serializedVersion: 2
        time: 0.9333331
        value: 0
        inSlope: 0
        outSlope: 0
        tangentMode: 0
      - serializedVersion: 2
        time: 0.94999975
        value: 0
        inSlope: 0
        outSlope: 0
        tangentMode: 0
      - serializedVersion: 2
        time: 0.9666664
        value: 0
        inSlope: 0
        outSlope: 0
        tangentMode: 0
      - serializedVersion: 2
        time: 0.98333305
        value: 0
        inSlope: 0
        outSlope: 0
        tangentMode: 0
      - serializedVersion: 2
        time: 0.9999997
        value: 0
        inSlope: 0
        outSlope: 0
        tangentMode: 0
      - serializedVersion: 2
        time: 1.0166664
        value: 0
        inSlope: 0
        outSlope: 0
        tangentMode: 0
      - serializedVersion: 2
        time: 1.0333331
        value: 0
        inSlope: 0
        outSlope: 0
        tangentMode: 0
      - serializedVersion: 2
        time: 1.0499997
        value: 0
        inSlope: 0
        outSlope: 0
        tangentMode: 0
      - serializedVersion: 2
        time: 1.0666664
        value: 0
        inSlope: 0
        outSlope: 0
        tangentMode: 0
      - serializedVersion: 2
        time: 1.083333
        value: 0
        inSlope: 0
        outSlope: 0
        tangentMode: 0
      - serializedVersion: 2
        time: 1.0999997
        value: 0
        inSlope: 0
        outSlope: 0
        tangentMode: 0
      - serializedVersion: 2
        time: 1.1166663
        value: 0
        inSlope: 0
        outSlope: 0
        tangentMode: 0
      - serializedVersion: 2
        time: 1.133333
        value: 0
        inSlope: 0
        outSlope: 0
        tangentMode: 0
      - serializedVersion: 2
        time: 1.1499996
        value: 0
        inSlope: 0
        outSlope: 0
        tangentMode: 0
      - serializedVersion: 2
        time: 1.1666666
        value: 0
        inSlope: 0
        outSlope: 0
        tangentMode: 0
      m_PreInfinity: 2
      m_PostInfinity: 2
      m_RotationOrder: 4
    attribute: m_LocalRotation.y
    path: Image
    classID: 224
    script: {fileID: 0}
  - curve:
      serializedVersion: 2
      m_Curve:
      - serializedVersion: 2
        time: 0
        value: 0
        inSlope: 0.09579263
        outSlope: 0.09579263
        tangentMode: 0
      - serializedVersion: 2
        time: 0.016666668
        value: 0.0015965439
        inSlope: 0.1067234
        outSlope: 0.1067234
        tangentMode: 0
      - serializedVersion: 2
        time: 0.033333335
        value: 0.0035574466
        inSlope: 0.12823191
        outSlope: 0.12823191
        tangentMode: 0
      - serializedVersion: 2
        time: 0.050000004
        value: 0.0058709416
        inSlope: 0.14903408
        outSlope: 0.14903408
        tangentMode: 0
      - serializedVersion: 2
        time: 0.06666667
        value: 0.00852525
        inSlope: 0.16912913
        outSlope: 0.16912913
        tangentMode: 0
      - serializedVersion: 2
        time: 0.083333336
        value: 0.011508579
        inSlope: 0.18851627
        outSlope: 0.18851627
        tangentMode: 0
      - serializedVersion: 2
        time: 0.1
        value: 0.014809125
        inSlope: 0.20719415
        outSlope: 0.20719415
        tangentMode: 0
      - serializedVersion: 2
        time: 0.11666667
        value: 0.01841505
        inSlope: 0.22516161
        outSlope: 0.22516161
        tangentMode: 0
      - serializedVersion: 2
        time: 0.13333334
        value: 0.022314513
        inSlope: 0.24241713
        outSlope: 0.24241713
        tangentMode: 0
      - serializedVersion: 2
        time: 0.15
        value: 0.026495622
        inSlope: 0.25895882
        outSlope: 0.25895882
        tangentMode: 0
      - serializedVersion: 2
        time: 0.16666667
        value: 0.030946473
        inSlope: 0.27478534
        outSlope: 0.27478534
        tangentMode: 0
      - serializedVersion: 2
        time: 0.18333334
        value: 0.035655133
        inSlope: 0.28989458
        outSlope: 0.28989458
        tangentMode: 0
      - serializedVersion: 2
        time: 0.2
        value: 0.040609624
        inSlope: 0.30428445
        outSlope: 0.30428445
        tangentMode: 0
      - serializedVersion: 2
        time: 0.21666667
        value: 0.045797948
        inSlope: 0.3179531
        outSlope: 0.3179531
        tangentMode: 0
      - serializedVersion: 2
        time: 0.23333333
        value: 0.05120806
        inSlope: 0.33089867
        outSlope: 0.33089867
        tangentMode: 0
      - serializedVersion: 2
        time: 0.25
        value: 0.056827903
        inSlope: 0.34311932
        outSlope: 0.34311932
        tangentMode: 0
      - serializedVersion: 2
        time: 0.26666668
        value: 0.062645376
        inSlope: 0.35461232
        outSlope: 0.35461232
        tangentMode: 0
      - serializedVersion: 2
        time: 0.28333336
        value: 0.06864832
        inSlope: 0.3653767
        outSlope: 0.3653767
        tangentMode: 0
      - serializedVersion: 2
        time: 0.30000004
        value: 0.07482461
        inSlope: 0.37541103
        outSlope: 0.37541103
        tangentMode: 0
      - serializedVersion: 2
        time: 0.31666672
        value: 0.081162035
        inSlope: 0.38471293
        outSlope: 0.38471293
        tangentMode: 0
      - serializedVersion: 2
        time: 0.3333334
        value: 0.087648384
        inSlope: 0.39328215
        outSlope: 0.39328215
        tangentMode: 0
      - serializedVersion: 2
        time: 0.35000008
        value: 0.09427145
        inSlope: 0.4011171
        outSlope: 0.4011171
        tangentMode: 0
      - serializedVersion: 2
        time: 0.36666676
        value: 0.101018965
        inSlope: 0.4082169
        outSlope: 0.4082169
        tangentMode: 0
      - serializedVersion: 2
        time: 0.38333344
        value: 0.10787869
        inSlope: 0.41458198
        outSlope: 0.41458198
        tangentMode: 0
      - serializedVersion: 2
        time: 0.40000013
        value: 0.11483838
        inSlope: 0.42021173
        outSlope: 0.42021173
        tangentMode: 0
      - serializedVersion: 2
        time: 0.4166668
        value: 0.12188576
        inSlope: 0.42510608
        outSlope: 0.42510608
        tangentMode: 0
      - serializedVersion: 2
        time: 0.4333335
        value: 0.12900859
        inSlope: 0.42926574
        outSlope: 0.42926574
        tangentMode: 0
      - serializedVersion: 2
        time: 0.45000017
        value: 0.13619463
        inSlope: 0.43269226
        outSlope: 0.43269226
        tangentMode: 0
      - serializedVersion: 2
        time: 0.46666685
        value: 0.14343168
        inSlope: 0.435387
        outSlope: 0.435387
        tangentMode: 0
      - serializedVersion: 2
        time: 0.48333353
        value: 0.15070754
        inSlope: 0.43735075
        outSlope: 0.43735075
        tangentMode: 0
      - serializedVersion: 2
        time: 0.5000002
        value: 0.15801004
        inSlope: 0.4385872
        outSlope: 0.4385872
        tangentMode: 0
      - serializedVersion: 2
        time: 0.5166668
        value: 0.1653271
        inSlope: 0.4390986
        outSlope: 0.4390986
        tangentMode: 0
      - serializedVersion: 2
        time: 0.5333335
        value: 0.17264664
        inSlope: 0.43888804
        outSlope: 0.43888804
        tangentMode: 0
      - serializedVersion: 2
        time: 0.55000013
        value: 0.17995669
        inSlope: 0.43795866
        outSlope: 0.43795866
        tangentMode: 0
      - serializedVersion: 2
        time: 0.5666668
        value: 0.18724525
        inSlope: 0.43631357
        outSlope: 0.43631357
        tangentMode: 0
      - serializedVersion: 2
        time: 0.58333343
        value: 0.19450046
        inSlope: 0.4339577
        outSlope: 0.4339577
        tangentMode: 0
      - serializedVersion: 2
        time: 0.6000001
        value: 0.20171049
        inSlope: 0.4308964
        outSlope: 0.4308964
        tangentMode: 0
      - serializedVersion: 2
        time: 0.61666673
        value: 0.20886366
        inSlope: 0.42713326
        outSlope: 0.42713326
        tangentMode: 0
      - serializedVersion: 2
        time: 0.6333334
        value: 0.21594825
        inSlope: 0.42267454
        outSlope: 0.42267454
        tangentMode: 0
      - serializedVersion: 2
        time: 0.65000004
        value: 0.2229528
        inSlope: 0.41752467
        outSlope: 0.41752467
        tangentMode: 0
      - serializedVersion: 2
        time: 0.6666667
        value: 0.22986573
        inSlope: 0.41168863
        outSlope: 0.41168863
        tangentMode: 0
      - serializedVersion: 2
        time: 0.68333334
        value: 0.23667574
        inSlope: 0.40517622
        outSlope: 0.40517622
        tangentMode: 0
      - serializedVersion: 2
        time: 0.7
        value: 0.24337159
        inSlope: 0.3979879
        outSlope: 0.3979879
        tangentMode: 0
      - serializedVersion: 2
        time: 0.71666664
        value: 0.24994199
        inSlope: 0.39013082
        outSlope: 0.39013082
        tangentMode: 0
      - serializedVersion: 2
        time: 0.7333333
        value: 0.25637594
        inSlope: 0.38161567
        outSlope: 0.38161567
        tangentMode: 0
      - serializedVersion: 2
        time: 0.74999994
        value: 0.2626625
        inSlope: 0.37244385
        outSlope: 0.37244385
        tangentMode: 0
      - serializedVersion: 2
        time: 0.7666666
        value: 0.26879072
        inSlope: 0.3626225
        outSlope: 0.3626225
        tangentMode: 0
      - serializedVersion: 2
        time: 0.78333324
        value: 0.2747499
        inSlope: 0.35215738
        outSlope: 0.35215738
        tangentMode: 0
      - serializedVersion: 2
        time: 0.7999999
        value: 0.2805293
        inSlope: 0.34105393
        outSlope: 0.34105393
        tangentMode: 0
      - serializedVersion: 2
        time: 0.81666654
        value: 0.28611836
        inSlope: 0.32931834
        outSlope: 0.32931834
        tangentMode: 0
      - serializedVersion: 2
        time: 0.8333332
        value: 0.29150656
        inSlope: 0.31695515
        outSlope: 0.31695515
        tangentMode: 0
      - serializedVersion: 2
        time: 0.84999985
        value: 0.29668352
        inSlope: 0.3039688
        outSlope: 0.3039688
        tangentMode: 0
      - serializedVersion: 2
        time: 0.8666665
        value: 0.30163884
        inSlope: 0.29036373
        outSlope: 0.29036373
        tangentMode: 0
      - serializedVersion: 2
        time: 0.88333315
        value: 0.3063623
        inSlope: 0.27614352
        outSlope: 0.27614352
        tangentMode: 0
      - serializedVersion: 2
        time: 0.8999998
        value: 0.31084362
        inSlope: 0.26130998
        outSlope: 0.26130998
        tangentMode: 0
      - serializedVersion: 2
        time: 0.91666645
        value: 0.31507263
        inSlope: 0.24586761
        outSlope: 0.24586761
        tangentMode: 0
      - serializedVersion: 2
        time: 0.9333331
        value: 0.3190392
        inSlope: 0.22981814
        outSlope: 0.22981814
        tangentMode: 0
      - serializedVersion: 2
        time: 0.94999975
        value: 0.32273322
        inSlope: 0.21316162
        outSlope: 0.21316162
        tangentMode: 0
      - serializedVersion: 2
        time: 0.9666664
        value: 0.32614458
        inSlope: 0.1958971
        outSlope: 0.1958971
        tangentMode: 0
      - serializedVersion: 2
        time: 0.98333305
        value: 0.32926312
        inSlope: 0.17802554
        outSlope: 0.17802554
        tangentMode: 0
      - serializedVersion: 2
        time: 0.9999997
        value: 0.33207875
        inSlope: 0.15269092
        outSlope: 0.15269092
        tangentMode: 0
      - serializedVersion: 2
        time: 1.0166664
        value: 0.33435282
        inSlope: 0.11486547
        outSlope: 0.11486547
        tangentMode: 0
      - serializedVersion: 2
        time: 1.0333331
        value: 0.3359076
        inSlope: 0.074139014
        outSlope: 0.074139014
        tangentMode: 0
      - serializedVersion: 2
        time: 1.0499997
        value: 0.33682412
        inSlope: 0.038251914
        outSlope: 0.038251914
        tangentMode: 0
      - serializedVersion: 2
        time: 1.0666664
        value: 0.33718267
        inSlope: 0.0071713394
        outSlope: 0.0071713394
        tangentMode: 0
      - serializedVersion: 2
        time: 1.083333
        value: 0.33706316
        inSlope: -0.019123275
        outSlope: -0.019123275
        tangentMode: 0
      - serializedVersion: 2
        time: 1.0999997
        value: 0.33654523
        inSlope: -0.04064355
        outSlope: -0.04064355
        tangentMode: 0
      - serializedVersion: 2
        time: 1.1166663
        value: 0.33570838
        inSlope: -0.057396643
        outSlope: -0.057396643
        tangentMode: 0
      - serializedVersion: 2
        time: 1.133333
        value: 0.334632
        inSlope: -0.06938344
        outSlope: -0.06938344
        tangentMode: 0
      - serializedVersion: 2
        time: 1.1499996
        value: 0.3333956
        inSlope: -0.07659507
        outSlope: -0.07659507
        tangentMode: 0
      - serializedVersion: 2
        time: 1.1666666
        value: 0.3320788
        inSlope: -0.07900553
        outSlope: -0.07900553
        tangentMode: 0
      m_PreInfinity: 2
      m_PostInfinity: 2
      m_RotationOrder: 4
    attribute: m_LocalRotation.z
    path: Image
    classID: 224
    script: {fileID: 0}
  - curve:
      serializedVersion: 2
      m_Curve:
      - serializedVersion: 2
        time: 0
        value: 1
        inSlope: -0.000075101845
        outSlope: -0.000075101845
        tangentMode: 0
      - serializedVersion: 2
        time: 0.016666668
        value: 0.99999875
        inSlope: -0.00018954276
        outSlope: -0.00018954276
        tangentMode: 0
      - serializedVersion: 2
        time: 0.033333335
        value: 0.9999937
        inSlope: -0.0004792213
        outSlope: -0.0004792213
        tangentMode: 0
      - serializedVersion: 2
        time: 0.050000004
        value: 0.9999828
        inSlope: -0.0009012222
        outSlope: -0.0009012222
        tangentMode: 0
      - serializedVersion: 2
        time: 0.06666667
        value: 0.99996364
        inSlope: -0.0014698507
        outSlope: -0.0014698507
        tangentMode: 0
      - serializedVersion: 2
        time: 0.083333336
        value: 0.9999338
        inSlope: -0.0021994116
        outSlope: -0.0021994116
        tangentMode: 0
      - serializedVersion: 2
        time: 0.1
        value: 0.9998903
        inSlope: -0.0031006339
        outSlope: -0.0031006339
        tangentMode: 0
      - serializedVersion: 2
        time: 0.11666667
        value: 0.9998304
        inSlope: -0.004180669
        outSlope: -0.004180669
        tangentMode: 0
      - serializedVersion: 2
        time: 0.13333334
        value: 0.999751
        inSlope: -0.0054448834
        outSlope: -0.0054448834
        tangentMode: 0
      - serializedVersion: 2
        time: 0.15
        value: 0.9996489
        inSlope: -0.006898642
        outSlope: -0.006898642
        tangentMode: 0
      - serializedVersion: 2
        time: 0.16666667
        value: 0.999521
        inSlope: -0.008543731
        outSlope: -0.008543731
        tangentMode: 0
      - serializedVersion: 2
        time: 0.18333334
        value: 0.99936414
        inSlope: -0.010378362
        outSlope: -0.010378362
        tangentMode: 0
      - serializedVersion: 2
        time: 0.2
        value: 0.9991751
        inSlope: -0.012402535
        outSlope: -0.012402535
        tangentMode: 0
      - serializedVersion: 2
        time: 0.21666667
        value: 0.9989507
        inSlope: -0.014612677
        outSlope: -0.014612677
        tangentMode: 0
      - serializedVersion: 2
        time: 0.23333333
        value: 0.998688
        inSlope: -0.01700163
        outSlope: -0.01700163
        tangentMode: 0
      - serializedVersion: 2
        time: 0.25
        value: 0.998384
        inSlope: -0.019564025
        outSlope: -0.019564025
        tangentMode: 0
      - serializedVersion: 2
        time: 0.26666668
        value: 0.99803585
        inSlope: -0.022292715
        outSlope: -0.022292715
        tangentMode: 0
      - serializedVersion: 2
        time: 0.28333336
        value: 0.9976409
        inSlope: -0.025173403
        outSlope: -0.025173403
        tangentMode: 0
      - serializedVersion: 2
        time: 0.30000004
        value: 0.99719673
        inSlope: -0.028198935
        outSlope: -0.028198935
        tangentMode: 0
      - serializedVersion: 2
        time: 0.31666672
        value: 0.99670094
        inSlope: -0.031358574
        outSlope: -0.031358574
        tangentMode: 0
      - serializedVersion: 2
        time: 0.3333334
        value: 0.99615145
        inSlope: -0.034632653
        outSlope: -0.034632653
        tangentMode: 0
      - serializedVersion: 2
        time: 0.35000008
        value: 0.9955465
        inSlope: -0.03800866
        outSlope: -0.03800866
        tangentMode: 0
      - serializedVersion: 2
        time: 0.36666676
        value: 0.9948845
        inSlope: -0.041474067
        outSlope: -0.041474067
        tangentMode: 0
      - serializedVersion: 2
        time: 0.38333344
        value: 0.99416405
        inSlope: -0.04500922
        outSlope: -0.04500922
        tangentMode: 0
      - serializedVersion: 2
        time: 0.40000013
        value: 0.9933842
        inSlope: -0.048598014
        outSlope: -0.048598014
        tangentMode: 0
      - serializedVersion: 2
        time: 0.4166668
        value: 0.9925441
        inSlope: -0.052220777
        outSlope: -0.052220777
        tangentMode: 0
      - serializedVersion: 2
        time: 0.4333335
        value: 0.9916435
        inSlope: -0.05585964
        outSlope: -0.05585964
        tangentMode: 0
      - serializedVersion: 2
        time: 0.45000017
        value: 0.9906821
        inSlope: -0.059498496
        outSlope: -0.059498496
        tangentMode: 0
      - serializedVersion: 2
        time: 0.46666685
        value: 0.9896602
        inSlope: -0.063112326
        outSlope: -0.063112326
        tangentMode: 0
      - serializedVersion: 2
        time: 0.48333353
        value: 0.9885784
        inSlope: -0.06668151
        outSlope: -0.06668151
        tangentMode: 0
      - serializedVersion: 2
        time: 0.5000002
        value: 0.9874375
        inSlope: -0.07018811
        outSlope: -0.07018811
        tangentMode: 0
      - serializedVersion: 2
        time: 0.5166668
        value: 0.9862388
        inSlope: -0.07361062
        outSlope: -0.07361062
        tangentMode: 0
      - serializedVersion: 2
        time: 0.5333335
        value: 0.9849838
        inSlope: -0.07692762
        outSlope: -0.07692762
        tangentMode: 0
      - serializedVersion: 2
        time: 0.55000013
        value: 0.9836745
        inSlope: -0.08011766
        outSlope: -0.08011766
        tangentMode: 0
      - serializedVersion: 2
        time: 0.5666668
        value: 0.9823132
        inSlope: -0.08316286
        outSlope: -0.08316286
        tangentMode: 0
      - serializedVersion: 2
        time: 0.58333343
        value: 0.98090243
        inSlope: -0.08604177
        outSlope: -0.08604177
        tangentMode: 0
      - serializedVersion: 2
        time: 0.6000001
        value: 0.97944516
        inSlope: -0.08872935
        outSlope: -0.08872935
        tangentMode: 0
      - serializedVersion: 2
        time: 0.61666673
        value: 0.9779448
        inSlope: -0.09121129
        outSlope: -0.09121129
        tangentMode: 0
      - serializedVersion: 2
        time: 0.6333334
        value: 0.9764048
        inSlope: -0.09346613
        outSlope: -0.09346613
        tangentMode: 0
      - serializedVersion: 2
        time: 0.65000004
        value: 0.97482926
        inSlope: -0.095472425
        outSlope: -0.095472425
        tangentMode: 0
      - serializedVersion: 2
        time: 0.6666667
        value: 0.9732224
        inSlope: -0.09721765
        outSlope: -0.09721765
        tangentMode: 0
      - serializedVersion: 2
        time: 0.68333334
        value: 0.9715887
        inSlope: -0.09867678
        outSlope: -0.09867678
        tangentMode: 0
      - serializedVersion: 2
        time: 0.7
        value: 0.96993315
        inSlope: -0.09983549
        outSlope: -0.09983549
        tangentMode: 0
      - serializedVersion: 2
        time: 0.71666664
        value: 0.9682608
        inSlope: -0.10068128
        outSlope: -0.10068128
        tangentMode: 0
      - serializedVersion: 2
        time: 0.7333333
        value: 0.9665771
        inSlope: -0.1011909
        outSlope: -0.1011909
        tangentMode: 0
      - serializedVersion: 2
        time: 0.74999994
        value: 0.9648878
        inSlope: -0.10135541
        outSlope: -0.10135541
        tangentMode: 0
      - serializedVersion: 2
        time: 0.7666666
        value: 0.9631986
        inSlope: -0.10116229
        outSlope: -0.10116229
        tangentMode: 0
      - serializedVersion: 2
        time: 0.78333324
        value: 0.9615157
        inSlope: -0.100593664
        outSlope: -0.100593664
        tangentMode: 0
      - serializedVersion: 2
        time: 0.7999999
        value: 0.9598455
        inSlope: -0.09964416
        outSlope: -0.09964416
        tangentMode: 0
      - serializedVersion: 2
        time: 0.81666654
        value: 0.95819426
        inSlope: -0.09829947
        outSlope: -0.09829947
        tangentMode: 0
      - serializedVersion: 2
        time: 0.8333332
        value: 0.95656884
        inSlope: -0.09655246
        outSlope: -0.09655246
        tangentMode: 0
      - serializedVersion: 2
        time: 0.84999985
        value: 0.95497584
        inSlope: -0.09439775
        outSlope: -0.09439775
        tangentMode: 0
      - serializedVersion: 2
        time: 0.8666665
        value: 0.95342225
        inSlope: -0.09182641
        outSlope: -0.09182641
        tangentMode: 0
      - serializedVersion: 2
        time: 0.88333315
        value: 0.95191497
        inSlope: -0.08883485
        outSlope: -0.08883485
        tangentMode: 0
      - serializedVersion: 2
        time: 0.8999998
        value: 0.9504611
        inSlope: -0.085423075
        outSlope: -0.085423075
        tangentMode: 0
      - serializedVersion: 2
        time: 0.91666645
        value: 0.94906753
        inSlope: -0.08158751
        outSlope: -0.08158751
        tangentMode: 0
      - serializedVersion: 2
        time: 0.9333331
        value: 0.9477415
        inSlope: -0.07732637
        outSlope: -0.07732637
        tangentMode: 0
      - serializedVersion: 2
        time: 0.94999975
        value: 0.94649
        inSlope: -0.0726486
        outSlope: -0.0726486
        tangentMode: 0
      - serializedVersion: 2
        time: 0.9666664
        value: 0.9453199
        inSlope: -0.067554176
        outSlope: -0.067554176
        tangentMode: 0
      - serializedVersion: 2
        time: 0.98333305
        value: 0.9442382
        inSlope: -0.062046707
        outSlope: -0.062046707
        tangentMode: 0
      - serializedVersion: 2
        time: 0.9999997
        value: 0.94325167
        inSlope: -0.053706728
        outSlope: -0.053706728
        tangentMode: 0
      - serializedVersion: 2
        time: 1.0166664
        value: 0.94244796
        inSlope: -0.04070158
        outSlope: -0.04070158
        tangentMode: 0
      - serializedVersion: 2
        time: 1.0333331
        value: 0.94189495
        inSlope: -0.026410842
        outSlope: -0.026410842
        tangentMode: 0
      - serializedVersion: 2
        time: 1.0499997
        value: 0.9415676
        inSlope: -0.013670338
        outSlope: -0.013670338
        tangentMode: 0
      - serializedVersion: 2
        time: 1.0666664
        value: 0.9414393
        inSlope: -0.0025677704
        outSlope: -0.0025677704
        tangentMode: 0
      - serializedVersion: 2
        time: 1.083333
        value: 0.941482
        inSlope: 0.0068414276
        outSlope: 0.0068414276
        tangentMode: 0
      - serializedVersion: 2
        time: 1.0999997
        value: 0.9416673
        inSlope: 0.014517916
        outSlope: 0.014517916
        tangentMode: 0
      - serializedVersion: 2
        time: 1.1166663
        value: 0.94196594
        inSlope: 0.020447392
        outSlope: 0.020447392
        tangentMode: 0
      - serializedVersion: 2
        time: 1.133333
        value: 0.9423489
        inSlope: 0.024631642
        outSlope: 0.024631642
        tangentMode: 0
      - serializedVersion: 2
        time: 1.1499996
        value: 0.942787
        inSlope: 0.027082885
        outSlope: 0.027082885
        tangentMode: 0
      - serializedVersion: 2
        time: 1.1666666
        value: 0.94325167
        inSlope: 0.027880097
        outSlope: 0.027880097
        tangentMode: 0
      m_PreInfinity: 2
      m_PostInfinity: 2
      m_RotationOrder: 4
    attribute: m_LocalRotation.w
    path: Image
    classID: 224
    script: {fileID: 0}
  - curve:
      serializedVersion: 2
      m_Curve:
      - serializedVersion: 2
        time: 0
        value: 2.6
        inSlope: 0
        outSlope: 0
        tangentMode: 136
      - serializedVersion: 2
        time: 1.1666666
        value: -105
        inSlope: 0
        outSlope: 0
        tangentMode: 136
      m_PreInfinity: 2
      m_PostInfinity: 2
      m_RotationOrder: 4
    attribute: m_AnchoredPosition.x
    path: Image (5)/Button/Text
    classID: 224
    script: {fileID: 0}
  - curve:
      serializedVersion: 2
      m_Curve:
      - serializedVersion: 2
        time: 0
        value: 12.7
        inSlope: 0
        outSlope: 0
        tangentMode: 136
      - serializedVersion: 2
        time: 1.1666666
        value: -42
        inSlope: 0
        outSlope: 0
        tangentMode: 136
      m_PreInfinity: 2
      m_PostInfinity: 2
      m_RotationOrder: 4
    attribute: m_AnchoredPosition.y
    path: Image (5)/Button/Text
    classID: 224
    script: {fileID: 0}
  - curve:
      serializedVersion: 2
      m_Curve:
      - serializedVersion: 2
        time: 0
        value: 0.5
        inSlope: 0
        outSlope: 0
        tangentMode: 136
      - serializedVersion: 2
        time: 1.1666666
        value: 0.3
        inSlope: 0
        outSlope: 0
        tangentMode: 136
      m_PreInfinity: 2
      m_PostInfinity: 2
      m_RotationOrder: 4
    attribute: m_LocalScale.x
    path: Image (5)/Button/Image
    classID: 224
    script: {fileID: 0}
  - curve:
      serializedVersion: 2
      m_Curve:
      - serializedVersion: 2
        time: 0
        value: 0.5
        inSlope: 0
        outSlope: 0
        tangentMode: 136
      - serializedVersion: 2
        time: 1.1666666
        value: 0.3
        inSlope: 0
        outSlope: 0
        tangentMode: 136
      m_PreInfinity: 2
      m_PostInfinity: 2
      m_RotationOrder: 4
    attribute: m_LocalScale.y
    path: Image (5)/Button/Image
    classID: 224
    script: {fileID: 0}
  - curve:
      serializedVersion: 2
      m_Curve:
      - serializedVersion: 2
        time: 0
        value: 1
        inSlope: 0
        outSlope: 0
        tangentMode: 136
      - serializedVersion: 2
        time: 1.1666666
        value: 1
        inSlope: 0
        outSlope: 0
        tangentMode: 136
      m_PreInfinity: 2
      m_PostInfinity: 2
      m_RotationOrder: 4
    attribute: m_LocalScale.z
    path: Image (5)/Button/Image
    classID: 224
    script: {fileID: 0}
  - curve:
      serializedVersion: 2
      m_Curve:
      - serializedVersion: 2
        time: 0
        value: 10.5
        inSlope: 0
        outSlope: 0
        tangentMode: 136
      - serializedVersion: 2
        time: 1.1666666
        value: 54
        inSlope: 0
        outSlope: 0
        tangentMode: 136
      m_PreInfinity: 2
      m_PostInfinity: 2
      m_RotationOrder: 4
    attribute: m_AnchoredPosition.x
    path: Image (5)/Button/Image
    classID: 224
    script: {fileID: 0}
  - curve:
      serializedVersion: 2
      m_Curve:
      - serializedVersion: 2
        time: 0
        value: 17.3
        inSlope: 0
        outSlope: 0
        tangentMode: 136
      - serializedVersion: 2
        time: 1.1666666
        value: -36
        inSlope: 0
        outSlope: 0
        tangentMode: 136
      m_PreInfinity: 2
      m_PostInfinity: 2
      m_RotationOrder: 4
    attribute: m_AnchoredPosition.y
    path: Image (5)/Button/Image
    classID: 224
    script: {fileID: 0}
  m_EulerEditorCurves:
  - curve:
      serializedVersion: 2
      m_Curve:
      - serializedVersion: 2
        time: 0
        value: 0
        inSlope: 0
        outSlope: 0
        tangentMode: 0
      - serializedVersion: 2
        time: 1
        value: 0
        inSlope: 0
        outSlope: 0
        tangentMode: 0
      - serializedVersion: 2
        time: 1.1666666
        value: 0
        inSlope: 0
        outSlope: 0
        tangentMode: 0
      m_PreInfinity: 2
      m_PostInfinity: 2
      m_RotationOrder: 4
    attribute: localEulerAnglesBaked.x
    path: Image
    classID: 224
    script: {fileID: 0}
  - curve:
      serializedVersion: 2
      m_Curve:
      - serializedVersion: 2
        time: 0
        value: 0
        inSlope: 0
        outSlope: 0
        tangentMode: 0
      - serializedVersion: 2
        time: 1
        value: 0
        inSlope: 0
        outSlope: 0
        tangentMode: 0
      - serializedVersion: 2
        time: 1.1666666
        value: 0
        inSlope: 0
        outSlope: 0
        tangentMode: 0
      m_PreInfinity: 2
      m_PostInfinity: 2
      m_RotationOrder: 4
    attribute: localEulerAnglesBaked.y
    path: Image
    classID: 224
    script: {fileID: 0}
  - curve:
      serializedVersion: 2
      m_Curve:
      - serializedVersion: 2
        time: 0
        value: 0
        inSlope: 9.6975
        outSlope: 9.6975
        tangentMode: 0
      - serializedVersion: 2
        time: 1
        value: 38.79
        inSlope: 19.395
        outSlope: 19.395
        tangentMode: 0
      - serializedVersion: 2
        time: 1.1666666
        value: 38.79
        inSlope: -9.6975
        outSlope: -9.6975
        tangentMode: 0
      m_PreInfinity: 2
      m_PostInfinity: 2
      m_RotationOrder: 4
    attribute: localEulerAnglesBaked.z
    path: Image
    classID: 224
    script: {fileID: 0}
  m_HasGenericRootTransform: 0
  m_HasMotionFloatCurves: 0
  m_GenerateMotionCurves: 0
  m_Events: []
